EESchema Schematic File Version 4
EELAYER 30 0
EELAYER END
$Descr A4 11693 8268
encoding utf-8
Sheet 4 4
Title ""
Date ""
Rev ""
Comp ""
Comment1 ""
Comment2 ""
Comment3 ""
Comment4 ""
$EndDescr
$Comp
L Connector:Conn_01x03_Male J5
U 1 1 60329498
P 750 800
F 0 "J5" H 858 1081 50  0000 C CNN
F 1 "Conn_01x03_Male" H 858 990 50  0000 C CNN
F 2 "Connector_JST:JST_EH_B3B-EH-A_1x03_P2.50mm_Vertical" H 750 800 50  0001 C CNN
F 3 "~" H 750 800 50  0001 C CNN
	1    750  800 
	1    0    0    -1  
$EndComp
$Comp
L pspice:0 #GND032
U 1 1 6032A1FF
P 1100 950
F 0 "#GND032" H 1100 850 50  0001 C CNN
F 1 "0" H 1100 1039 50  0000 C CNN
F 2 "" H 1100 950 50  0001 C CNN
F 3 "~" H 1100 950 50  0001 C CNN
	1    1100 950 
	1    0    0    -1  
$EndComp
Wire Wire Line
	1100 950  1100 900 
Wire Wire Line
	1100 900  950  900 
Text GLabel 1250 800  2    50   Input ~ 0
USART2_RX
Text GLabel 1250 700  2    50   Input ~ 0
USART2_TX
Wire Wire Line
	950  700  1250 700 
Wire Wire Line
	950  800  1250 800 
$Comp
L pspice:0 #GND033
U 1 1 60427B42
P 1100 3500
F 0 "#GND033" H 1100 3400 50  0001 C CNN
F 1 "0" H 1100 3589 50  0000 C CNN
F 2 "" H 1100 3500 50  0001 C CNN
F 3 "~" H 1100 3500 50  0001 C CNN
	1    1100 3500
	1    0    0    -1  
$EndComp
Wire Wire Line
	1100 3500 1100 3450
Wire Wire Line
	1100 3450 950  3450
Text GLabel 2850 3350 2    50   Input ~ 0
gear_5
Text GLabel 2850 3250 2    50   Input ~ 0
gear_4
Text GLabel 2850 3050 2    50   Input ~ 0
gear_2
Text GLabel 2850 2950 2    50   Input ~ 0
gear_1
Text GLabel 2850 2850 2    50   Input ~ 0
gear_N
Text GLabel 2850 3150 2    50   Input ~ 0
gear_3
$Comp
L Connector:Conn_01x07_Male J7
U 1 1 6047D6FD
P 750 3150
F 0 "J7" H 858 3631 50  0000 C CNN
F 1 "Conn_01x07_Male" H 858 3540 50  0000 C CNN
F 2 "Connector_JST:JST_EH_B7B-EH-A_1x07_P2.50mm_Vertical" H 750 3150 50  0001 C CNN
F 3 "~" H 750 3150 50  0001 C CNN
	1    750  3150
	1    0    0    -1  
$EndComp
Wire Wire Line
	1700 1650 1700 1600
$Comp
L pspice:0 #GND036
U 1 1 605C5583
P 1700 1650
F 0 "#GND036" H 1700 1550 50  0001 C CNN
F 1 "0" H 1700 1739 50  0000 C CNN
F 2 "" H 1700 1650 50  0001 C CNN
F 3 "~" H 1700 1650 50  0001 C CNN
	1    1700 1650
	1    0    0    -1  
$EndComp
Text GLabel 1250 1500 2    50   Input ~ 0
TCK
Text GLabel 1250 1400 2    50   Input ~ 0
+3V3
Wire Wire Line
	950  1400 1250 1400
Wire Wire Line
	1250 1500 950  1500
Text GLabel 1250 1800 2    50   Input ~ 0
NRST
Text GLabel 1250 1700 2    50   Input ~ 0
TMS
Wire Wire Line
	950  1700 1250 1700
Wire Wire Line
	1250 1800 950  1800
Text GLabel 1250 1900 2    50   Input ~ 0
SWO
Wire Wire Line
	1250 1900 950  1900
Wire Wire Line
	950  1600 1700 1600
$Comp
L Connector:Conn_01x06_Male J6
U 1 1 605C2E7B
P 750 1600
F 0 "J6" H 858 1981 50  0000 C CNN
F 1 "Conn_01x06_Male" H 858 1890 50  0000 C CNN
F 2 "Connector_JST:JST_EH_B6B-EH-A_1x06_P2.50mm_Vertical" H 750 1600 50  0001 C CNN
F 3 "~" H 750 1600 50  0001 C CNN
	1    750  1600
	1    0    0    -1  
$EndComp
Text GLabel 4000 1150 2    50   Input ~ 0
I2C1_SDA
Wire Wire Line
	3750 1150 4000 1150
Wire Wire Line
	3900 1050 3750 1050
Wire Wire Line
	3900 1100 3900 1050
$Comp
L pspice:0 #GND042
U 1 1 603C22F1
P 3900 1100
F 0 "#GND042" H 3900 1000 50  0001 C CNN
F 1 "0" H 3900 1189 50  0000 C CNN
F 2 "" H 3900 1100 50  0001 C CNN
F 3 "~" H 3900 1100 50  0001 C CNN
	1    3900 1100
	1    0    0    -1  
$EndComp
$Comp
L power:+3.3V #PWR?
U 1 1 603C9599
P 4000 750
AR Path="/5FECEB13/603C9599" Ref="#PWR?"  Part="1" 
AR Path="/603282AC/603C9599" Ref="#PWR012"  Part="1" 
F 0 "#PWR012" H 4000 600 50  0001 C CNN
F 1 "+3.3V" H 4015 923 50  0000 C CNN
F 2 "" H 4000 750 50  0001 C CNN
F 3 "" H 4000 750 50  0001 C CNN
	1    4000 750 
	1    0    0    -1  
$EndComp
Wire Wire Line
	3750 950  4000 950 
Wire Wire Line
	4000 750  4000 950 
Wire Wire Line
	4350 2100 4350 2050
$Comp
L pspice:0 #GND043
U 1 1 603E019A
P 4350 2100
F 0 "#GND043" H 4350 2000 50  0001 C CNN
F 1 "0" H 4350 2189 50  0000 C CNN
F 2 "" H 4350 2100 50  0001 C CNN
F 3 "~" H 4350 2100 50  0001 C CNN
	1    4350 2100
	1    0    0    -1  
$EndComp
$Comp
L Connector:Conn_01x03_Male J10
U 1 1 603E01A4
P 3700 2050
F 0 "J10" H 3808 2331 50  0000 C CNN
F 1 "Conn_01x03_Male" H 3808 2240 50  0000 C CNN
F 2 "Connector_JST:JST_EH_B3B-EH-A_1x03_P2.50mm_Vertical" H 3700 2050 50  0001 C CNN
F 3 "~" H 3700 2050 50  0001 C CNN
	1    3700 2050
	1    0    0    -1  
$EndComp
$Comp
L Connector:Conn_01x03_Male J11
U 1 1 603E1FED
P 3750 2850
F 0 "J11" H 3858 3131 50  0000 C CNN
F 1 "Conn_01x03_Male" H 3858 3040 50  0000 C CNN
F 2 "Connector_JST:JST_EH_B3B-EH-A_1x03_P2.50mm_Vertical" H 3750 2850 50  0001 C CNN
F 3 "~" H 3750 2850 50  0001 C CNN
	1    3750 2850
	1    0    0    -1  
$EndComp
Wire Wire Line
	3900 2050 4350 2050
$Comp
L power:+3.3V #PWR?
U 1 1 603E7FE9
P 4450 1750
AR Path="/5FECEB13/603E7FE9" Ref="#PWR?"  Part="1" 
AR Path="/603282AC/603E7FE9" Ref="#PWR013"  Part="1" 
F 0 "#PWR013" H 4450 1600 50  0001 C CNN
F 1 "+3.3V" H 4465 1923 50  0000 C CNN
F 2 "" H 4450 1750 50  0001 C CNN
F 3 "" H 4450 1750 50  0001 C CNN
	1    4450 1750
	1    0    0    -1  
$EndComp
Wire Wire Line
	4450 1750 4450 1950
Wire Wire Line
	3900 1950 4450 1950
Wire Wire Line
	4400 2900 4400 2850
Wire Wire Line
	3950 2850 4400 2850
$Comp
L power:+3.3V #PWR?
U 1 1 603EEDCB
P 4500 2550
AR Path="/5FECEB13/603EEDCB" Ref="#PWR?"  Part="1" 
AR Path="/603282AC/603EEDCB" Ref="#PWR014"  Part="1" 
F 0 "#PWR014" H 4500 2400 50  0001 C CNN
F 1 "+3.3V" H 4515 2723 50  0000 C CNN
F 2 "" H 4500 2550 50  0001 C CNN
F 3 "" H 4500 2550 50  0001 C CNN
	1    4500 2550
	1    0    0    -1  
$EndComp
Wire Wire Line
	4500 2550 4500 2750
Wire Wire Line
	3950 2750 4500 2750
Wire Wire Line
	4000 1250 3750 1250
Text GLabel 4000 1250 2    50   Input ~ 0
I2C1_SCL
$Comp
L Connector:Conn_01x04_Male J9
U 1 1 60458443
P 3550 1050
F 0 "J9" H 3658 1331 50  0000 C CNN
F 1 "Conn_01x04_Male" H 3658 1240 50  0000 C CNN
F 2 "Connector_JST:JST_EH_B4B-EH-A_1x04_P2.50mm_Vertical" H 3550 1050 50  0001 C CNN
F 3 "~" H 3550 1050 50  0001 C CNN
	1    3550 1050
	1    0    0    -1  
$EndComp
Text GLabel 3950 2150 2    50   Input ~ 0
PotDx
Wire Wire Line
	3900 2150 3950 2150
Wire Wire Line
	3950 2950 4000 2950
$Comp
L Connector:Conn_01x03_Male J12
U 1 1 60454C83
P 3750 3600
F 0 "J12" H 3858 3881 50  0000 C CNN
F 1 "Conn_01x03_Male" H 3858 3790 50  0000 C CNN
F 2 "Connector_JST:JST_EH_B3B-EH-A_1x03_P2.50mm_Vertical" H 3750 3600 50  0001 C CNN
F 3 "~" H 3750 3600 50  0001 C CNN
	1    3750 3600
	1    0    0    -1  
$EndComp
Wire Wire Line
	3950 3700 4000 3700
$Comp
L Connector:Conn_01x05_Male J13
U 1 1 603BEC6D
P 3750 4400
F 0 "J13" H 3858 4781 50  0000 C CNN
F 1 "Conn_01x05_Male" H 3858 4690 50  0000 C CNN
F 2 "Connector_JST:JST_EH_B5B-EH-A_1x05_P2.50mm_Vertical" H 3750 4400 50  0001 C CNN
F 3 "~" H 3750 4400 50  0001 C CNN
	1    3750 4400
	1    0    0    -1  
$EndComp
$Comp
L Connector:Conn_01x05_Male J14
U 1 1 603BFFE7
P 3750 5350
F 0 "J14" H 3858 5731 50  0000 C CNN
F 1 "Conn_01x05_Male" H 3858 5640 50  0000 C CNN
F 2 "Connector_JST:JST_EH_B5B-EH-A_1x05_P2.50mm_Vertical" H 3750 5350 50  0001 C CNN
F 3 "~" H 3750 5350 50  0001 C CNN
	1    3750 5350
	1    0    0    -1  
$EndComp
Text GLabel 4000 3700 2    50   Input ~ 0
freno
Wire Wire Line
	3950 3500 4500 3500
Wire Wire Line
	4500 3300 4500 3500
$Comp
L power:+3.3V #PWR?
U 1 1 60454C91
P 4500 3300
AR Path="/5FECEB13/60454C91" Ref="#PWR?"  Part="1" 
AR Path="/603282AC/60454C91" Ref="#PWR015"  Part="1" 
F 0 "#PWR015" H 4500 3150 50  0001 C CNN
F 1 "+3.3V" H 4515 3473 50  0000 C CNN
F 2 "" H 4500 3300 50  0001 C CNN
F 3 "" H 4500 3300 50  0001 C CNN
	1    4500 3300
	1    0    0    -1  
$EndComp
Wire Wire Line
	3950 3600 4400 3600
$Comp
L pspice:0 #GND045
U 1 1 60454C8A
P 4400 3650
F 0 "#GND045" H 4400 3550 50  0001 C CNN
F 1 "0" H 4400 3739 50  0000 C CNN
F 2 "" H 4400 3650 50  0001 C CNN
F 3 "~" H 4400 3650 50  0001 C CNN
	1    4400 3650
	1    0    0    -1  
$EndComp
Wire Wire Line
	4400 3650 4400 3600
Text GLabel 4000 2950 2    50   Input ~ 0
PotSx
$Comp
L pspice:0 #GND044
U 1 1 603EEDC0
P 4400 2900
F 0 "#GND044" H 4400 2800 50  0001 C CNN
F 1 "0" H 4400 2989 50  0000 C CNN
F 2 "" H 4400 2900 50  0001 C CNN
F 3 "~" H 4400 2900 50  0001 C CNN
	1    4400 2900
	1    0    0    -1  
$EndComp
Wire Wire Line
	3950 4200 4500 4200
Wire Wire Line
	4500 4000 4500 4200
Wire Wire Line
	3950 4300 4400 4300
$Comp
L pspice:0 #GND046
U 1 1 603C4968
P 4400 4350
F 0 "#GND046" H 4400 4250 50  0001 C CNN
F 1 "0" H 4400 4439 50  0000 C CNN
F 2 "" H 4400 4350 50  0001 C CNN
F 3 "~" H 4400 4350 50  0001 C CNN
	1    4400 4350
	1    0    0    -1  
$EndComp
Wire Wire Line
	4400 4350 4400 4300
$Comp
L power:+9V #PWR016
U 1 1 603C8F1C
P 4500 4000
F 0 "#PWR016" H 4500 3850 50  0001 C CNN
F 1 "+9V" H 4515 4173 50  0000 C CNN
F 2 "" H 4500 4000 50  0001 C CNN
F 3 "" H 4500 4000 50  0001 C CNN
	1    4500 4000
	1    0    0    -1  
$EndComp
Wire Wire Line
	3950 4600 4400 4600
$Comp
L pspice:0 #GND047
U 1 1 603E5A67
P 4400 4650
F 0 "#GND047" H 4400 4550 50  0001 C CNN
F 1 "0" H 4400 4739 50  0000 C CNN
F 2 "" H 4400 4650 50  0001 C CNN
F 3 "~" H 4400 4650 50  0001 C CNN
	1    4400 4650
	1    0    0    -1  
$EndComp
Wire Wire Line
	4400 4650 4400 4600
Wire Wire Line
	3950 5150 4500 5150
Wire Wire Line
	4500 4950 4500 5150
Wire Wire Line
	3950 5250 4400 5250
$Comp
L pspice:0 #GND048
U 1 1 603E9541
P 4400 5300
F 0 "#GND048" H 4400 5200 50  0001 C CNN
F 1 "0" H 4400 5389 50  0000 C CNN
F 2 "" H 4400 5300 50  0001 C CNN
F 3 "~" H 4400 5300 50  0001 C CNN
	1    4400 5300
	1    0    0    -1  
$EndComp
Wire Wire Line
	4400 5300 4400 5250
$Comp
L power:+9V #PWR017
U 1 1 603E9548
P 4500 4950
F 0 "#PWR017" H 4500 4800 50  0001 C CNN
F 1 "+9V" H 4515 5123 50  0000 C CNN
F 2 "" H 4500 4950 50  0001 C CNN
F 3 "" H 4500 4950 50  0001 C CNN
	1    4500 4950
	1    0    0    -1  
$EndComp
$Comp
L Device:R R?
U 1 1 603E9550
P 5750 5450
AR Path="/5FED8DE7/603E9550" Ref="R?"  Part="1" 
AR Path="/603282AC/603E9550" Ref="R25"  Part="1" 
F 0 "R25" H 5680 5404 50  0000 R CNN
F 1 "120R" H 5680 5495 50  0000 R CNN
F 2 "Resistor_SMD:R_1206_3216Metric_Pad1.30x1.75mm_HandSolder" V 5680 5450 50  0001 C CNN
F 3 "~" H 5750 5450 50  0001 C CNN
F 4 "C17909" H 5750 5450 50  0001 C CNN "LCSC"
	1    5750 5450
	0    -1   -1   0   
$EndComp
Wire Wire Line
	6100 5450 5900 5450
$Comp
L power:+3.3V #PWR?
U 1 1 603E9558
P 6100 5450
AR Path="/5FECEB13/603E9558" Ref="#PWR?"  Part="1" 
AR Path="/603282AC/603E9558" Ref="#PWR019"  Part="1" 
F 0 "#PWR019" H 6100 5300 50  0001 C CNN
F 1 "+3.3V" H 6115 5623 50  0000 C CNN
F 2 "" H 6100 5450 50  0001 C CNN
F 3 "" H 6100 5450 50  0001 C CNN
	1    6100 5450
	0    1    1    0   
$EndComp
Wire Wire Line
	3950 5550 4400 5550
$Comp
L pspice:0 #GND049
U 1 1 603E955F
P 4400 5600
F 0 "#GND049" H 4400 5500 50  0001 C CNN
F 1 "0" H 4400 5689 50  0000 C CNN
F 2 "" H 4400 5600 50  0001 C CNN
F 3 "~" H 4400 5600 50  0001 C CNN
	1    4400 5600
	1    0    0    -1  
$EndComp
Wire Wire Line
	4400 5600 4400 5550
Wire Wire Line
	3950 5450 5600 5450
Text GLabel 5250 5350 2    50   Input ~ 0
Enc_SX
$Comp
L Device:R R?
U 1 1 604557C1
P 5100 5700
AR Path="/5FED8DE7/604557C1" Ref="R?"  Part="1" 
AR Path="/603282AC/604557C1" Ref="R23"  Part="1" 
F 0 "R23" H 5030 5654 50  0000 R CNN
F 1 "33k" H 5030 5745 50  0000 R CNN
F 2 "Resistor_SMD:R_1206_3216Metric_Pad1.30x1.75mm_HandSolder" V 5030 5700 50  0001 C CNN
F 3 "~" H 5100 5700 50  0001 C CNN
F 4 "C18004" H 5100 5700 50  0001 C CNN "LCSC"
	1    5100 5700
	-1   0    0    1   
$EndComp
$Comp
L Device:R R?
U 1 1 60458149
P 4850 5350
AR Path="/5FED8DE7/60458149" Ref="R?"  Part="1" 
AR Path="/603282AC/60458149" Ref="R21"  Part="1" 
F 0 "R21" H 4780 5304 50  0000 R CNN
F 1 "56.2k" H 4780 5395 50  0000 R CNN
F 2 "Resistor_SMD:R_1206_3216Metric_Pad1.30x1.75mm_HandSolder" V 4780 5350 50  0001 C CNN
F 3 "~" H 4850 5350 50  0001 C CNN
F 4 "C63497" H 4850 5350 50  0001 C CNN "LCSC"
	1    4850 5350
	0    1    1    0   
$EndComp
$Comp
L pspice:0 #GND051
U 1 1 6046664F
P 5100 5900
F 0 "#GND051" H 5100 5800 50  0001 C CNN
F 1 "0" H 5100 5989 50  0000 C CNN
F 2 "" H 5100 5900 50  0001 C CNN
F 3 "~" H 5100 5900 50  0001 C CNN
	1    5100 5900
	1    0    0    -1  
$EndComp
Wire Wire Line
	5100 5900 5100 5850
Wire Wire Line
	3950 5350 4700 5350
Wire Wire Line
	5100 5550 5100 5350
Wire Wire Line
	5100 5350 5000 5350
Wire Wire Line
	5250 5350 5100 5350
Connection ~ 5100 5350
$Comp
L Device:R R?
U 1 1 60477B51
P 5750 4500
AR Path="/5FED8DE7/60477B51" Ref="R?"  Part="1" 
AR Path="/603282AC/60477B51" Ref="R24"  Part="1" 
F 0 "R24" H 5680 4454 50  0000 R CNN
F 1 "120R" H 5680 4545 50  0000 R CNN
F 2 "Resistor_SMD:R_1206_3216Metric_Pad1.30x1.75mm_HandSolder" V 5680 4500 50  0001 C CNN
F 3 "~" H 5750 4500 50  0001 C CNN
F 4 "C17909" H 5750 4500 50  0001 C CNN "LCSC"
	1    5750 4500
	0    -1   -1   0   
$EndComp
Wire Wire Line
	6100 4500 5900 4500
$Comp
L power:+3.3V #PWR?
U 1 1 60477F30
P 6100 4500
AR Path="/5FECEB13/60477F30" Ref="#PWR?"  Part="1" 
AR Path="/603282AC/60477F30" Ref="#PWR018"  Part="1" 
F 0 "#PWR018" H 6100 4350 50  0001 C CNN
F 1 "+3.3V" H 6115 4673 50  0000 C CNN
F 2 "" H 6100 4500 50  0001 C CNN
F 3 "" H 6100 4500 50  0001 C CNN
	1    6100 4500
	0    1    1    0   
$EndComp
Wire Wire Line
	3950 4500 5600 4500
Wire Wire Line
	5100 4950 5100 4900
$Comp
L pspice:0 #GND050
U 1 1 6047488D
P 5100 4950
F 0 "#GND050" H 5100 4850 50  0001 C CNN
F 1 "0" H 5100 5039 50  0000 C CNN
F 2 "" H 5100 4950 50  0001 C CNN
F 3 "~" H 5100 4950 50  0001 C CNN
	1    5100 4950
	1    0    0    -1  
$EndComp
$Comp
L Device:R R?
U 1 1 604744CB
P 5100 4750
AR Path="/5FED8DE7/604744CB" Ref="R?"  Part="1" 
AR Path="/603282AC/604744CB" Ref="R22"  Part="1" 
F 0 "R22" H 5030 4704 50  0000 R CNN
F 1 "33k" H 5030 4795 50  0000 R CNN
F 2 "Resistor_SMD:R_1206_3216Metric_Pad1.30x1.75mm_HandSolder" V 5030 4750 50  0001 C CNN
F 3 "~" H 5100 4750 50  0001 C CNN
F 4 "C18004" H 5100 4750 50  0001 C CNN "LCSC"
	1    5100 4750
	-1   0    0    1   
$EndComp
Connection ~ 5100 4400
Wire Wire Line
	5250 4400 5100 4400
Wire Wire Line
	5100 4400 5000 4400
Wire Wire Line
	5100 4600 5100 4400
Text GLabel 5250 4400 2    50   Input ~ 0
Enc_DX
$Comp
L Device:R R?
U 1 1 60470CE1
P 4850 4400
AR Path="/5FED8DE7/60470CE1" Ref="R?"  Part="1" 
AR Path="/603282AC/60470CE1" Ref="R20"  Part="1" 
F 0 "R20" H 4780 4354 50  0000 R CNN
F 1 "56.2k" H 4780 4445 50  0000 R CNN
F 2 "Resistor_SMD:R_1206_3216Metric_Pad1.30x1.75mm_HandSolder" V 4780 4400 50  0001 C CNN
F 3 "~" H 4850 4400 50  0001 C CNN
F 4 "C63497" H 4850 4400 50  0001 C CNN "LCSC"
	1    4850 4400
	0    1    1    0   
$EndComp
Wire Wire Line
	3950 4400 4700 4400
$Comp
L Device:R R?
U 1 1 604C3A13
P 1300 2850
AR Path="/5FED8DE7/604C3A13" Ref="R?"  Part="1" 
AR Path="/603282AC/604C3A13" Ref="R14"  Part="1" 
F 0 "R14" H 1230 2804 50  0000 R CNN
F 1 "100k" H 1230 2895 50  0000 R CNN
F 2 "Resistor_SMD:R_1206_3216Metric_Pad1.30x1.75mm_HandSolder" V 1230 2850 50  0001 C CNN
F 3 "~" H 1300 2850 50  0001 C CNN
F 4 "C17900" H 1300 2850 50  0001 C CNN "LCSC"
	1    1300 2850
	0    1    1    0   
$EndComp
$Comp
L Device:R R?
U 1 1 604C7AC6
P 1300 2950
AR Path="/5FED8DE7/604C7AC6" Ref="R?"  Part="1" 
AR Path="/603282AC/604C7AC6" Ref="R15"  Part="1" 
F 0 "R15" H 1230 2904 50  0000 R CNN
F 1 "100k" H 1230 2995 50  0000 R CNN
F 2 "Resistor_SMD:R_1206_3216Metric_Pad1.30x1.75mm_HandSolder" V 1230 2950 50  0001 C CNN
F 3 "~" H 1300 2950 50  0001 C CNN
F 4 "C17900" H 1300 2950 50  0001 C CNN "LCSC"
	1    1300 2950
	0    1    1    0   
$EndComp
$Comp
L Device:R R?
U 1 1 604CAE09
P 1300 3050
AR Path="/5FED8DE7/604CAE09" Ref="R?"  Part="1" 
AR Path="/603282AC/604CAE09" Ref="R16"  Part="1" 
F 0 "R16" H 1230 3004 50  0000 R CNN
F 1 "100k" H 1230 3095 50  0000 R CNN
F 2 "Resistor_SMD:R_1206_3216Metric_Pad1.30x1.75mm_HandSolder" V 1230 3050 50  0001 C CNN
F 3 "~" H 1300 3050 50  0001 C CNN
F 4 "C17900" H 1300 3050 50  0001 C CNN "LCSC"
	1    1300 3050
	0    1    1    0   
$EndComp
$Comp
L Device:R R?
U 1 1 604CB207
P 1300 3150
AR Path="/5FED8DE7/604CB207" Ref="R?"  Part="1" 
AR Path="/603282AC/604CB207" Ref="R17"  Part="1" 
F 0 "R17" H 1230 3104 50  0000 R CNN
F 1 "100k" H 1230 3195 50  0000 R CNN
F 2 "Resistor_SMD:R_1206_3216Metric_Pad1.30x1.75mm_HandSolder" V 1230 3150 50  0001 C CNN
F 3 "~" H 1300 3150 50  0001 C CNN
F 4 "C17900" H 1300 3150 50  0001 C CNN "LCSC"
	1    1300 3150
	0    1    1    0   
$EndComp
$Comp
L Device:R R?
U 1 1 604CE778
P 1300 3250
AR Path="/5FED8DE7/604CE778" Ref="R?"  Part="1" 
AR Path="/603282AC/604CE778" Ref="R18"  Part="1" 
F 0 "R18" H 1230 3204 50  0000 R CNN
F 1 "100k" H 1230 3295 50  0000 R CNN
F 2 "Resistor_SMD:R_1206_3216Metric_Pad1.30x1.75mm_HandSolder" V 1230 3250 50  0001 C CNN
F 3 "~" H 1300 3250 50  0001 C CNN
F 4 "C17900" H 1300 3250 50  0001 C CNN "LCSC"
	1    1300 3250
	0    1    1    0   
$EndComp
$Comp
L Device:R R?
U 1 1 604CEB96
P 1300 3350
AR Path="/5FED8DE7/604CEB96" Ref="R?"  Part="1" 
AR Path="/603282AC/604CEB96" Ref="R19"  Part="1" 
F 0 "R19" H 1230 3304 50  0000 R CNN
F 1 "100k" H 1230 3395 50  0000 R CNN
F 2 "Resistor_SMD:R_1206_3216Metric_Pad1.30x1.75mm_HandSolder" V 1230 3350 50  0001 C CNN
F 3 "~" H 1300 3350 50  0001 C CNN
F 4 "C17900" H 1300 3350 50  0001 C CNN "LCSC"
	1    1300 3350
	0    1    1    0   
$EndComp
Wire Wire Line
	950  3350 1150 3350
Wire Wire Line
	1150 3250 950  3250
Wire Wire Line
	950  3150 1150 3150
Wire Wire Line
	1150 3050 950  3050
Wire Wire Line
	950  2950 1150 2950
Wire Wire Line
	950  2850 1150 2850
$Comp
L Device:C C?
U 1 1 604E8024
P 1550 3550
AR Path="/5FED8DE7/604E8024" Ref="C?"  Part="1" 
AR Path="/603282AC/604E8024" Ref="C23"  Part="1" 
F 0 "C23" V 1298 3550 50  0000 C CNN
F 1 "100n" V 1389 3550 50  0000 C CNN
F 2 "Capacitor_SMD:C_1206_3216Metric_Pad1.33x1.80mm_HandSolder" H 1588 3400 50  0001 C CNN
F 3 "~" H 1550 3550 50  0001 C CNN
F 4 "C24497" V 1550 3550 50  0001 C CNN "LCSC"
	1    1550 3550
	1    0    0    -1  
$EndComp
$Comp
L Device:C C?
U 1 1 604EB713
P 1700 3750
AR Path="/5FED8DE7/604EB713" Ref="C?"  Part="1" 
AR Path="/603282AC/604EB713" Ref="C24"  Part="1" 
F 0 "C24" V 1448 3750 50  0000 C CNN
F 1 "100n" V 1539 3750 50  0000 C CNN
F 2 "Capacitor_SMD:C_1206_3216Metric_Pad1.33x1.80mm_HandSolder" H 1738 3600 50  0001 C CNN
F 3 "~" H 1700 3750 50  0001 C CNN
F 4 "C24497" V 1700 3750 50  0001 C CNN "LCSC"
	1    1700 3750
	1    0    0    -1  
$EndComp
$Comp
L Device:C C?
U 1 1 604EEC67
P 1850 3550
AR Path="/5FED8DE7/604EEC67" Ref="C?"  Part="1" 
AR Path="/603282AC/604EEC67" Ref="C25"  Part="1" 
F 0 "C25" V 1598 3550 50  0000 C CNN
F 1 "100n" V 1689 3550 50  0000 C CNN
F 2 "Capacitor_SMD:C_1206_3216Metric_Pad1.33x1.80mm_HandSolder" H 1888 3400 50  0001 C CNN
F 3 "~" H 1850 3550 50  0001 C CNN
F 4 "C24497" V 1850 3550 50  0001 C CNN "LCSC"
	1    1850 3550
	1    0    0    -1  
$EndComp
$Comp
L Device:C C?
U 1 1 604F20C6
P 2000 3750
AR Path="/5FED8DE7/604F20C6" Ref="C?"  Part="1" 
AR Path="/603282AC/604F20C6" Ref="C26"  Part="1" 
F 0 "C26" V 1748 3750 50  0000 C CNN
F 1 "100n" V 1839 3750 50  0000 C CNN
F 2 "Capacitor_SMD:C_1206_3216Metric_Pad1.33x1.80mm_HandSolder" H 2038 3600 50  0001 C CNN
F 3 "~" H 2000 3750 50  0001 C CNN
F 4 "C24497" V 2000 3750 50  0001 C CNN "LCSC"
	1    2000 3750
	1    0    0    -1  
$EndComp
$Comp
L Device:C C?
U 1 1 604F53F3
P 2150 3550
AR Path="/5FED8DE7/604F53F3" Ref="C?"  Part="1" 
AR Path="/603282AC/604F53F3" Ref="C27"  Part="1" 
F 0 "C27" V 1898 3550 50  0000 C CNN
F 1 "100n" V 1989 3550 50  0000 C CNN
F 2 "Capacitor_SMD:C_1206_3216Metric_Pad1.33x1.80mm_HandSolder" H 2188 3400 50  0001 C CNN
F 3 "~" H 2150 3550 50  0001 C CNN
F 4 "C24497" V 2150 3550 50  0001 C CNN "LCSC"
	1    2150 3550
	1    0    0    -1  
$EndComp
$Comp
L Device:C C?
U 1 1 604FCC11
P 2300 3750
AR Path="/5FED8DE7/604FCC11" Ref="C?"  Part="1" 
AR Path="/603282AC/604FCC11" Ref="C28"  Part="1" 
F 0 "C28" V 2048 3750 50  0000 C CNN
F 1 "100n" V 2139 3750 50  0000 C CNN
F 2 "Capacitor_SMD:C_1206_3216Metric_Pad1.33x1.80mm_HandSolder" H 2338 3600 50  0001 C CNN
F 3 "~" H 2300 3750 50  0001 C CNN
F 4 "C24497" V 2300 3750 50  0001 C CNN "LCSC"
	1    2300 3750
	1    0    0    -1  
$EndComp
$Comp
L pspice:0 #GND035
U 1 1 60500351
P 1550 3750
F 0 "#GND035" H 1550 3650 50  0001 C CNN
F 1 "0" H 1550 3839 50  0000 C CNN
F 2 "" H 1550 3750 50  0001 C CNN
F 3 "~" H 1550 3750 50  0001 C CNN
	1    1550 3750
	1    0    0    -1  
$EndComp
Wire Wire Line
	1550 3750 1550 3700
$Comp
L pspice:0 #GND037
U 1 1 60504DC9
P 1700 3950
F 0 "#GND037" H 1700 3850 50  0001 C CNN
F 1 "0" H 1700 4039 50  0000 C CNN
F 2 "" H 1700 3950 50  0001 C CNN
F 3 "~" H 1700 3950 50  0001 C CNN
	1    1700 3950
	1    0    0    -1  
$EndComp
Wire Wire Line
	1700 3950 1700 3900
$Comp
L pspice:0 #GND038
U 1 1 60508502
P 1850 3750
F 0 "#GND038" H 1850 3650 50  0001 C CNN
F 1 "0" H 1850 3839 50  0000 C CNN
F 2 "" H 1850 3750 50  0001 C CNN
F 3 "~" H 1850 3750 50  0001 C CNN
	1    1850 3750
	1    0    0    -1  
$EndComp
Wire Wire Line
	1850 3750 1850 3700
$Comp
L pspice:0 #GND039
U 1 1 6050BBC3
P 2000 3950
F 0 "#GND039" H 2000 3850 50  0001 C CNN
F 1 "0" H 2000 4039 50  0000 C CNN
F 2 "" H 2000 3950 50  0001 C CNN
F 3 "~" H 2000 3950 50  0001 C CNN
	1    2000 3950
	1    0    0    -1  
$EndComp
Wire Wire Line
	2000 3950 2000 3900
$Comp
L pspice:0 #GND040
U 1 1 6050F263
P 2150 3750
F 0 "#GND040" H 2150 3650 50  0001 C CNN
F 1 "0" H 2150 3839 50  0000 C CNN
F 2 "" H 2150 3750 50  0001 C CNN
F 3 "~" H 2150 3750 50  0001 C CNN
	1    2150 3750
	1    0    0    -1  
$EndComp
Wire Wire Line
	2150 3750 2150 3700
$Comp
L pspice:0 #GND041
U 1 1 6051293F
P 2300 3950
F 0 "#GND041" H 2300 3850 50  0001 C CNN
F 1 "0" H 2300 4039 50  0000 C CNN
F 2 "" H 2300 3950 50  0001 C CNN
F 3 "~" H 2300 3950 50  0001 C CNN
	1    2300 3950
	1    0    0    -1  
$EndComp
Wire Wire Line
	2300 3950 2300 3900
Wire Wire Line
	1450 3350 2300 3350
Wire Wire Line
	1450 3250 2150 3250
Wire Wire Line
	1450 3150 2000 3150
Wire Wire Line
	1450 3050 1850 3050
Wire Wire Line
	1450 2950 1700 2950
Wire Wire Line
	1450 2850 1550 2850
Wire Wire Line
	1550 3400 1550 2850
Connection ~ 1550 2850
Wire Wire Line
	1550 2850 2850 2850
Wire Wire Line
	1700 3600 1700 2950
Connection ~ 1700 2950
Wire Wire Line
	1700 2950 2850 2950
Wire Wire Line
	1850 3400 1850 3050
Connection ~ 1850 3050
Wire Wire Line
	1850 3050 2850 3050
Wire Wire Line
	2000 3600 2000 3150
Connection ~ 2000 3150
Wire Wire Line
	2000 3150 2850 3150
Wire Wire Line
	2150 3400 2150 3250
Connection ~ 2150 3250
Wire Wire Line
	2150 3250 2850 3250
Wire Wire Line
	2300 3600 2300 3350
Connection ~ 2300 3350
Wire Wire Line
	2300 3350 2850 3350
Text GLabel 7250 3000 2    50   Input ~ 0
PB15
Wire Wire Line
	6950 3000 7250 3000
Text GLabel 7250 3200 2    50   Input ~ 0
PB14
Wire Wire Line
	6950 3200 7250 3200
Text GLabel 7250 3100 2    50   Input ~ 0
PD8
Wire Wire Line
	6950 3100 7250 3100
Text GLabel 7250 2900 2    50   Input ~ 0
PD10
Wire Wire Line
	6950 2900 7250 2900
Text GLabel 7250 2800 2    50   Input ~ 0
PD9
Wire Wire Line
	6950 2800 7250 2800
Text GLabel 7250 1800 2    50   Input ~ 0
PD12
Wire Wire Line
	6950 1800 7250 1800
Text GLabel 7250 1600 2    50   Input ~ 0
PD11
Wire Wire Line
	6950 1600 7250 1600
Text GLabel 7250 1700 2    50   Input ~ 0
PD14
Wire Wire Line
	6950 1700 7250 1700
Text GLabel 7250 1900 2    50   Input ~ 0
PD13
Wire Wire Line
	6950 1900 7250 1900
Text GLabel 7250 2000 2    50   Input ~ 0
PD15
Wire Wire Line
	6950 2000 7250 2000
Text GLabel 7250 2300 2    50   Input ~ 0
PC8
Wire Wire Line
	6950 2300 7250 2300
Text GLabel 7250 2200 2    50   Input ~ 0
PC7
Wire Wire Line
	6950 2200 7250 2200
Text GLabel 7250 2400 2    50   Input ~ 0
PC9
Wire Wire Line
	6950 2400 7250 2400
Text GLabel 7250 2100 2    50   Input ~ 0
PC6
Wire Wire Line
	6950 2100 7250 2100
Text GLabel 7250 2500 2    50   Input ~ 0
PA8
Wire Wire Line
	6950 2500 7250 2500
Text GLabel 7250 2700 2    50   Input ~ 0
PA10
Wire Wire Line
	6950 2700 7250 2700
Text GLabel 7250 2600 2    50   Input ~ 0
PA9
Wire Wire Line
	6950 2600 7250 2600
$Comp
L Connector:Conn_01x18_Female J15
U 1 1 606E695A
P 6750 2400
F 0 "J15" H 6778 2376 50  0000 L CNN
F 1 "Conn_01x18_Female" H 6778 2285 50  0000 L CNN
F 2 "Connector_PinHeader_2.54mm:PinHeader_2x09_P2.54mm_Vertical" H 6750 2400 50  0001 C CNN
F 3 "~" H 6750 2400 50  0001 C CNN
	1    6750 2400
	-1   0    0    -1  
$EndComp
Wire Wire Line
	7400 3350 7400 3300
$Comp
L pspice:0 #GND052
U 1 1 60709F03
P 7400 3350
F 0 "#GND052" H 7400 3250 50  0001 C CNN
F 1 "0" H 7400 3439 50  0000 C CNN
F 2 "" H 7400 3350 50  0001 C CNN
F 3 "~" H 7400 3350 50  0001 C CNN
	1    7400 3350
	1    0    0    -1  
$EndComp
Wire Wire Line
	6950 3300 7400 3300
Wire Wire Line
	1000 4850 1300 4850
Text GLabel 1300 4850 2    50   Input ~ 0
PotSx
Text GLabel 1300 4650 2    50   Input ~ 0
PotDx
$Comp
L pspice:0 #GND034
U 1 1 6026EC4B
P 1150 6700
F 0 "#GND034" H 1150 6600 50  0001 C CNN
F 1 "0" H 1150 6789 50  0000 C CNN
F 2 "" H 1150 6700 50  0001 C CNN
F 3 "~" H 1150 6700 50  0001 C CNN
	1    1150 6700
	1    0    0    -1  
$EndComp
Wire Wire Line
	1150 6550 1150 6500
Wire Wire Line
	1000 6550 1150 6550
$Comp
L power:+3.3V #PWR?
U 1 1 60271A50
P 1150 6500
AR Path="/5FECEB13/60271A50" Ref="#PWR?"  Part="1" 
AR Path="/5FED8DE7/60271A50" Ref="#PWR?"  Part="1" 
AR Path="/603282AC/60271A50" Ref="#PWR011"  Part="1" 
F 0 "#PWR011" H 1150 6350 50  0001 C CNN
F 1 "+3.3V" H 1165 6673 50  0000 C CNN
F 2 "" H 1150 6500 50  0001 C CNN
F 3 "" H 1150 6500 50  0001 C CNN
	1    1150 6500
	1    0    0    -1  
$EndComp
Wire Wire Line
	1150 6650 1000 6650
Wire Wire Line
	1150 6700 1150 6650
Wire Wire Line
	1000 6350 1300 6350
Text GLabel 1300 6350 2    50   Input ~ 0
PE15
Wire Wire Line
	1000 6450 1300 6450
Text GLabel 1300 6450 2    50   Input ~ 0
PB10
Wire Wire Line
	1000 6150 1300 6150
Text GLabel 1300 6150 2    50   Input ~ 0
PE13
Wire Wire Line
	1000 6250 1300 6250
Text GLabel 1300 6250 2    50   Input ~ 0
PE14
Wire Wire Line
	1000 5950 1300 5950
Text GLabel 1300 5950 2    50   Input ~ 0
PE11
Wire Wire Line
	1000 6050 1300 6050
Text GLabel 1300 6050 2    50   Input ~ 0
PE12
Wire Wire Line
	1000 5750 1300 5750
Text GLabel 1300 5750 2    50   Input ~ 0
PE9
Wire Wire Line
	1000 5850 1300 5850
Text GLabel 1300 5850 2    50   Input ~ 0
PE10
Wire Wire Line
	1000 5550 1300 5550
Text GLabel 1300 5550 2    50   Input ~ 0
PE7
Wire Wire Line
	1000 5650 1300 5650
Text GLabel 1300 5650 2    50   Input ~ 0
PE8
Text GLabel 1300 5450 2    50   Input ~ 0
PB2
Wire Wire Line
	1000 5450 1300 5450
Text GLabel 1300 5250 2    50   Input ~ 0
PB0
Text GLabel 1300 5350 2    50   Input ~ 0
PB1
Wire Wire Line
	1000 5350 1300 5350
Wire Wire Line
	1000 5250 1300 5250
Text GLabel 1300 5150 2    50   Input ~ 0
PA7
Wire Wire Line
	1000 5050 1300 5050
Wire Wire Line
	1000 5150 1300 5150
Wire Wire Line
	1000 4550 1300 4550
Wire Wire Line
	1000 4950 1300 4950
Text GLabel 1300 4950 2    50   Input ~ 0
PA5
Wire Wire Line
	1000 4650 1300 4650
Wire Wire Line
	1000 4750 1300 4750
Text GLabel 1300 4750 2    50   Input ~ 0
USART2_RX
$Comp
L Connector:Conn_01x24_Female J8
U 1 1 608BE746
P 800 5450
F 0 "J8" H 692 6735 50  0000 C CNN
F 1 "Conn_01x24_Female" H 692 6644 50  0000 C CNN
F 2 "Connector_PinHeader_2.54mm:PinHeader_2x12_P2.54mm_Vertical" H 800 5450 50  0001 C CNN
F 3 "~" H 800 5450 50  0001 C CNN
	1    800  5450
	-1   0    0    -1  
$EndComp
Text GLabel 1300 4550 2    50   Input ~ 0
PC5
Text GLabel 1300 5050 2    50   Input ~ 0
PC4
Wire Wire Line
	1000 4350 1300 4350
Wire Wire Line
	1000 4450 1300 4450
Text GLabel 1300 4450 2    50   Input ~ 0
PA1
Text GLabel 1300 4350 2    50   Input ~ 0
PA0
$Comp
L Connector:Conn_01x04_Female J16
U 1 1 604DD3EF
P 3750 6300
F 0 "J16" H 3642 6585 50  0000 C CNN
F 1 "Conn_01x04_Female" H 3642 6494 50  0000 C CNN
F 2 "Connector_PinHeader_2.54mm:PinHeader_2x02_P2.54mm_Vertical" H 3750 6300 50  0001 C CNN
F 3 "~" H 3750 6300 50  0001 C CNN
	1    3750 6300
	-1   0    0    -1  
$EndComp
Text GLabel 4250 6300 2    50   Input ~ 0
PA15
Wire Wire Line
	3950 6300 4250 6300
Wire Wire Line
	3950 6200 4250 6200
Wire Wire Line
	3950 6500 4250 6500
Wire Wire Line
	3950 6400 4250 6400
Text GLabel 4250 6400 2    50   Input ~ 0
PC12
Text GLabel 4250 6500 2    50   Input ~ 0
PC10
Text GLabel 4250 6200 2    50   Input ~ 0
PC11
$EndSCHEMATC
