EESchema Schematic File Version 4
EELAYER 30 0
EELAYER END
$Descr A4 11693 8268
encoding utf-8
Sheet 3 4
Title ""
Date ""
Rev ""
Comp ""
Comment1 ""
Comment2 ""
Comment3 ""
Comment4 ""
$EndDescr
$Comp
L STM32F446VET6:STM32F446VET6 U?
U 1 1 5FF36323
P 4400 1050
AR Path="/5FF36323" Ref="U?"  Part="1" 
AR Path="/5FECEB13/5FF36323" Ref="U?"  Part="1" 
AR Path="/5FED8DE7/5FF36323" Ref="U1"  Part="1" 
F 0 "U1" H 5600 1437 60  0000 C CNN
F 1 "STM32F446VET6" H 5600 1331 60  0000 C CNN
F 2 "STM32F446VET6_footprint:STM32F446VET6" H 5500 1290 60  0001 C CNN
F 3 "" H 4400 1050 60  0000 C CNN
F 4 "C91929" H 4400 1050 50  0001 C CNN "LCSC"
	1    4400 1050
	1    0    0    -1  
$EndComp
$Comp
L Device:R R12
U 1 1 602D86EA
P 4000 1550
F 0 "R12" V 3793 1550 50  0000 C CNN
F 1 "120R" V 3884 1550 50  0000 C CNN
F 2 "Resistor_SMD:R_1206_3216Metric_Pad1.30x1.75mm_HandSolder" V 3930 1550 50  0001 C CNN
F 3 "~" H 4000 1550 50  0001 C CNN
F 4 "C17909" V 4000 1550 50  0001 C CNN "LCSC"
	1    4000 1550
	0    -1   -1   0   
$EndComp
$Comp
L pspice:0 #GND026
U 1 1 602DB20A
P 3200 1600
F 0 "#GND026" H 3200 1500 50  0001 C CNN
F 1 "0" H 3200 1689 50  0000 C CNN
F 2 "" H 3200 1600 50  0001 C CNN
F 3 "~" H 3200 1600 50  0001 C CNN
	1    3200 1600
	1    0    0    -1  
$EndComp
Wire Wire Line
	3200 1600 3200 1550
Wire Wire Line
	4400 1550 4200 1550
Wire Wire Line
	3200 1550 3450 1550
Wire Wire Line
	3850 1550 3750 1550
Text GLabel 4200 1350 0    50   Input ~ 0
USART2_RX
Wire Wire Line
	4400 1350 4200 1350
Text GLabel 4200 1250 0    50   Input ~ 0
USART2_TX
Wire Wire Line
	4200 1250 4400 1250
$Comp
L Device:Crystal Y1
U 1 1 60340B2F
P 10400 4750
F 0 "Y1" V 10354 4881 50  0000 L CNN
F 1 "Crystal" V 10445 4881 50  0000 L CNN
F 2 "Crystal:Crystal_SMD_HC49-SD_HandSoldering" H 10400 4750 50  0001 C CNN
F 3 "~" H 10400 4750 50  0001 C CNN
F 4 "C259041" V 10400 4750 50  0001 C CNN "LCSC"
	1    10400 4750
	0    1    1    0   
$EndComp
Wire Wire Line
	10400 4900 10150 4900
Wire Wire Line
	10150 4900 10150 4800
Wire Wire Line
	10150 4700 10150 4600
Wire Wire Line
	10150 4600 10400 4600
$Comp
L Device:C C21
U 1 1 60344081
P 10800 4600
F 0 "C21" V 10548 4600 50  0000 C CNN
F 1 "10p" V 10639 4600 50  0000 C CNN
F 2 "Capacitor_SMD:C_1206_3216Metric_Pad1.33x1.80mm_HandSolder" H 10838 4450 50  0001 C CNN
F 3 "~" H 10800 4600 50  0001 C CNN
F 4 "C1785" V 10800 4600 50  0001 C CNN "LCSC"
	1    10800 4600
	0    1    1    0   
$EndComp
$Comp
L Device:C C22
U 1 1 60345483
P 10800 4900
F 0 "C22" V 10548 4900 50  0000 C CNN
F 1 "10p" V 10639 4900 50  0000 C CNN
F 2 "Capacitor_SMD:C_1206_3216Metric_Pad1.33x1.80mm_HandSolder" H 10838 4750 50  0001 C CNN
F 3 "~" H 10800 4900 50  0001 C CNN
F 4 "C1785" V 10800 4900 50  0001 C CNN "LCSC"
	1    10800 4900
	0    1    1    0   
$EndComp
Wire Wire Line
	10400 4600 10650 4600
Connection ~ 10400 4600
Wire Wire Line
	10400 4900 10650 4900
Connection ~ 10400 4900
Wire Wire Line
	10950 4600 10950 4750
$Comp
L pspice:0 #GND031
U 1 1 6034990D
P 11050 4850
F 0 "#GND031" H 11050 4750 50  0001 C CNN
F 1 "0" H 11050 4939 50  0000 C CNN
F 2 "" H 11050 4850 50  0001 C CNN
F 3 "~" H 11050 4850 50  0001 C CNN
	1    11050 4850
	1    0    0    -1  
$EndComp
Wire Wire Line
	10950 4750 11050 4750
Wire Wire Line
	11050 4750 11050 4850
Connection ~ 10950 4750
Wire Wire Line
	10950 4750 10950 4900
Wire Wire Line
	10250 5300 10250 5200
Wire Wire Line
	10250 5200 10150 5200
Text GLabel 10350 5000 2    50   Input ~ 0
NRST
Wire Wire Line
	10150 5000 10350 5000
Wire Wire Line
	9550 900  9600 900 
Wire Wire Line
	10050 900  10000 900 
$Comp
L pspice:0 #GND029
U 1 1 60356CBB
P 10150 1100
F 0 "#GND029" H 10150 1000 50  0001 C CNN
F 1 "0" H 10150 1189 50  0000 C CNN
F 2 "" H 10150 1100 50  0001 C CNN
F 3 "~" H 10150 1100 50  0001 C CNN
	1    10150 1100
	1    0    0    -1  
$EndComp
Wire Wire Line
	10050 1000 10150 1000
Wire Wire Line
	10150 1000 10150 1100
$Comp
L Device:C C20
U 1 1 60358E84
P 9800 1150
F 0 "C20" V 9548 1150 50  0000 C CNN
F 1 "100n" V 9639 1150 50  0000 C CNN
F 2 "Capacitor_SMD:C_1206_3216Metric_Pad1.33x1.80mm_HandSolder" H 9838 1000 50  0001 C CNN
F 3 "~" H 9800 1150 50  0001 C CNN
F 4 "C24497" V 9800 1150 50  0001 C CNN "LCSC"
	1    9800 1150
	0    1    1    0   
$EndComp
Wire Wire Line
	9950 1150 10050 1150
Wire Wire Line
	10050 1150 10050 1000
Wire Wire Line
	9650 1150 9550 1150
Wire Wire Line
	9550 1150 9550 1000
Text GLabel 9350 1000 0    50   Input ~ 0
NRST
Wire Wire Line
	9350 1000 9550 1000
Text GLabel 4200 2450 0    50   Input ~ 0
TCK
Wire Wire Line
	4200 2450 4400 2450
Text GLabel 4200 2350 0    50   Input ~ 0
TMS
Wire Wire Line
	4200 2350 4400 2350
$Comp
L Interface_CAN_LIN:SN65HVD233 U4
U 1 1 60386B7A
P 2700 2250
F 0 "U4" H 2700 2731 50  0000 C CNN
F 1 "SN65HVD233" H 2700 2640 50  0000 C CNN
F 2 "Package_SO:SOIC-8_3.9x4.9mm_P1.27mm" H 2700 1750 50  0001 C CNN
F 3 "http://www.ti.com/lit/ds/symlink/sn65hvd234.pdf" H 2600 2650 50  0001 C CNN
F 4 "C61643" H 2700 2250 50  0001 C CNN "LCSC"
	1    2700 2250
	-1   0    0    -1  
$EndComp
Wire Wire Line
	4000 2150 4000 2250
Wire Wire Line
	4000 2250 4400 2250
Wire Wire Line
	3900 2250 3900 2200
Wire Wire Line
	3900 2200 4250 2200
Wire Wire Line
	4250 2200 4250 2150
Wire Wire Line
	4250 2150 4400 2150
Wire Wire Line
	10250 5750 10250 5600
$Comp
L pspice:0 #GND030
U 1 1 6034DBE4
P 10250 5750
F 0 "#GND030" H 10250 5650 50  0001 C CNN
F 1 "0" H 10250 5839 50  0000 C CNN
F 2 "" H 10250 5750 50  0001 C CNN
F 3 "~" H 10250 5750 50  0001 C CNN
	1    10250 5750
	1    0    0    -1  
$EndComp
$Comp
L Device:R R13
U 1 1 6034C0D6
P 10250 5450
F 0 "R13" H 10180 5404 50  0000 R CNN
F 1 "10k" H 10180 5495 50  0000 R CNN
F 2 "Resistor_SMD:R_1206_3216Metric_Pad1.30x1.75mm_HandSolder" V 10180 5450 50  0001 C CNN
F 3 "C17902" H 10250 5450 50  0001 C CNN
	1    10250 5450
	-1   0    0    1   
$EndComp
$Comp
L STM32F446VET6:STM32F446VET6 U?
U 2 1 5FEE7304
P 7950 4700
AR Path="/5FEE7304" Ref="U?"  Part="1" 
AR Path="/5FED8DE7/5FEE7304" Ref="U1"  Part="2" 
F 0 "U1" H 9150 5087 60  0000 C CNN
F 1 "STM32F446VET6" H 9150 4981 60  0000 C CNN
F 2 "STM32F446VET6_footprint:STM32F446VET6" H 9050 4940 60  0001 C CNN
F 3 "" H 7950 4700 60  0000 C CNN
	2    7950 4700
	1    0    0    -1  
$EndComp
Wire Wire Line
	2700 2800 2700 2650
$Comp
L pspice:0 #GND024
U 1 1 603A1B10
P 2700 2800
F 0 "#GND024" H 2700 2700 50  0001 C CNN
F 1 "0" H 2700 2889 50  0000 C CNN
F 2 "" H 2700 2800 50  0001 C CNN
F 3 "~" H 2700 2800 50  0001 C CNN
	1    2700 2800
	1    0    0    -1  
$EndComp
$Comp
L power:+3.3V #PWR?
U 1 1 603A86AD
P 2700 1900
AR Path="/5FECEB13/603A86AD" Ref="#PWR?"  Part="1" 
AR Path="/5FED8DE7/603A86AD" Ref="#PWR07"  Part="1" 
F 0 "#PWR07" H 2700 1750 50  0001 C CNN
F 1 "+3.3V" H 2715 2073 50  0000 C CNN
F 2 "" H 2700 1900 50  0001 C CNN
F 3 "" H 2700 1900 50  0001 C CNN
	1    2700 1900
	1    0    0    -1  
$EndComp
Wire Wire Line
	2700 1900 2700 1950
Wire Wire Line
	3100 2150 4000 2150
Wire Wire Line
	3100 2250 3900 2250
$Comp
L Device:C C18
U 1 1 603B525D
P 2300 1750
F 0 "C18" V 2048 1750 50  0000 C CNN
F 1 "100n" V 2139 1750 50  0000 C CNN
F 2 "Capacitor_SMD:C_1206_3216Metric_Pad1.33x1.80mm_HandSolder" H 2338 1600 50  0001 C CNN
F 3 "~" H 2300 1750 50  0001 C CNN
F 4 "C24497" V 2300 1750 50  0001 C CNN "LCSC"
	1    2300 1750
	-1   0    0    1   
$EndComp
$Comp
L Device:C C16
U 1 1 603B5A7F
P 2000 1750
F 0 "C16" V 1748 1750 50  0000 C CNN
F 1 "100p" V 1839 1750 50  0000 C CNN
F 2 "Capacitor_SMD:C_1206_3216Metric_Pad1.33x1.80mm_HandSolder" H 2038 1600 50  0001 C CNN
F 3 "~" H 2000 1750 50  0001 C CNN
F 4 "C9188" V 2000 1750 50  0001 C CNN "LCSC"
	1    2000 1750
	-1   0    0    1   
$EndComp
$Comp
L pspice:0 #GND022
U 1 1 603B5A8A
P 2150 2050
F 0 "#GND022" H 2150 1950 50  0001 C CNN
F 1 "0" H 2150 2139 50  0000 C CNN
F 2 "" H 2150 2050 50  0001 C CNN
F 3 "~" H 2150 2050 50  0001 C CNN
	1    2150 2050
	1    0    0    -1  
$EndComp
Wire Wire Line
	2000 1900 2150 1900
Wire Wire Line
	2150 2050 2150 1900
Connection ~ 2150 1900
Wire Wire Line
	2150 1900 2300 1900
Wire Wire Line
	2000 1600 2300 1600
Wire Wire Line
	2300 1600 2500 1600
Wire Wire Line
	2500 1600 2500 1950
Wire Wire Line
	2500 1950 2700 1950
Connection ~ 2300 1600
Connection ~ 2700 1950
$Comp
L Interface_CAN_LIN:SN65HVD233 U5
U 1 1 603E7845
P 2700 3950
F 0 "U5" H 2700 4431 50  0000 C CNN
F 1 "SN65HVD233" H 2700 4340 50  0000 C CNN
F 2 "Package_SO:SOIC-8_3.9x4.9mm_P1.27mm" H 2700 3450 50  0001 C CNN
F 3 "http://www.ti.com/lit/ds/symlink/sn65hvd234.pdf" H 2600 4350 50  0001 C CNN
F 4 "C61643" H 2700 3950 50  0001 C CNN "LCSC"
	1    2700 3950
	-1   0    0    -1  
$EndComp
Wire Wire Line
	2700 4500 2700 4350
$Comp
L pspice:0 #GND025
U 1 1 603E784C
P 2700 4500
F 0 "#GND025" H 2700 4400 50  0001 C CNN
F 1 "0" H 2700 4589 50  0000 C CNN
F 2 "" H 2700 4500 50  0001 C CNN
F 3 "~" H 2700 4500 50  0001 C CNN
	1    2700 4500
	1    0    0    -1  
$EndComp
$Comp
L power:+3.3V #PWR?
U 1 1 603E7852
P 2700 3600
AR Path="/5FECEB13/603E7852" Ref="#PWR?"  Part="1" 
AR Path="/5FED8DE7/603E7852" Ref="#PWR08"  Part="1" 
F 0 "#PWR08" H 2700 3450 50  0001 C CNN
F 1 "+3.3V" H 2715 3773 50  0000 C CNN
F 2 "" H 2700 3600 50  0001 C CNN
F 3 "" H 2700 3600 50  0001 C CNN
	1    2700 3600
	1    0    0    -1  
$EndComp
Wire Wire Line
	2700 3600 2700 3650
$Comp
L Device:C C19
U 1 1 603E7859
P 2300 3450
F 0 "C19" V 2048 3450 50  0000 C CNN
F 1 "100n" V 2139 3450 50  0000 C CNN
F 2 "Capacitor_SMD:C_1206_3216Metric_Pad1.33x1.80mm_HandSolder" H 2338 3300 50  0001 C CNN
F 3 "~" H 2300 3450 50  0001 C CNN
F 4 "C24497" V 2300 3450 50  0001 C CNN "LCSC"
	1    2300 3450
	-1   0    0    1   
$EndComp
$Comp
L Device:C C17
U 1 1 603E785F
P 2000 3450
F 0 "C17" V 1748 3450 50  0000 C CNN
F 1 "100p" V 1839 3450 50  0000 C CNN
F 2 "Capacitor_SMD:C_1206_3216Metric_Pad1.33x1.80mm_HandSolder" H 2038 3300 50  0001 C CNN
F 3 "~" H 2000 3450 50  0001 C CNN
F 4 "C9188" V 2000 3450 50  0001 C CNN "LCSC"
	1    2000 3450
	-1   0    0    1   
$EndComp
$Comp
L pspice:0 #GND023
U 1 1 603E7865
P 2150 3750
F 0 "#GND023" H 2150 3650 50  0001 C CNN
F 1 "0" H 2150 3839 50  0000 C CNN
F 2 "" H 2150 3750 50  0001 C CNN
F 3 "~" H 2150 3750 50  0001 C CNN
	1    2150 3750
	1    0    0    -1  
$EndComp
Wire Wire Line
	2000 3600 2150 3600
Wire Wire Line
	2150 3750 2150 3600
Connection ~ 2150 3600
Wire Wire Line
	2150 3600 2300 3600
Wire Wire Line
	2000 3300 2300 3300
Wire Wire Line
	2300 3300 2500 3300
Wire Wire Line
	2500 3300 2500 3650
Wire Wire Line
	2500 3650 2700 3650
Connection ~ 2300 3300
Connection ~ 2700 3650
Wire Wire Line
	3100 3850 3700 3850
Wire Wire Line
	3700 3850 3700 3950
Wire Wire Line
	3700 3950 4400 3950
Wire Wire Line
	3600 3950 3600 3900
Wire Wire Line
	3600 3900 4100 3900
Wire Wire Line
	4100 3900 4100 3850
Wire Wire Line
	4100 3850 4400 3850
Wire Wire Line
	3100 3950 3600 3950
$Comp
L Switch:SW_Push SW1
U 1 1 603FF366
P 9800 900
F 0 "SW1" H 9800 1185 50  0000 C CNN
F 1 "SW_Push" H 9800 1094 50  0000 C CNN
F 2 "Button_Switch_SMD:SW_SPST_EVPBF" H 9800 1100 50  0001 C CNN
F 3 "~" H 9800 1100 50  0001 C CNN
F 4 "C127509" H 9800 900 50  0001 C CNN "LCSC"
	1    9800 900 
	1    0    0    -1  
$EndComp
Wire Wire Line
	9550 1000 9550 900 
Connection ~ 9550 1000
Wire Wire Line
	10050 900  10050 1000
Connection ~ 10050 1000
Text GLabel 4150 3750 0    50   Input ~ 0
PB10
Wire Wire Line
	4150 3750 4400 3750
Wire Wire Line
	7100 1550 6800 1550
Text GLabel 4150 3450 0    50   Input ~ 0
I2C1_SDA
Text GLabel 4150 3350 0    50   Input ~ 0
I2C1_SCL
Text GLabel 7100 3250 2    50   Input ~ 0
gear_5
Text GLabel 7100 3150 2    50   Input ~ 0
gear_4
Text GLabel 7100 2950 2    50   Input ~ 0
gear_2
Text GLabel 7100 2850 2    50   Input ~ 0
gear_1
Text GLabel 7100 2750 2    50   Input ~ 0
gear_N
Text GLabel 7100 3050 2    50   Input ~ 0
gear_3
Wire Wire Line
	6800 2750 7100 2750
Wire Wire Line
	7100 2850 6800 2850
Wire Wire Line
	6800 2950 7100 2950
Wire Wire Line
	7100 3050 6800 3050
Wire Wire Line
	6800 3150 7100 3150
Wire Wire Line
	6800 3250 7100 3250
Wire Wire Line
	4150 3350 4400 3350
Wire Wire Line
	4400 3450 4150 3450
Wire Wire Line
	3200 2950 3200 2800
$Comp
L pspice:0 #GND027
U 1 1 604B8995
P 3200 2950
F 0 "#GND027" H 3200 2850 50  0001 C CNN
F 1 "0" H 3200 3039 50  0000 C CNN
F 2 "" H 3200 2950 50  0001 C CNN
F 3 "~" H 3200 2950 50  0001 C CNN
	1    3200 2950
	1    0    0    -1  
$EndComp
$Comp
L Device:R R8
U 1 1 604B899B
P 3200 2650
F 0 "R8" H 3130 2604 50  0000 R CNN
F 1 "10k" H 3130 2695 50  0000 R CNN
F 2 "Resistor_SMD:R_1206_3216Metric_Pad1.30x1.75mm_HandSolder" V 3130 2650 50  0001 C CNN
F 3 "~" H 3200 2650 50  0001 C CNN
F 4 "C17902" H 3200 2650 50  0001 C CNN "LCSC"
	1    3200 2650
	-1   0    0    1   
$EndComp
$Comp
L Device:R R10
U 1 1 604BB4FB
P 3400 2450
F 0 "R10" H 3330 2404 50  0000 R CNN
F 1 "10k" H 3330 2495 50  0000 R CNN
F 2 "Resistor_SMD:R_1206_3216Metric_Pad1.30x1.75mm_HandSolder" V 3330 2450 50  0001 C CNN
F 3 "~" H 3400 2450 50  0001 C CNN
F 4 "C17902" H 3400 2450 50  0001 C CNN "LCSC"
	1    3400 2450
	0    1    1    0   
$EndComp
Wire Wire Line
	3100 2450 3200 2450
Wire Wire Line
	3200 2500 3200 2450
Connection ~ 3200 2450
Wire Wire Line
	3200 2450 3250 2450
$Comp
L power:+3.3V #PWR?
U 1 1 604C5B5B
P 3650 2400
AR Path="/5FECEB13/604C5B5B" Ref="#PWR?"  Part="1" 
AR Path="/5FED8DE7/604C5B5B" Ref="#PWR09"  Part="1" 
F 0 "#PWR09" H 3650 2250 50  0001 C CNN
F 1 "+3.3V" H 3665 2573 50  0000 C CNN
F 2 "" H 3650 2400 50  0001 C CNN
F 3 "" H 3650 2400 50  0001 C CNN
	1    3650 2400
	1    0    0    -1  
$EndComp
Wire Wire Line
	3650 2400 3650 2450
Wire Wire Line
	3550 2450 3650 2450
Wire Wire Line
	3200 4650 3200 4500
$Comp
L pspice:0 #GND028
U 1 1 604CE6A6
P 3200 4650
F 0 "#GND028" H 3200 4550 50  0001 C CNN
F 1 "0" H 3200 4739 50  0000 C CNN
F 2 "" H 3200 4650 50  0001 C CNN
F 3 "~" H 3200 4650 50  0001 C CNN
	1    3200 4650
	1    0    0    -1  
$EndComp
$Comp
L Device:R R9
U 1 1 604CE6AC
P 3200 4350
F 0 "R9" H 3130 4304 50  0000 R CNN
F 1 "10k" H 3130 4395 50  0000 R CNN
F 2 "Resistor_SMD:R_1206_3216Metric_Pad1.30x1.75mm_HandSolder" V 3130 4350 50  0001 C CNN
F 3 "~" H 3200 4350 50  0001 C CNN
F 4 "C17902" H 3200 4350 50  0001 C CNN "LCSC"
	1    3200 4350
	-1   0    0    1   
$EndComp
$Comp
L Device:R R11
U 1 1 604CE6B2
P 3400 4150
F 0 "R11" H 3330 4104 50  0000 R CNN
F 1 "10k" H 3330 4195 50  0000 R CNN
F 2 "Resistor_SMD:R_1206_3216Metric_Pad1.30x1.75mm_HandSolder" V 3330 4150 50  0001 C CNN
F 3 "~" H 3400 4150 50  0001 C CNN
F 4 "C17902" H 3400 4150 50  0001 C CNN "LCSC"
	1    3400 4150
	0    1    1    0   
$EndComp
Wire Wire Line
	3100 4150 3200 4150
Wire Wire Line
	3200 4200 3200 4150
Connection ~ 3200 4150
Wire Wire Line
	3200 4150 3250 4150
$Comp
L power:+3.3V #PWR?
U 1 1 604CE6BC
P 3650 4100
AR Path="/5FECEB13/604CE6BC" Ref="#PWR?"  Part="1" 
AR Path="/5FED8DE7/604CE6BC" Ref="#PWR010"  Part="1" 
F 0 "#PWR010" H 3650 3950 50  0001 C CNN
F 1 "+3.3V" H 3665 4273 50  0000 C CNN
F 2 "" H 3650 4100 50  0001 C CNN
F 3 "" H 3650 4100 50  0001 C CNN
	1    3650 4100
	1    0    0    -1  
$EndComp
Wire Wire Line
	3650 4100 3650 4150
Wire Wire Line
	3550 4150 3650 4150
$Comp
L Device:R R6
U 1 1 604D28C2
P 2000 2300
F 0 "R6" H 1930 2254 50  0000 R CNN
F 1 "120R" H 1930 2345 50  0000 R CNN
F 2 "Resistor_SMD:R_1206_3216Metric_Pad1.30x1.75mm_HandSolder" V 1930 2300 50  0001 C CNN
F 3 "~" H 2000 2300 50  0001 C CNN
F 4 "C17909" H 2000 2300 50  0001 C CNN "LCSC"
	1    2000 2300
	-1   0    0    1   
$EndComp
$Comp
L Device:R R7
U 1 1 604D5A28
P 2000 4000
F 0 "R7" H 1930 3954 50  0000 R CNN
F 1 "120R" H 1930 4045 50  0000 R CNN
F 2 "Resistor_SMD:R_1206_3216Metric_Pad1.30x1.75mm_HandSolder" V 1930 4000 50  0001 C CNN
F 3 "~" H 2000 4000 50  0001 C CNN
F 4 "C17909" H 2000 4000 50  0001 C CNN "LCSC"
	1    2000 4000
	-1   0    0    1   
$EndComp
Wire Wire Line
	2000 2150 2250 2150
Wire Wire Line
	2250 2150 2250 2250
Wire Wire Line
	2250 2250 2300 2250
Wire Wire Line
	2300 2350 2250 2350
Wire Wire Line
	2250 2350 2250 2450
Wire Wire Line
	2250 2450 2000 2450
Wire Wire Line
	2300 3950 2250 3950
Wire Wire Line
	2250 3950 2250 3850
Wire Wire Line
	2250 3850 2000 3850
Wire Wire Line
	2000 4150 2250 4150
Wire Wire Line
	2250 4150 2250 4050
Wire Wire Line
	2250 4050 2300 4050
$Comp
L Connector:Conn_01x02_Male J4
U 1 1 604F4300
P 1150 3950
F 0 "J4" H 1258 4131 50  0000 C CNN
F 1 "Conn_01x02_Male" H 1258 4040 50  0000 C CNN
F 2 "Connector_JST:JST_EH_B2B-EH-A_1x02_P2.50mm_Vertical" H 1150 3950 50  0001 C CNN
F 3 "" H 1150 3950 50  0001 C CNN
	1    1150 3950
	1    0    0    -1  
$EndComp
Wire Wire Line
	1350 2500 1650 2500
Wire Wire Line
	1650 2500 1650 2150
Wire Wire Line
	1650 2050 1350 2050
Wire Wire Line
	2000 2150 1650 2150
Connection ~ 2000 2150
Connection ~ 1650 2150
Wire Wire Line
	1650 2150 1650 2050
Wire Wire Line
	2000 2450 1550 2450
Wire Wire Line
	1550 2450 1550 2600
Wire Wire Line
	1550 2600 1350 2600
Connection ~ 2000 2450
Wire Wire Line
	1550 2450 1550 2150
Wire Wire Line
	1550 2150 1350 2150
Connection ~ 1550 2450
Wire Wire Line
	1350 3950 1600 3950
Wire Wire Line
	1600 3950 1600 3850
Wire Wire Line
	1600 3850 2000 3850
Connection ~ 2000 3850
Wire Wire Line
	1350 4050 1600 4050
Wire Wire Line
	1600 4050 1600 4150
Wire Wire Line
	1600 4150 2000 4150
Connection ~ 2000 4150
Text GLabel 4200 3050 0    50   Input ~ 0
SWO
Wire Wire Line
	4200 3050 4400 3050
Wire Wire Line
	4200 1450 4400 1450
Text GLabel 3850 1600 0    50   Input ~ 0
PA5
$Comp
L Device:LED D3
U 1 1 602EADB2
P 3600 1550
F 0 "D3" H 3593 1767 50  0000 C CNN
F 1 "LED" H 3593 1676 50  0000 C CNN
F 2 "LED_SMD:LED_1206_3216Metric_Pad1.42x1.75mm_HandSolder" H 3600 1550 50  0001 C CNN
F 3 "~" H 3600 1550 50  0001 C CNN
F 4 "C130717" H 3600 1550 50  0001 C CNN "LCSC"
	1    3600 1550
	1    0    0    -1  
$EndComp
Text GLabel 4200 1650 0    50   Input ~ 0
PotSx
Wire Wire Line
	4200 1650 4400 1650
Text GLabel 4200 1750 0    50   Input ~ 0
PA7
Wire Wire Line
	4200 1750 4400 1750
Wire Wire Line
	4200 1600 4200 1550
Wire Wire Line
	3850 1600 4200 1600
Connection ~ 4200 1550
Wire Wire Line
	4200 1550 4150 1550
Text GLabel 7100 1450 2    50   Input ~ 0
PC4
Wire Wire Line
	6800 1450 7100 1450
Text GLabel 4100 2850 0    50   Input ~ 0
PB1
Wire Wire Line
	4400 2850 4100 2850
Text GLabel 4100 2750 0    50   Input ~ 0
PB0
Wire Wire Line
	4400 2750 4100 2750
Text GLabel 4100 2950 0    50   Input ~ 0
PB2
Wire Wire Line
	4400 2950 4100 2950
Text GLabel 7650 5500 0    50   Input ~ 0
PE8
Wire Wire Line
	7950 5500 7650 5500
Text GLabel 7650 5400 0    50   Input ~ 0
PE7
Wire Wire Line
	7950 5400 7650 5400
Text GLabel 7650 5700 0    50   Input ~ 0
PE10
Wire Wire Line
	7950 5700 7650 5700
Text GLabel 7650 5600 0    50   Input ~ 0
PE9
Wire Wire Line
	7950 5600 7650 5600
Text GLabel 7650 5900 0    50   Input ~ 0
PE12
Wire Wire Line
	7950 5900 7650 5900
Text GLabel 7650 5800 0    50   Input ~ 0
PE11
Wire Wire Line
	7950 5800 7650 5800
Text GLabel 7650 6100 0    50   Input ~ 0
PE14
Wire Wire Line
	7950 6100 7650 6100
Text GLabel 7650 6000 0    50   Input ~ 0
PE13
Wire Wire Line
	7950 6000 7650 6000
Text GLabel 7650 6200 0    50   Input ~ 0
PE15
Wire Wire Line
	7950 6200 7650 6200
Text GLabel 4200 1450 0    50   Input ~ 0
PotDx
Text GLabel 7100 1350 2    50   Input ~ 0
freno
Wire Wire Line
	6800 1350 7100 1350
Text GLabel 7700 4900 0    50   Input ~ 0
Enc_DX
Wire Wire Line
	7700 4900 7950 4900
Text GLabel 7700 5000 0    50   Input ~ 0
Enc_SX
Wire Wire Line
	7700 5000 7950 5000
Text GLabel 4100 4150 0    50   Input ~ 0
PB15
Wire Wire Line
	4400 4150 4100 4150
Text GLabel 4100 4050 0    50   Input ~ 0
PB14
Wire Wire Line
	4400 4050 4100 4050
Text GLabel 7100 3550 2    50   Input ~ 0
PD8
Wire Wire Line
	6800 3550 7100 3550
Text GLabel 7100 3750 2    50   Input ~ 0
PD10
Wire Wire Line
	6800 3750 7100 3750
Text GLabel 7100 3650 2    50   Input ~ 0
PD9
Wire Wire Line
	6800 3650 7100 3650
Text GLabel 7100 3950 2    50   Input ~ 0
PD12
Wire Wire Line
	6800 3950 7100 3950
Text GLabel 7100 3850 2    50   Input ~ 0
PD11
Wire Wire Line
	6800 3850 7100 3850
Text GLabel 7100 4150 2    50   Input ~ 0
PD14
Wire Wire Line
	6800 4150 7100 4150
Text GLabel 7100 4050 2    50   Input ~ 0
PD13
Wire Wire Line
	6800 4050 7100 4050
Text GLabel 7100 4250 2    50   Input ~ 0
PD15
Wire Wire Line
	6800 4250 7100 4250
Wire Wire Line
	6800 1850 7100 1850
Wire Wire Line
	6800 1750 7100 1750
Wire Wire Line
	6800 1950 7100 1950
Text GLabel 7100 1650 2    50   Input ~ 0
PC6
Wire Wire Line
	6800 1650 7100 1650
Text GLabel 4100 1850 0    50   Input ~ 0
PA8
Wire Wire Line
	4400 1850 4100 1850
Text GLabel 4100 2050 0    50   Input ~ 0
PA10
Wire Wire Line
	4400 2050 4100 2050
Text GLabel 4100 1950 0    50   Input ~ 0
PA9
Wire Wire Line
	4400 1950 4100 1950
$Comp
L Connector:Conn_01x02_Male J3
U 1 1 604F3336
P 1150 2500
F 0 "J3" H 1258 2681 50  0000 C CNN
F 1 "Conn_01x02_Male" H 1258 2590 50  0000 C CNN
F 2 "Connector_JST:JST_EH_B2B-EH-A_1x02_P2.50mm_Vertical" H 1150 2500 50  0001 C CNN
F 3 "~" H 1150 2500 50  0001 C CNN
	1    1150 2500
	1    0    0    -1  
$EndComp
$Comp
L Connector:Conn_01x02_Male J2
U 1 1 604F2036
P 1150 2050
F 0 "J2" H 1258 2231 50  0000 C CNN
F 1 "Conn_01x02_Male" H 1258 2140 50  0000 C CNN
F 2 "Connector_JST:JST_EH_B2B-EH-A_1x02_P2.50mm_Vertical" H 1150 2050 50  0001 C CNN
F 3 "~" H 1150 2050 50  0001 C CNN
	1    1150 2050
	1    0    0    -1  
$EndComp
Text GLabel 7100 1550 2    50   Input ~ 0
PC5
Text GLabel 4200 1150 0    50   Input ~ 0
PA1
Wire Wire Line
	4400 1150 4200 1150
Text GLabel 4200 1050 0    50   Input ~ 0
PA0
Wire Wire Line
	4200 1050 4400 1050
Text GLabel 4100 2550 0    50   Input ~ 0
PA15
Wire Wire Line
	4400 2550 4100 2550
Text GLabel 7100 1950 2    50   Input ~ 0
PC9
Text GLabel 7100 1750 2    50   Input ~ 0
PC7
Text GLabel 7100 1850 2    50   Input ~ 0
PC8
Wire Wire Line
	6800 2150 7100 2150
Wire Wire Line
	6800 2050 7100 2050
Wire Wire Line
	6800 2250 7100 2250
Text GLabel 7100 2250 2    50   Input ~ 0
PC12
Text GLabel 7100 2050 2    50   Input ~ 0
PC10
Text GLabel 7100 2150 2    50   Input ~ 0
PC11
$EndSCHEMATC
