EESchema Schematic File Version 4
EELAYER 30 0
EELAYER END
$Descr A4 11693 8268
encoding utf-8
Sheet 2 4
Title ""
Date ""
Rev ""
Comp ""
Comment1 ""
Comment2 ""
Comment3 ""
Comment4 ""
$EndDescr
$Comp
L STM32F446VET6:STM32F446VET6 U?
U 3 1 5FF28FA7
P 1500 1450
AR Path="/5FF28FA7" Ref="U?"  Part="1" 
AR Path="/5FED8DE7/5FF28FA7" Ref="U?"  Part="3" 
AR Path="/5FECEB13/5FF28FA7" Ref="U1"  Part="3" 
F 0 "U1" H 2600 1837 60  0000 C CNN
F 1 "STM32F446VET6" H 2600 1731 60  0000 C CNN
F 2 "STM32F446VET6_footprint:STM32F446VET6" H 2600 1690 60  0001 C CNN
F 3 "" H 1500 1450 60  0000 C CNN
	3    1500 1450
	1    0    0    -1  
$EndComp
$Comp
L pspice:0 #GND01
U 1 1 5FF48CFE
P 1400 2100
F 0 "#GND01" H 1400 2000 50  0001 C CNN
F 1 "0" H 1400 2189 50  0000 C CNN
F 2 "" H 1400 2100 50  0001 C CNN
F 3 "~" H 1400 2100 50  0001 C CNN
	1    1400 2100
	1    0    0    -1  
$EndComp
Wire Wire Line
	1500 2050 1400 2050
Wire Wire Line
	1400 2050 1400 2100
Wire Wire Line
	1500 1850 1400 1850
Wire Wire Line
	1400 1850 1400 2050
Connection ~ 1400 2050
Wire Wire Line
	1500 1750 1400 1750
Wire Wire Line
	1400 1750 1400 1850
Connection ~ 1400 1850
Wire Wire Line
	1500 1650 1400 1650
Wire Wire Line
	1400 1650 1400 1750
Connection ~ 1400 1750
Wire Wire Line
	1500 1550 1400 1550
Wire Wire Line
	1400 1550 1400 1650
Connection ~ 1400 1650
Wire Wire Line
	1500 1450 1400 1450
Wire Wire Line
	1400 1450 1400 1550
Connection ~ 1400 1550
$Comp
L power:+3.3V #PWR02
U 1 1 5FF4C8BD
P 3850 1400
F 0 "#PWR02" H 3850 1250 50  0001 C CNN
F 1 "+3.3V" H 3865 1573 50  0000 C CNN
F 2 "" H 3850 1400 50  0001 C CNN
F 3 "" H 3850 1400 50  0001 C CNN
	1    3850 1400
	1    0    0    -1  
$EndComp
Wire Wire Line
	3700 1450 3850 1450
Wire Wire Line
	3850 1450 3850 1400
Wire Wire Line
	3700 1550 3850 1550
Wire Wire Line
	3850 1550 3850 1450
Connection ~ 3850 1450
Wire Wire Line
	3700 1650 3850 1650
Wire Wire Line
	3850 1650 3850 1550
Connection ~ 3850 1550
Wire Wire Line
	3700 1750 3850 1750
Wire Wire Line
	3850 1750 3850 1650
Connection ~ 3850 1650
Wire Wire Line
	3700 1850 3850 1850
Wire Wire Line
	3850 1850 3850 1750
Connection ~ 3850 1750
Wire Wire Line
	3700 1950 3850 1950
Wire Wire Line
	3850 1950 3850 1850
Connection ~ 3850 1850
$Comp
L Device:C C1
U 1 1 5FF525BE
P 1400 2650
F 0 "C1" H 1515 2696 50  0000 L CNN
F 1 "1 uF" H 1515 2605 50  0000 L CNN
F 2 "Capacitor_SMD:C_1206_3216Metric" H 1438 2500 50  0001 C CNN
F 3 "~" H 1400 2650 50  0001 C CNN
F 4 "C13832" H 1400 2650 50  0001 C CNN "LCSC"
	1    1400 2650
	1    0    0    -1  
$EndComp
$Comp
L Device:L L1
U 1 1 5FF60F53
P 4500 2150
F 0 "L1" V 4690 2150 50  0000 C CNN
F 1 "10u" V 4599 2150 50  0000 C CNN
F 2 "Inductor_SMD:L_1206_3216Metric_Pad1.22x1.90mm_HandSolder" H 4500 2150 50  0001 C CNN
F 3 "~" H 4500 2150 50  0001 C CNN
F 4 "CMI321609X100KT" V 4500 2150 50  0001 C CNN "LCSC"
	1    4500 2150
	0    -1   -1   0   
$EndComp
Wire Wire Line
	3850 1950 4650 1950
Wire Wire Line
	4650 1950 4650 2150
Connection ~ 3850 1950
Wire Wire Line
	4350 2150 4200 2150
Wire Wire Line
	3700 2150 4200 2150
Connection ~ 4200 2150
$Comp
L pspice:0 #GND06
U 1 1 5FF63B94
P 4200 2450
F 0 "#GND06" H 4200 2350 50  0001 C CNN
F 1 "0" H 4200 2539 50  0000 C CNN
F 2 "" H 4200 2450 50  0001 C CNN
F 3 "~" H 4200 2450 50  0001 C CNN
	1    4200 2450
	1    0    0    -1  
$EndComp
$Comp
L Device:C C3
U 1 1 5FF65E65
P 3750 2650
F 0 "C3" H 3865 2696 50  0000 L CNN
F 1 "2.2 uF" H 3865 2605 50  0000 L CNN
F 2 "Capacitor_SMD:C_1206_3216Metric" H 3788 2500 50  0001 C CNN
F 3 "~" H 3750 2650 50  0001 C CNN
F 4 "C50254" H 3750 2650 50  0001 C CNN "LCSC"
	1    3750 2650
	1    0    0    -1  
$EndComp
$Comp
L pspice:0 #GND05
U 1 1 5FF65E6E
P 3750 2800
F 0 "#GND05" H 3750 2700 50  0001 C CNN
F 1 "0" H 3750 2889 50  0000 C CNN
F 2 "" H 3750 2800 50  0001 C CNN
F 3 "~" H 3750 2800 50  0001 C CNN
	1    3750 2800
	1    0    0    -1  
$EndComp
$Comp
L Device:C C5
U 1 1 5FF757D0
P 4250 2750
F 0 "C5" H 4365 2796 50  0000 L CNN
F 1 "2.2 uF" H 4365 2705 50  0000 L CNN
F 2 "Capacitor_SMD:C_1206_3216Metric" H 4288 2600 50  0001 C CNN
F 3 "~" H 4250 2750 50  0001 C CNN
F 4 "C50254" H 4250 2750 50  0001 C CNN "LCSC"
	1    4250 2750
	1    0    0    -1  
$EndComp
Wire Wire Line
	3750 2500 3750 2450
Wire Wire Line
	3750 2450 3700 2450
Wire Wire Line
	4050 2350 4050 2600
Wire Wire Line
	4050 2600 4250 2600
Wire Wire Line
	3700 2350 4050 2350
$Comp
L pspice:0 #GND07
U 1 1 5FF78B3F
P 4250 2900
F 0 "#GND07" H 4250 2800 50  0001 C CNN
F 1 "0" H 4250 2989 50  0000 C CNN
F 2 "" H 4250 2900 50  0001 C CNN
F 3 "~" H 4250 2900 50  0001 C CNN
	1    4250 2900
	1    0    0    -1  
$EndComp
$Comp
L Device:C C4
U 1 1 5FF6053C
P 4200 2300
F 0 "C4" H 4315 2346 50  0000 L CNN
F 1 "100 nF" H 4315 2255 50  0000 L CNN
F 2 "Capacitor_SMD:C_1206_3216Metric" H 4238 2150 50  0001 C CNN
F 3 "~" H 4200 2300 50  0001 C CNN
F 4 "C24497" H 4200 2300 50  0001 C CNN "LCSC"
	1    4200 2300
	1    0    0    -1  
$EndComp
Wire Wire Line
	1500 2450 1400 2450
Wire Wire Line
	1400 2450 1400 2500
$Comp
L pspice:0 #GND02
U 1 1 5FF7C1CF
P 1400 2800
F 0 "#GND02" H 1400 2700 50  0001 C CNN
F 1 "0" H 1400 2889 50  0000 C CNN
F 2 "" H 1400 2800 50  0001 C CNN
F 3 "~" H 1400 2800 50  0001 C CNN
	1    1400 2800
	1    0    0    -1  
$EndComp
$Comp
L pspice:0 #GND08
U 1 1 5FF9D093
P 4700 1350
F 0 "#GND08" H 4700 1250 50  0001 C CNN
F 1 "0" H 4700 1439 50  0000 C CNN
F 2 "" H 4700 1350 50  0001 C CNN
F 3 "~" H 4700 1350 50  0001 C CNN
	1    4700 1350
	1    0    0    -1  
$EndComp
$Comp
L Device:C C6
U 1 1 5FF9D4CF
P 4700 1200
F 0 "C6" H 4815 1246 50  0000 L CNN
F 1 "100 nF" H 4815 1155 50  0000 L CNN
F 2 "Capacitor_SMD:C_1206_3216Metric" H 4738 1050 50  0001 C CNN
F 3 "~" H 4700 1200 50  0001 C CNN
F 4 "C24497" H 4700 1200 50  0001 C CNN "LCSC"
	1    4700 1200
	1    0    0    -1  
$EndComp
$Comp
L pspice:0 #GND09
U 1 1 5FF9F829
P 5050 1350
F 0 "#GND09" H 5050 1250 50  0001 C CNN
F 1 "0" H 5050 1439 50  0000 C CNN
F 2 "" H 5050 1350 50  0001 C CNN
F 3 "~" H 5050 1350 50  0001 C CNN
	1    5050 1350
	1    0    0    -1  
$EndComp
$Comp
L Device:C C7
U 1 1 5FF9FC83
P 5050 1200
F 0 "C7" H 5165 1246 50  0000 L CNN
F 1 "100 nF" H 5165 1155 50  0000 L CNN
F 2 "Capacitor_SMD:C_1206_3216Metric" H 5088 1050 50  0001 C CNN
F 3 "~" H 5050 1200 50  0001 C CNN
F 4 "C24497" H 5050 1200 50  0001 C CNN "LCSC"
	1    5050 1200
	1    0    0    -1  
$EndComp
$Comp
L Device:C C8
U 1 1 5FFA0847
P 5400 1200
F 0 "C8" H 5515 1246 50  0000 L CNN
F 1 "100 nF" H 5515 1155 50  0000 L CNN
F 2 "Capacitor_SMD:C_1206_3216Metric" H 5438 1050 50  0001 C CNN
F 3 "~" H 5400 1200 50  0001 C CNN
F 4 "C24497" H 5400 1200 50  0001 C CNN "LCSC"
	1    5400 1200
	1    0    0    -1  
$EndComp
$Comp
L pspice:0 #GND011
U 1 1 5FFA2057
P 5750 1350
F 0 "#GND011" H 5750 1250 50  0001 C CNN
F 1 "0" H 5750 1439 50  0000 C CNN
F 2 "" H 5750 1350 50  0001 C CNN
F 3 "~" H 5750 1350 50  0001 C CNN
	1    5750 1350
	1    0    0    -1  
$EndComp
$Comp
L Device:C C9
U 1 1 5FFA205D
P 5750 1200
F 0 "C9" H 5865 1246 50  0000 L CNN
F 1 "100 nF" H 5865 1155 50  0000 L CNN
F 2 "Capacitor_SMD:C_1206_3216Metric" H 5788 1050 50  0001 C CNN
F 3 "~" H 5750 1200 50  0001 C CNN
F 4 "C24497" H 5750 1200 50  0001 C CNN "LCSC"
	1    5750 1200
	1    0    0    -1  
$EndComp
$Comp
L pspice:0 #GND010
U 1 1 5FFA4D9A
P 5400 1350
F 0 "#GND010" H 5400 1250 50  0001 C CNN
F 1 "0" H 5400 1439 50  0000 C CNN
F 2 "" H 5400 1350 50  0001 C CNN
F 3 "~" H 5400 1350 50  0001 C CNN
	1    5400 1350
	1    0    0    -1  
$EndComp
$Comp
L power:+3.3V #PWR03
U 1 1 5FFA6022
P 4700 850
F 0 "#PWR03" H 4700 700 50  0001 C CNN
F 1 "+3.3V" H 4715 1023 50  0000 C CNN
F 2 "" H 4700 850 50  0001 C CNN
F 3 "" H 4700 850 50  0001 C CNN
	1    4700 850 
	1    0    0    -1  
$EndComp
Wire Wire Line
	4700 850  4700 1000
Wire Wire Line
	5050 1050 5050 1000
Wire Wire Line
	5050 1000 4700 1000
Connection ~ 4700 1000
Wire Wire Line
	4700 1000 4700 1050
Wire Wire Line
	5050 1000 5400 1000
Wire Wire Line
	5400 1000 5400 1050
Connection ~ 5050 1000
Wire Wire Line
	5400 1000 5750 1000
Wire Wire Line
	5750 1000 5750 1050
Connection ~ 5400 1000
$Comp
L Device:C C11
U 1 1 5FFAE5E3
P 6100 1200
F 0 "C11" H 6215 1246 50  0000 L CNN
F 1 "100 nF" H 6215 1155 50  0000 L CNN
F 2 "Capacitor_SMD:C_1206_3216Metric" H 6138 1050 50  0001 C CNN
F 3 "~" H 6100 1200 50  0001 C CNN
F 4 "C24497" H 6100 1200 50  0001 C CNN "LCSC"
	1    6100 1200
	1    0    0    -1  
$EndComp
$Comp
L pspice:0 #GND016
U 1 1 5FFAE5E9
P 6450 1350
F 0 "#GND016" H 6450 1250 50  0001 C CNN
F 1 "0" H 6450 1439 50  0000 C CNN
F 2 "" H 6450 1350 50  0001 C CNN
F 3 "~" H 6450 1350 50  0001 C CNN
	1    6450 1350
	1    0    0    -1  
$EndComp
$Comp
L Device:C C12
U 1 1 5FFAE5EF
P 6450 1200
F 0 "C12" H 6565 1246 50  0000 L CNN
F 1 "100 nF" H 6565 1155 50  0000 L CNN
F 2 "Capacitor_SMD:C_1206_3216Metric" H 6488 1050 50  0001 C CNN
F 3 "~" H 6450 1200 50  0001 C CNN
F 4 "C24497" H 6450 1200 50  0001 C CNN "LCSC"
	1    6450 1200
	1    0    0    -1  
$EndComp
$Comp
L pspice:0 #GND014
U 1 1 5FFAE5F5
P 6100 1350
F 0 "#GND014" H 6100 1250 50  0001 C CNN
F 1 "0" H 6100 1439 50  0000 C CNN
F 2 "" H 6100 1350 50  0001 C CNN
F 3 "~" H 6100 1350 50  0001 C CNN
	1    6100 1350
	1    0    0    -1  
$EndComp
Wire Wire Line
	5750 1000 6100 1000
Wire Wire Line
	6100 1000 6100 1050
Wire Wire Line
	6100 1000 6450 1000
Wire Wire Line
	6450 1000 6450 1050
Connection ~ 6100 1000
Text Notes 6350 4600 2    40   ~ 0
1%
Text Notes 6550 3350 2    40   ~ 0
2.0A\n
Text Notes 4800 4350 2    50   ~ 0
(1.4MHz)
Wire Wire Line
	6000 3800 6000 3900
Wire Wire Line
	6150 4650 6150 4800
$Comp
L Device:C_Small C?
U 1 1 60064D9C
P 5800 3850
AR Path="/60057EA5/60064D9C" Ref="C?"  Part="1" 
AR Path="/5FECEB13/60064D9C" Ref="C10"  Part="1" 
F 0 "C10" H 5850 3950 50  0000 L CNN
F 1 "0.1uF" H 5900 3850 50  0000 L CNN
F 2 "Capacitor_SMD:C_1206_3216Metric_Pad1.33x1.80mm_HandSolder" H 5800 3850 50  0001 C CNN
F 3 "~" H 5800 3850 50  0001 C CNN
F 4 "C24497" H 5800 3850 50  0001 C CNN "LCSC"
	1    5800 3850
	-1   0    0    -1  
$EndComp
Wire Wire Line
	6150 4300 6150 4450
$Comp
L Diode:B230 D?
U 1 1 60064DAA
P 6000 3650
AR Path="/60057EA5/60064DAA" Ref="D?"  Part="1" 
AR Path="/5FECEB13/60064DAA" Ref="D1"  Part="1" 
F 0 "D1" V 5950 3450 50  0000 L CNN
F 1 "B230A" V 6050 3350 50  0000 L CNN
F 2 "Diode_SMD:D_SMB" H 6000 3475 50  0001 C CNN
F 3 "http://www.jameco.com/Jameco/Products/ProdDS/1538777.pdf" H 6000 3650 50  0001 C CNN
F 4 "C12889" V 6000 3650 50  0001 C CNN "LCSC"
	1    6000 3650
	0    -1   1    0   
$EndComp
$Comp
L Device:R_Small_US R?
U 1 1 60064DBC
P 6150 4550
AR Path="/60057EA5/60064DBC" Ref="R?"  Part="1" 
AR Path="/5FECEB13/60064DBC" Ref="R3"  Part="1" 
F 0 "R3" H 6000 4700 50  0000 L CNN
F 1 "10.2k Ω" H 5800 4600 50  0000 L CNN
F 2 "Resistor_SMD:R_1206_3216Metric_Pad1.30x1.75mm_HandSolder" H 6150 4550 50  0001 C CNN
F 3 "~" H 6150 4550 50  0001 C CNN
F 4 "C247410" H 6150 4550 50  0001 C CNN "LCSC"
	1    6150 4550
	-1   0    0    -1  
$EndComp
$Comp
L Device:C_Small C?
U 1 1 60064DC2
P 7250 3500
AR Path="/60057EA5/60064DC2" Ref="C?"  Part="1" 
AR Path="/5FECEB13/60064DC2" Ref="C13"  Part="1" 
F 0 "C13" H 7350 3450 50  0000 L CNN
F 1 "22uF" H 7300 3600 50  0000 L CNN
F 2 "Capacitor_SMD:C_1206_3216Metric" H 7250 3500 50  0001 C CNN
F 3 "~" H 7250 3500 50  0001 C CNN
F 4 "C319197" H 7250 3500 50  0001 C CNN "LCSC"
	1    7250 3500
	1    0    0    1   
$EndComp
Wire Wire Line
	3600 4300 3550 4300
Wire Wire Line
	6000 4050 5900 4050
$Comp
L Device:R_Small_US R?
U 1 1 60064DD3
P 6500 4300
AR Path="/60057EA5/60064DD3" Ref="R?"  Part="1" 
AR Path="/5FECEB13/60064DD3" Ref="R4"  Part="1" 
F 0 "R4" V 6300 4300 50  0000 L CNN
F 1 "31.6k Ω" V 6400 4200 50  0000 L CNN
F 2 "Resistor_SMD:R_1206_3216Metric_Pad1.30x1.75mm_HandSolder" H 6500 4300 50  0001 C CNN
F 3 "~" H 6500 4300 50  0001 C CNN
F 4 "C55346" V 6500 4300 50  0001 C CNN "LCSC"
	1    6500 4300
	0    -1   1    0   
$EndComp
Wire Wire Line
	6150 4300 5800 4300
$Comp
L Device:C_Small C?
U 1 1 60064DE2
P 2450 4450
AR Path="/60057EA5/60064DE2" Ref="C?"  Part="1" 
AR Path="/5FECEB13/60064DE2" Ref="C2"  Part="1" 
F 0 "C2" H 2300 4400 50  0000 L CNN
F 1 "10uF" H 2200 4550 50  0000 L CNN
F 2 "Capacitor_SMD:C_1206_3216Metric" H 2450 4450 50  0001 C CNN
F 3 "~" H 2450 4450 50  0001 C CNN
F 4 "C13585" H 2450 4450 50  0001 C CNN "LCSC"
	1    2450 4450
	1    0    0    1   
$EndComp
Wire Wire Line
	7250 3600 7250 3750
Wire Wire Line
	2150 4450 2150 4650
Wire Wire Line
	5800 3950 5800 4100
Wire Wire Line
	5800 3400 5800 3750
Wire Wire Line
	6000 3500 6000 3400
Wire Wire Line
	6000 3400 5800 3400
Wire Wire Line
	5800 3400 3600 3400
Wire Wire Line
	3600 3400 3600 4100
Connection ~ 5800 3400
Wire Wire Line
	3600 4200 3400 4200
Wire Wire Line
	7250 3400 6850 3400
Wire Wire Line
	6850 4300 6850 3400
Wire Wire Line
	3400 4350 2450 4350
Wire Wire Line
	3400 4200 3400 4350
Wire Wire Line
	2450 4550 2450 4650
Wire Wire Line
	2150 4350 2450 4350
Connection ~ 2450 4350
Wire Wire Line
	2150 4650 2450 4650
Wire Wire Line
	6400 4300 6150 4300
Connection ~ 6150 4300
Wire Wire Line
	6850 4300 6600 4300
$Comp
L Connector:Conn_01x02_Male J?
U 1 1 60064E42
P 1950 4350
AR Path="/60057EA5/60064E42" Ref="J?"  Part="1" 
AR Path="/5FECEB13/60064E42" Ref="J1"  Part="1" 
F 0 "J1" H 1922 4324 50  0000 R CNN
F 1 "Conn_01x02_Male" H 1922 4233 50  0000 R CNN
F 2 "Connector_JST:JST_EH_B2B-EH-A_1x02_P2.50mm_Vertical" H 1950 4350 50  0001 C CNN
F 3 "~" H 1950 4350 50  0001 C CNN
	1    1950 4350
	1    0    0    -1  
$EndComp
Wire Wire Line
	2450 4650 2450 4700
Connection ~ 2450 4650
$Comp
L ADP2301AUJZ-R7:ADP2301AUJZ-R7 U2
U 1 1 600705D1
P 5800 4100
F 0 "U2" H 6900 4487 60  0000 C CNN
F 1 "ADP2301AUJZ-R7" H 6900 4381 60  0000 C CNN
F 2 "ADP2301AUJZ-R7_footprint:ADP2301AUJZ-R7" H 6900 4340 60  0001 C CNN
F 3 "" H 5800 4100 60  0000 C CNN
F 4 "C143872" H 5800 4100 50  0001 C CNN "LCSC"
	1    5800 4100
	-1   0    0    -1  
$EndComp
Connection ~ 3400 4350
$Comp
L Device:R_Small_US R?
U 1 1 60064E36
P 3400 5000
AR Path="/60057EA5/60064E36" Ref="R?"  Part="1" 
AR Path="/5FECEB13/60064E36" Ref="R2"  Part="1" 
F 0 "R2" H 3150 5000 50  0000 L CNN
F 1 "1.8k Ω" H 3100 4900 50  0000 L CNN
F 2 "Resistor_SMD:R_1206_3216Metric_Pad1.30x1.75mm_HandSolder" H 3400 5000 50  0001 C CNN
F 3 "~" H 3400 5000 50  0001 C CNN
	1    3400 5000
	-1   0    0    -1  
$EndComp
Wire Wire Line
	3400 4700 3400 4800
$Comp
L Device:R_Small_US R?
U 1 1 60064DDB
P 3400 4600
AR Path="/60057EA5/60064DDB" Ref="R?"  Part="1" 
AR Path="/5FECEB13/60064DDB" Ref="R1"  Part="1" 
F 0 "R1" H 3500 4700 50  0000 L CNN
F 1 "10k Ω" H 3500 4600 50  0000 L CNN
F 2 "Resistor_SMD:R_1206_3216Metric_Pad1.30x1.75mm_HandSolder" H 3400 4600 50  0001 C CNN
F 3 "~" H 3400 4600 50  0001 C CNN
	1    3400 4600
	-1   0    0    -1  
$EndComp
Wire Wire Line
	3550 4800 3400 4800
Connection ~ 3400 4800
Wire Wire Line
	3550 4300 3550 4800
Wire Wire Line
	3400 4800 3400 4900
Wire Wire Line
	3400 4350 3400 4500
Wire Wire Line
	3400 5100 3400 5250
$Comp
L power:+3.3V #PWR05
U 1 1 60243186
P 7250 3250
F 0 "#PWR05" H 7250 3100 50  0001 C CNN
F 1 "+3.3V" H 7265 3423 50  0000 C CNN
F 2 "" H 7250 3250 50  0001 C CNN
F 3 "" H 7250 3250 50  0001 C CNN
	1    7250 3250
	1    0    0    -1  
$EndComp
Connection ~ 7250 3400
$Comp
L 2021-02-08_20-04-30:VLC5045T-4R7M L2
U 1 1 6024A456
P 6100 3400
F 0 "L2" H 6400 3639 60  0000 C CNN
F 1 "VLC5045T-4R7M" H 6400 3533 60  0000 C CNN
F 2 "VLC5045T-4R7M:VLC5045T-4R7M" H 6375 3115 60  0001 C CNN
F 3 "" H 6100 3400 60  0000 C CNN
	1    6100 3400
	1    0    0    -1  
$EndComp
Wire Wire Line
	6100 3400 6000 3400
Connection ~ 6000 3400
Wire Wire Line
	6700 3400 6850 3400
Connection ~ 6850 3400
Wire Wire Line
	6000 4150 6000 4050
$Comp
L pspice:0 #GND015
U 1 1 602B6659
P 6150 4800
F 0 "#GND015" H 6150 4700 50  0001 C CNN
F 1 "0" H 6150 4889 50  0000 C CNN
F 2 "" H 6150 4800 50  0001 C CNN
F 3 "~" H 6150 4800 50  0001 C CNN
	1    6150 4800
	1    0    0    -1  
$EndComp
$Comp
L pspice:0 #GND017
U 1 1 602B80F9
P 7250 3750
F 0 "#GND017" H 7250 3650 50  0001 C CNN
F 1 "0" H 7250 3839 50  0000 C CNN
F 2 "" H 7250 3750 50  0001 C CNN
F 3 "~" H 7250 3750 50  0001 C CNN
	1    7250 3750
	1    0    0    -1  
$EndComp
$Comp
L pspice:0 #GND04
U 1 1 602B9F71
P 3400 5250
F 0 "#GND04" H 3400 5150 50  0001 C CNN
F 1 "0" H 3400 5339 50  0000 C CNN
F 2 "" H 3400 5250 50  0001 C CNN
F 3 "~" H 3400 5250 50  0001 C CNN
	1    3400 5250
	1    0    0    -1  
$EndComp
$Comp
L pspice:0 #GND03
U 1 1 602BBBA3
P 2450 4700
F 0 "#GND03" H 2450 4600 50  0001 C CNN
F 1 "0" H 2450 4789 50  0000 C CNN
F 2 "" H 2450 4700 50  0001 C CNN
F 3 "~" H 2450 4700 50  0001 C CNN
	1    2450 4700
	1    0    0    -1  
$EndComp
Wire Wire Line
	5800 4200 5900 4200
Wire Wire Line
	5900 4050 5900 4200
$Comp
L pspice:0 #GND012
U 1 1 6030772A
P 6000 3900
F 0 "#GND012" H 6000 3800 50  0001 C CNN
F 1 "0" H 6000 3989 50  0000 C CNN
F 2 "" H 6000 3900 50  0001 C CNN
F 3 "~" H 6000 3900 50  0001 C CNN
	1    6000 3900
	1    0    0    -1  
$EndComp
$Comp
L pspice:0 #GND013
U 1 1 60309277
P 6000 4150
F 0 "#GND013" H 6000 4050 50  0001 C CNN
F 1 "0" H 6000 4239 50  0000 C CNN
F 2 "" H 6000 4150 50  0001 C CNN
F 3 "~" H 6000 4150 50  0001 C CNN
	1    6000 4150
	1    0    0    -1  
$EndComp
Text Label 3800 2150 0    50   ~ 0
VDDA
Wire Wire Line
	1000 2250 1500 2250
Text Label 1000 2250 0    50   ~ 0
VDDA
$Comp
L Regulator_Linear:L7809 U3
U 1 1 603F772B
P 8050 1600
F 0 "U3" H 8050 1842 50  0000 C CNN
F 1 "78D09L-TN3-R" H 8050 1751 50  0000 C CNN
F 2 "Package_TO_SOT_SMD:TO-252-2" H 8075 1450 50  0001 L CIN
F 3 "http://www.st.com/content/ccc/resource/technical/document/datasheet/41/4f/b3/b0/12/d4/47/88/CD00000444.pdf/files/CD00000444.pdf/jcr:content/translations/en.CD00000444.pdf" H 8050 1550 50  0001 C CNN
F 4 "C71135" H 8050 1600 50  0001 C CNN "LCSC"
	1    8050 1600
	1    0    0    -1  
$EndComp
$Comp
L Device:C C14
U 1 1 603F906E
P 7400 1800
F 0 "C14" H 7515 1846 50  0000 L CNN
F 1 "330 nF" H 7515 1755 50  0000 L CNN
F 2 "Capacitor_SMD:C_1206_3216Metric" H 7438 1650 50  0001 C CNN
F 3 "~" H 7400 1800 50  0001 C CNN
F 4 "C318760" H 7400 1800 50  0001 C CNN "LCSC"
	1    7400 1800
	1    0    0    -1  
$EndComp
$Comp
L pspice:0 #GND021
U 1 1 603F96E8
P 8600 1950
F 0 "#GND021" H 8600 1850 50  0001 C CNN
F 1 "0" H 8600 2039 50  0000 C CNN
F 2 "" H 8600 1950 50  0001 C CNN
F 3 "~" H 8600 1950 50  0001 C CNN
	1    8600 1950
	1    0    0    -1  
$EndComp
$Comp
L Device:C C15
U 1 1 603F96F2
P 8600 1800
F 0 "C15" H 8715 1846 50  0000 L CNN
F 1 "100 nF" H 8715 1755 50  0000 L CNN
F 2 "Capacitor_SMD:C_1206_3216Metric" H 8638 1650 50  0001 C CNN
F 3 "~" H 8600 1800 50  0001 C CNN
F 4 "C24497" H 8600 1800 50  0001 C CNN "LCSC"
	1    8600 1800
	1    0    0    -1  
$EndComp
$Comp
L pspice:0 #GND018
U 1 1 603F96FC
P 7400 1950
F 0 "#GND018" H 7400 1850 50  0001 C CNN
F 1 "0" H 7400 2039 50  0000 C CNN
F 2 "" H 7400 1950 50  0001 C CNN
F 3 "~" H 7400 1950 50  0001 C CNN
	1    7400 1950
	1    0    0    -1  
$EndComp
Wire Wire Line
	7050 1600 7400 1600
Wire Wire Line
	7400 1600 7400 1650
Wire Wire Line
	7400 1600 7750 1600
Connection ~ 7400 1600
$Comp
L pspice:0 #GND020
U 1 1 603FEBE9
P 8050 2000
F 0 "#GND020" H 8050 1900 50  0001 C CNN
F 1 "0" H 8050 2089 50  0000 C CNN
F 2 "" H 8050 2000 50  0001 C CNN
F 3 "~" H 8050 2000 50  0001 C CNN
	1    8050 2000
	1    0    0    -1  
$EndComp
Wire Wire Line
	8050 1900 8050 2000
Wire Wire Line
	8350 1600 8600 1600
$Comp
L power:+12V #PWR01
U 1 1 60415CC5
P 2450 4200
F 0 "#PWR01" H 2450 4050 50  0001 C CNN
F 1 "+12V" H 2465 4373 50  0000 C CNN
F 2 "" H 2450 4200 50  0001 C CNN
F 3 "" H 2450 4200 50  0001 C CNN
	1    2450 4200
	1    0    0    -1  
$EndComp
Wire Wire Line
	2450 4350 2450 4200
$Comp
L power:+12V #PWR04
U 1 1 60419C47
P 7050 1400
F 0 "#PWR04" H 7050 1250 50  0001 C CNN
F 1 "+12V" H 7065 1573 50  0000 C CNN
F 2 "" H 7050 1400 50  0001 C CNN
F 3 "" H 7050 1400 50  0001 C CNN
	1    7050 1400
	1    0    0    -1  
$EndComp
Wire Wire Line
	7050 1400 7050 1600
$Comp
L power:+9V #PWR06
U 1 1 60424AFA
P 8600 1500
F 0 "#PWR06" H 8600 1350 50  0001 C CNN
F 1 "+9V" H 8615 1673 50  0000 C CNN
F 2 "" H 8600 1500 50  0001 C CNN
F 3 "" H 8600 1500 50  0001 C CNN
	1    8600 1500
	1    0    0    -1  
$EndComp
Wire Wire Line
	8600 1500 8600 1600
Wire Wire Line
	8600 1650 8600 1600
Connection ~ 8600 1600
$Comp
L Device:R R5
U 1 1 603DF016
P 7700 3600
F 0 "R5" V 7493 3600 50  0000 C CNN
F 1 "260R" V 7584 3600 50  0000 C CNN
F 2 "Resistor_SMD:R_1206_3216Metric_Pad1.30x1.75mm_HandSolder" V 7630 3600 50  0001 C CNN
F 3 "~" H 7700 3600 50  0001 C CNN
F 4 "C17958" V 7700 3600 50  0001 C CNN "LCSC"
	1    7700 3600
	-1   0    0    1   
$EndComp
Wire Wire Line
	7700 3750 7700 3850
$Comp
L Device:LED D2
U 1 1 603DF01F
P 7700 4000
F 0 "D2" H 7693 4217 50  0000 C CNN
F 1 "LED" H 7693 4126 50  0000 C CNN
F 2 "LED_SMD:LED_1206_3216Metric_Pad1.42x1.75mm_HandSolder" H 7700 4000 50  0001 C CNN
F 3 "~" H 7700 4000 50  0001 C CNN
F 4 "C192674" H 7700 4000 50  0001 C CNN "LCSC"
	1    7700 4000
	0    -1   -1   0   
$EndComp
Wire Wire Line
	7250 3400 7250 3250
Wire Wire Line
	7700 4150 7700 4300
$Comp
L pspice:0 #GND019
U 1 1 603E78BD
P 7700 4300
F 0 "#GND019" H 7700 4200 50  0001 C CNN
F 1 "0" H 7700 4389 50  0000 C CNN
F 2 "" H 7700 4300 50  0001 C CNN
F 3 "~" H 7700 4300 50  0001 C CNN
	1    7700 4300
	1    0    0    -1  
$EndComp
Wire Wire Line
	7700 3450 7700 3400
Wire Wire Line
	7700 3400 7250 3400
$EndSCHEMATC
