(kicad_pcb (version 20171130) (host pcbnew "(5.1.8)-1")

  (general
    (thickness 1.6)
    (drawings 301)
    (tracks 134)
    (zones 0)
    (modules 11)
    (nets 91)
  )

  (page A4)
  (layers
    (0 F.Cu signal)
    (31 B.Cu signal)
    (32 B.Adhes user)
    (33 F.Adhes user)
    (34 B.Paste user)
    (35 F.Paste user)
    (36 B.SilkS user)
    (37 F.SilkS user)
    (38 B.Mask user)
    (39 F.Mask user)
    (40 Dwgs.User user)
    (41 Cmts.User user)
    (42 Eco1.User user)
    (43 Eco2.User user)
    (44 Edge.Cuts user)
    (45 Margin user)
    (46 B.CrtYd user)
    (47 F.CrtYd user)
    (48 B.Fab user)
    (49 F.Fab user)
  )

  (setup
    (last_trace_width 0.29)
    (trace_clearance 0.19)
    (zone_clearance 0.508)
    (zone_45_only no)
    (trace_min 0.2)
    (via_size 0.6)
    (via_drill 0.3)
    (via_min_size 0.6)
    (via_min_drill 0.3)
    (uvia_size 0.3)
    (uvia_drill 0.1)
    (uvias_allowed no)
    (uvia_min_size 0.2)
    (uvia_min_drill 0.1)
    (edge_width 0.05)
    (segment_width 0.2)
    (pcb_text_width 0.3)
    (pcb_text_size 1.5 1.5)
    (mod_edge_width 0.12)
    (mod_text_size 1 1)
    (mod_text_width 0.15)
    (pad_size 1.524 1.524)
    (pad_drill 0.762)
    (pad_to_mask_clearance 0)
    (aux_axis_origin 0 0)
    (visible_elements 7FFFFFFF)
    (pcbplotparams
      (layerselection 0x010fc_ffffffff)
      (usegerberextensions false)
      (usegerberattributes true)
      (usegerberadvancedattributes true)
      (creategerberjobfile true)
      (excludeedgelayer true)
      (linewidth 0.100000)
      (plotframeref false)
      (viasonmask false)
      (mode 1)
      (useauxorigin false)
      (hpglpennumber 1)
      (hpglpenspeed 20)
      (hpglpendiameter 15.000000)
      (psnegative false)
      (psa4output false)
      (plotreference true)
      (plotvalue true)
      (plotinvisibletext false)
      (padsonsilk false)
      (subtractmaskfromsilk false)
      (outputformat 1)
      (mirror false)
      (drillshape 1)
      (scaleselection 1)
      (outputdirectory ""))
  )

  (net 0 "")
  (net 1 "Net-(U1-Pad98)")
  (net 2 "Net-(U1-Pad97)")
  (net 3 "Net-(U1-Pad96)")
  (net 4 "Net-(U1-Pad95)")
  (net 5 "Net-(U1-Pad94)")
  (net 6 "Net-(U1-Pad93)")
  (net 7 "Net-(U1-Pad92)")
  (net 8 "Net-(U1-Pad91)")
  (net 9 "Net-(U1-Pad90)")
  (net 10 "Net-(U1-Pad89)")
  (net 11 "Net-(U1-Pad88)")
  (net 12 "Net-(U1-Pad87)")
  (net 13 "Net-(U1-Pad86)")
  (net 14 "Net-(U1-Pad85)")
  (net 15 "Net-(U1-Pad84)")
  (net 16 "Net-(U1-Pad83)")
  (net 17 "Net-(U1-Pad82)")
  (net 18 "Net-(U1-Pad81)")
  (net 19 "Net-(U1-Pad80)")
  (net 20 "Net-(U1-Pad79)")
  (net 21 "Net-(U1-Pad78)")
  (net 22 "Net-(U1-Pad77)")
  (net 23 "Net-(U1-Pad76)")
  (net 24 "Net-(U1-Pad72)")
  (net 25 "Net-(U1-Pad71)")
  (net 26 "Net-(U1-Pad70)")
  (net 27 "Net-(U1-Pad69)")
  (net 28 "Net-(U1-Pad68)")
  (net 29 "Net-(U1-Pad67)")
  (net 30 "Net-(U1-Pad66)")
  (net 31 "Net-(U1-Pad65)")
  (net 32 "Net-(U1-Pad64)")
  (net 33 "Net-(U1-Pad63)")
  (net 34 "Net-(U1-Pad62)")
  (net 35 "Net-(U1-Pad61)")
  (net 36 "Net-(U1-Pad60)")
  (net 37 "Net-(U1-Pad59)")
  (net 38 "Net-(U1-Pad58)")
  (net 39 "Net-(U1-Pad57)")
  (net 40 "Net-(U1-Pad56)")
  (net 41 "Net-(U1-Pad55)")
  (net 42 "Net-(U1-Pad54)")
  (net 43 "Net-(U1-Pad53)")
  (net 44 "Net-(U1-Pad52)")
  (net 45 "Net-(U1-Pad51)")
  (net 46 "Net-(U1-Pad47)")
  (net 47 "Net-(U1-Pad46)")
  (net 48 "Net-(U1-Pad45)")
  (net 49 "Net-(U1-Pad44)")
  (net 50 "Net-(U1-Pad43)")
  (net 51 "Net-(U1-Pad42)")
  (net 52 "Net-(U1-Pad41)")
  (net 53 "Net-(U1-Pad40)")
  (net 54 "Net-(U1-Pad39)")
  (net 55 "Net-(U1-Pad38)")
  (net 56 "Net-(U1-Pad37)")
  (net 57 "Net-(U1-Pad36)")
  (net 58 "Net-(U1-Pad35)")
  (net 59 "Net-(U1-Pad34)")
  (net 60 "Net-(U1-Pad33)")
  (net 61 "Net-(U1-Pad32)")
  (net 62 "Net-(U1-Pad31)")
  (net 63 "Net-(U1-Pad30)")
  (net 64 "Net-(U1-Pad29)")
  (net 65 "Net-(U1-Pad26)")
  (net 66 "Net-(U1-Pad25)")
  (net 67 "Net-(U1-Pad24)")
  (net 68 "Net-(U1-Pad23)")
  (net 69 "Net-(U1-Pad21)")
  (net 70 "Net-(U1-Pad18)")
  (net 71 "Net-(U1-Pad17)")
  (net 72 "Net-(U1-Pad16)")
  (net 73 "Net-(U1-Pad15)")
  (net 74 "Net-(U1-Pad14)")
  (net 75 "Net-(U1-Pad13)")
  (net 76 "Net-(U1-Pad12)")
  (net 77 "Net-(U1-Pad9)")
  (net 78 "Net-(U1-Pad8)")
  (net 79 "Net-(U1-Pad7)")
  (net 80 "Net-(U1-Pad5)")
  (net 81 "Net-(U1-Pad4)")
  (net 82 "Net-(U1-Pad3)")
  (net 83 "Net-(U1-Pad2)")
  (net 84 "Net-(U1-Pad1)")
  (net 85 +3V3)
  (net 86 0)
  (net 87 "Net-(C2-Pad1)")
  (net 88 "Net-(C4-Pad1)")
  (net 89 "Net-(C3-Pad1)")
  (net 90 "Net-(C1-Pad1)")

  (net_class Default "This is the default net class."
    (clearance 0.19)
    (trace_width 0.29)
    (via_dia 0.6)
    (via_drill 0.3)
    (uvia_dia 0.3)
    (uvia_drill 0.1)
    (add_net +3V3)
    (add_net 0)
    (add_net "Net-(C1-Pad1)")
    (add_net "Net-(C2-Pad1)")
    (add_net "Net-(C3-Pad1)")
    (add_net "Net-(C4-Pad1)")
    (add_net "Net-(U1-Pad1)")
    (add_net "Net-(U1-Pad12)")
    (add_net "Net-(U1-Pad13)")
    (add_net "Net-(U1-Pad14)")
    (add_net "Net-(U1-Pad15)")
    (add_net "Net-(U1-Pad16)")
    (add_net "Net-(U1-Pad17)")
    (add_net "Net-(U1-Pad18)")
    (add_net "Net-(U1-Pad2)")
    (add_net "Net-(U1-Pad21)")
    (add_net "Net-(U1-Pad23)")
    (add_net "Net-(U1-Pad24)")
    (add_net "Net-(U1-Pad25)")
    (add_net "Net-(U1-Pad26)")
    (add_net "Net-(U1-Pad29)")
    (add_net "Net-(U1-Pad3)")
    (add_net "Net-(U1-Pad30)")
    (add_net "Net-(U1-Pad31)")
    (add_net "Net-(U1-Pad32)")
    (add_net "Net-(U1-Pad33)")
    (add_net "Net-(U1-Pad34)")
    (add_net "Net-(U1-Pad35)")
    (add_net "Net-(U1-Pad36)")
    (add_net "Net-(U1-Pad37)")
    (add_net "Net-(U1-Pad38)")
    (add_net "Net-(U1-Pad39)")
    (add_net "Net-(U1-Pad4)")
    (add_net "Net-(U1-Pad40)")
    (add_net "Net-(U1-Pad41)")
    (add_net "Net-(U1-Pad42)")
    (add_net "Net-(U1-Pad43)")
    (add_net "Net-(U1-Pad44)")
    (add_net "Net-(U1-Pad45)")
    (add_net "Net-(U1-Pad46)")
    (add_net "Net-(U1-Pad47)")
    (add_net "Net-(U1-Pad5)")
    (add_net "Net-(U1-Pad51)")
    (add_net "Net-(U1-Pad52)")
    (add_net "Net-(U1-Pad53)")
    (add_net "Net-(U1-Pad54)")
    (add_net "Net-(U1-Pad55)")
    (add_net "Net-(U1-Pad56)")
    (add_net "Net-(U1-Pad57)")
    (add_net "Net-(U1-Pad58)")
    (add_net "Net-(U1-Pad59)")
    (add_net "Net-(U1-Pad60)")
    (add_net "Net-(U1-Pad61)")
    (add_net "Net-(U1-Pad62)")
    (add_net "Net-(U1-Pad63)")
    (add_net "Net-(U1-Pad64)")
    (add_net "Net-(U1-Pad65)")
    (add_net "Net-(U1-Pad66)")
    (add_net "Net-(U1-Pad67)")
    (add_net "Net-(U1-Pad68)")
    (add_net "Net-(U1-Pad69)")
    (add_net "Net-(U1-Pad7)")
    (add_net "Net-(U1-Pad70)")
    (add_net "Net-(U1-Pad71)")
    (add_net "Net-(U1-Pad72)")
    (add_net "Net-(U1-Pad76)")
    (add_net "Net-(U1-Pad77)")
    (add_net "Net-(U1-Pad78)")
    (add_net "Net-(U1-Pad79)")
    (add_net "Net-(U1-Pad8)")
    (add_net "Net-(U1-Pad80)")
    (add_net "Net-(U1-Pad81)")
    (add_net "Net-(U1-Pad82)")
    (add_net "Net-(U1-Pad83)")
    (add_net "Net-(U1-Pad84)")
    (add_net "Net-(U1-Pad85)")
    (add_net "Net-(U1-Pad86)")
    (add_net "Net-(U1-Pad87)")
    (add_net "Net-(U1-Pad88)")
    (add_net "Net-(U1-Pad89)")
    (add_net "Net-(U1-Pad9)")
    (add_net "Net-(U1-Pad90)")
    (add_net "Net-(U1-Pad91)")
    (add_net "Net-(U1-Pad92)")
    (add_net "Net-(U1-Pad93)")
    (add_net "Net-(U1-Pad94)")
    (add_net "Net-(U1-Pad95)")
    (add_net "Net-(U1-Pad96)")
    (add_net "Net-(U1-Pad97)")
    (add_net "Net-(U1-Pad98)")
  )

  (module Capacitor_SMD:C_1206_3216Metric (layer F.Cu) (tedit 5F68FEEE) (tstamp 5FEC26BC)
    (at 150.876 78.74 180)
    (descr "Capacitor SMD 1206 (3216 Metric), square (rectangular) end terminal, IPC_7351 nominal, (Body size source: IPC-SM-782 page 76, https://www.pcb-3d.com/wordpress/wp-content/uploads/ipc-sm-782a_amendment_1_and_2.pdf), generated with kicad-footprint-generator")
    (tags capacitor)
    (path /5FECEB13/5FFAE5EF)
    (attr smd)
    (fp_text reference C10 (at 0 -1.85) (layer F.SilkS)
      (effects (font (size 1 1) (thickness 0.15)))
    )
    (fp_text value "100 nF" (at 0 1.85) (layer F.Fab)
      (effects (font (size 1 1) (thickness 0.15)))
    )
    (fp_line (start 2.3 1.15) (end -2.3 1.15) (layer F.CrtYd) (width 0.05))
    (fp_line (start 2.3 -1.15) (end 2.3 1.15) (layer F.CrtYd) (width 0.05))
    (fp_line (start -2.3 -1.15) (end 2.3 -1.15) (layer F.CrtYd) (width 0.05))
    (fp_line (start -2.3 1.15) (end -2.3 -1.15) (layer F.CrtYd) (width 0.05))
    (fp_line (start -0.711252 0.91) (end 0.711252 0.91) (layer F.SilkS) (width 0.12))
    (fp_line (start -0.711252 -0.91) (end 0.711252 -0.91) (layer F.SilkS) (width 0.12))
    (fp_line (start 1.6 0.8) (end -1.6 0.8) (layer F.Fab) (width 0.1))
    (fp_line (start 1.6 -0.8) (end 1.6 0.8) (layer F.Fab) (width 0.1))
    (fp_line (start -1.6 -0.8) (end 1.6 -0.8) (layer F.Fab) (width 0.1))
    (fp_line (start -1.6 0.8) (end -1.6 -0.8) (layer F.Fab) (width 0.1))
    (fp_text user %R (at 0 0) (layer F.Fab)
      (effects (font (size 0.8 0.8) (thickness 0.12)))
    )
    (pad 2 smd roundrect (at 1.475 0 180) (size 1.15 1.8) (layers F.Cu F.Paste F.Mask) (roundrect_rratio 0.217391)
      (net 86 0))
    (pad 1 smd roundrect (at -1.475 0 180) (size 1.15 1.8) (layers F.Cu F.Paste F.Mask) (roundrect_rratio 0.217391)
      (net 85 +3V3))
    (model ${KISYS3DMOD}/Capacitor_SMD.3dshapes/C_1206_3216Metric.wrl
      (at (xyz 0 0 0))
      (scale (xyz 1 1 1))
      (rotate (xyz 0 0 0))
    )
  )

  (module Capacitor_SMD:C_1206_3216Metric (layer F.Cu) (tedit 5F68FEEE) (tstamp 5FEC26AB)
    (at 150.876 82.296 180)
    (descr "Capacitor SMD 1206 (3216 Metric), square (rectangular) end terminal, IPC_7351 nominal, (Body size source: IPC-SM-782 page 76, https://www.pcb-3d.com/wordpress/wp-content/uploads/ipc-sm-782a_amendment_1_and_2.pdf), generated with kicad-footprint-generator")
    (tags capacitor)
    (path /5FECEB13/5FFAE5E3)
    (attr smd)
    (fp_text reference C9 (at 0 -1.85) (layer F.SilkS)
      (effects (font (size 1 1) (thickness 0.15)))
    )
    (fp_text value "100 nF" (at 0 1.85) (layer F.Fab)
      (effects (font (size 1 1) (thickness 0.15)))
    )
    (fp_line (start 2.3 1.15) (end -2.3 1.15) (layer F.CrtYd) (width 0.05))
    (fp_line (start 2.3 -1.15) (end 2.3 1.15) (layer F.CrtYd) (width 0.05))
    (fp_line (start -2.3 -1.15) (end 2.3 -1.15) (layer F.CrtYd) (width 0.05))
    (fp_line (start -2.3 1.15) (end -2.3 -1.15) (layer F.CrtYd) (width 0.05))
    (fp_line (start -0.711252 0.91) (end 0.711252 0.91) (layer F.SilkS) (width 0.12))
    (fp_line (start -0.711252 -0.91) (end 0.711252 -0.91) (layer F.SilkS) (width 0.12))
    (fp_line (start 1.6 0.8) (end -1.6 0.8) (layer F.Fab) (width 0.1))
    (fp_line (start 1.6 -0.8) (end 1.6 0.8) (layer F.Fab) (width 0.1))
    (fp_line (start -1.6 -0.8) (end 1.6 -0.8) (layer F.Fab) (width 0.1))
    (fp_line (start -1.6 0.8) (end -1.6 -0.8) (layer F.Fab) (width 0.1))
    (fp_text user %R (at 0 0) (layer F.Fab)
      (effects (font (size 0.8 0.8) (thickness 0.12)))
    )
    (pad 2 smd roundrect (at 1.475 0 180) (size 1.15 1.8) (layers F.Cu F.Paste F.Mask) (roundrect_rratio 0.217391)
      (net 86 0))
    (pad 1 smd roundrect (at -1.475 0 180) (size 1.15 1.8) (layers F.Cu F.Paste F.Mask) (roundrect_rratio 0.217391)
      (net 85 +3V3))
    (model ${KISYS3DMOD}/Capacitor_SMD.3dshapes/C_1206_3216Metric.wrl
      (at (xyz 0 0 0))
      (scale (xyz 1 1 1))
      (rotate (xyz 0 0 0))
    )
  )

  (module Capacitor_SMD:C_1206_3216Metric (layer F.Cu) (tedit 5F68FEEE) (tstamp 5FEC22B7)
    (at 156.972 66.548 90)
    (descr "Capacitor SMD 1206 (3216 Metric), square (rectangular) end terminal, IPC_7351 nominal, (Body size source: IPC-SM-782 page 76, https://www.pcb-3d.com/wordpress/wp-content/uploads/ipc-sm-782a_amendment_1_and_2.pdf), generated with kicad-footprint-generator")
    (tags capacitor)
    (path /5FECEB13/5FFA205D)
    (attr smd)
    (fp_text reference C8 (at 0 -1.85 90) (layer F.SilkS)
      (effects (font (size 1 1) (thickness 0.15)))
    )
    (fp_text value "100 nF" (at 0 1.85 90) (layer F.Fab)
      (effects (font (size 1 1) (thickness 0.15)))
    )
    (fp_line (start 2.3 1.15) (end -2.3 1.15) (layer F.CrtYd) (width 0.05))
    (fp_line (start 2.3 -1.15) (end 2.3 1.15) (layer F.CrtYd) (width 0.05))
    (fp_line (start -2.3 -1.15) (end 2.3 -1.15) (layer F.CrtYd) (width 0.05))
    (fp_line (start -2.3 1.15) (end -2.3 -1.15) (layer F.CrtYd) (width 0.05))
    (fp_line (start -0.711252 0.91) (end 0.711252 0.91) (layer F.SilkS) (width 0.12))
    (fp_line (start -0.711252 -0.91) (end 0.711252 -0.91) (layer F.SilkS) (width 0.12))
    (fp_line (start 1.6 0.8) (end -1.6 0.8) (layer F.Fab) (width 0.1))
    (fp_line (start 1.6 -0.8) (end 1.6 0.8) (layer F.Fab) (width 0.1))
    (fp_line (start -1.6 -0.8) (end 1.6 -0.8) (layer F.Fab) (width 0.1))
    (fp_line (start -1.6 0.8) (end -1.6 -0.8) (layer F.Fab) (width 0.1))
    (fp_text user %R (at 0 0 90) (layer F.Fab)
      (effects (font (size 0.8 0.8) (thickness 0.12)))
    )
    (pad 2 smd roundrect (at 1.475 0 90) (size 1.15 1.8) (layers F.Cu F.Paste F.Mask) (roundrect_rratio 0.217391)
      (net 86 0))
    (pad 1 smd roundrect (at -1.475 0 90) (size 1.15 1.8) (layers F.Cu F.Paste F.Mask) (roundrect_rratio 0.217391)
      (net 85 +3V3))
    (model ${KISYS3DMOD}/Capacitor_SMD.3dshapes/C_1206_3216Metric.wrl
      (at (xyz 0 0 0))
      (scale (xyz 1 1 1))
      (rotate (xyz 0 0 0))
    )
  )

  (module Capacitor_SMD:C_1206_3216Metric (layer F.Cu) (tedit 5F68FEEE) (tstamp 5FEC2287)
    (at 176.276 71.628)
    (descr "Capacitor SMD 1206 (3216 Metric), square (rectangular) end terminal, IPC_7351 nominal, (Body size source: IPC-SM-782 page 76, https://www.pcb-3d.com/wordpress/wp-content/uploads/ipc-sm-782a_amendment_1_and_2.pdf), generated with kicad-footprint-generator")
    (tags capacitor)
    (path /5FECEB13/5FFA0847)
    (attr smd)
    (fp_text reference C7 (at 0 -1.85) (layer F.SilkS)
      (effects (font (size 1 1) (thickness 0.15)))
    )
    (fp_text value "100 nF" (at 0 1.85) (layer F.Fab)
      (effects (font (size 1 1) (thickness 0.15)))
    )
    (fp_line (start 2.3 1.15) (end -2.3 1.15) (layer F.CrtYd) (width 0.05))
    (fp_line (start 2.3 -1.15) (end 2.3 1.15) (layer F.CrtYd) (width 0.05))
    (fp_line (start -2.3 -1.15) (end 2.3 -1.15) (layer F.CrtYd) (width 0.05))
    (fp_line (start -2.3 1.15) (end -2.3 -1.15) (layer F.CrtYd) (width 0.05))
    (fp_line (start -0.711252 0.91) (end 0.711252 0.91) (layer F.SilkS) (width 0.12))
    (fp_line (start -0.711252 -0.91) (end 0.711252 -0.91) (layer F.SilkS) (width 0.12))
    (fp_line (start 1.6 0.8) (end -1.6 0.8) (layer F.Fab) (width 0.1))
    (fp_line (start 1.6 -0.8) (end 1.6 0.8) (layer F.Fab) (width 0.1))
    (fp_line (start -1.6 -0.8) (end 1.6 -0.8) (layer F.Fab) (width 0.1))
    (fp_line (start -1.6 0.8) (end -1.6 -0.8) (layer F.Fab) (width 0.1))
    (fp_text user %R (at 0 0) (layer F.Fab)
      (effects (font (size 0.8 0.8) (thickness 0.12)))
    )
    (pad 2 smd roundrect (at 1.475 0) (size 1.15 1.8) (layers F.Cu F.Paste F.Mask) (roundrect_rratio 0.217391)
      (net 86 0))
    (pad 1 smd roundrect (at -1.475 0) (size 1.15 1.8) (layers F.Cu F.Paste F.Mask) (roundrect_rratio 0.217391)
      (net 85 +3V3))
    (model ${KISYS3DMOD}/Capacitor_SMD.3dshapes/C_1206_3216Metric.wrl
      (at (xyz 0 0 0))
      (scale (xyz 1 1 1))
      (rotate (xyz 0 0 0))
    )
  )

  (module Capacitor_SMD:C_1206_3216Metric (layer F.Cu) (tedit 5F68FEEE) (tstamp 5FEC22E7)
    (at 155.4734 91.44508 231.2)
    (descr "Capacitor SMD 1206 (3216 Metric), square (rectangular) end terminal, IPC_7351 nominal, (Body size source: IPC-SM-782 page 76, https://www.pcb-3d.com/wordpress/wp-content/uploads/ipc-sm-782a_amendment_1_and_2.pdf), generated with kicad-footprint-generator")
    (tags capacitor)
    (path /5FECEB13/5FF9FC83)
    (attr smd)
    (fp_text reference C6 (at 0 -1.85 51.2) (layer F.SilkS)
      (effects (font (size 1 1) (thickness 0.15)))
    )
    (fp_text value "100 nF" (at 0 1.85 51.2) (layer F.Fab)
      (effects (font (size 1 1) (thickness 0.15)))
    )
    (fp_line (start 2.3 1.15) (end -2.3 1.15) (layer F.CrtYd) (width 0.05))
    (fp_line (start 2.3 -1.15) (end 2.3 1.15) (layer F.CrtYd) (width 0.05))
    (fp_line (start -2.3 -1.15) (end 2.3 -1.15) (layer F.CrtYd) (width 0.05))
    (fp_line (start -2.3 1.15) (end -2.3 -1.15) (layer F.CrtYd) (width 0.05))
    (fp_line (start -0.711252 0.91) (end 0.711252 0.91) (layer F.SilkS) (width 0.12))
    (fp_line (start -0.711252 -0.91) (end 0.711252 -0.91) (layer F.SilkS) (width 0.12))
    (fp_line (start 1.6 0.8) (end -1.6 0.8) (layer F.Fab) (width 0.1))
    (fp_line (start 1.6 -0.8) (end 1.6 0.8) (layer F.Fab) (width 0.1))
    (fp_line (start -1.6 -0.8) (end 1.6 -0.8) (layer F.Fab) (width 0.1))
    (fp_line (start -1.6 0.8) (end -1.6 -0.8) (layer F.Fab) (width 0.1))
    (fp_text user %R (at 0 0 51.2) (layer F.Fab)
      (effects (font (size 0.8 0.8) (thickness 0.12)))
    )
    (pad 2 smd roundrect (at 1.475 0 231.2) (size 1.15 1.8) (layers F.Cu F.Paste F.Mask) (roundrect_rratio 0.217391)
      (net 86 0))
    (pad 1 smd roundrect (at -1.475 0 231.2) (size 1.15 1.8) (layers F.Cu F.Paste F.Mask) (roundrect_rratio 0.217391)
      (net 85 +3V3))
    (model ${KISYS3DMOD}/Capacitor_SMD.3dshapes/C_1206_3216Metric.wrl
      (at (xyz 0 0 0))
      (scale (xyz 1 1 1))
      (rotate (xyz 0 0 0))
    )
  )

  (module Capacitor_SMD:C_1206_3216Metric (layer F.Cu) (tedit 5F68FEEE) (tstamp 5FEC2257)
    (at 171.958 91.65 270)
    (descr "Capacitor SMD 1206 (3216 Metric), square (rectangular) end terminal, IPC_7351 nominal, (Body size source: IPC-SM-782 page 76, https://www.pcb-3d.com/wordpress/wp-content/uploads/ipc-sm-782a_amendment_1_and_2.pdf), generated with kicad-footprint-generator")
    (tags capacitor)
    (path /5FECEB13/5FF9D4CF)
    (attr smd)
    (fp_text reference C5 (at 0 -1.85 90) (layer F.SilkS)
      (effects (font (size 1 1) (thickness 0.15)))
    )
    (fp_text value "100 nF" (at 0 1.85 90) (layer F.Fab)
      (effects (font (size 1 1) (thickness 0.15)))
    )
    (fp_line (start 2.3 1.15) (end -2.3 1.15) (layer F.CrtYd) (width 0.05))
    (fp_line (start 2.3 -1.15) (end 2.3 1.15) (layer F.CrtYd) (width 0.05))
    (fp_line (start -2.3 -1.15) (end 2.3 -1.15) (layer F.CrtYd) (width 0.05))
    (fp_line (start -2.3 1.15) (end -2.3 -1.15) (layer F.CrtYd) (width 0.05))
    (fp_line (start -0.711252 0.91) (end 0.711252 0.91) (layer F.SilkS) (width 0.12))
    (fp_line (start -0.711252 -0.91) (end 0.711252 -0.91) (layer F.SilkS) (width 0.12))
    (fp_line (start 1.6 0.8) (end -1.6 0.8) (layer F.Fab) (width 0.1))
    (fp_line (start 1.6 -0.8) (end 1.6 0.8) (layer F.Fab) (width 0.1))
    (fp_line (start -1.6 -0.8) (end 1.6 -0.8) (layer F.Fab) (width 0.1))
    (fp_line (start -1.6 0.8) (end -1.6 -0.8) (layer F.Fab) (width 0.1))
    (fp_text user %R (at 0 0 90) (layer F.Fab)
      (effects (font (size 0.8 0.8) (thickness 0.12)))
    )
    (pad 2 smd roundrect (at 1.475 0 270) (size 1.15 1.8) (layers F.Cu F.Paste F.Mask) (roundrect_rratio 0.217391)
      (net 86 0))
    (pad 1 smd roundrect (at -1.475 0 270) (size 1.15 1.8) (layers F.Cu F.Paste F.Mask) (roundrect_rratio 0.217391)
      (net 85 +3V3))
    (model ${KISYS3DMOD}/Capacitor_SMD.3dshapes/C_1206_3216Metric.wrl
      (at (xyz 0 0 0))
      (scale (xyz 1 1 1))
      (rotate (xyz 0 0 0))
    )
  )

  (module Capacitor_SMD:C_1206_3216Metric (layer F.Cu) (tedit 5F68FEEE) (tstamp 5FEC1646)
    (at 169.164 91.645 270)
    (descr "Capacitor SMD 1206 (3216 Metric), square (rectangular) end terminal, IPC_7351 nominal, (Body size source: IPC-SM-782 page 76, https://www.pcb-3d.com/wordpress/wp-content/uploads/ipc-sm-782a_amendment_1_and_2.pdf), generated with kicad-footprint-generator")
    (tags capacitor)
    (path /5FECEB13/5FF757D0)
    (attr smd)
    (fp_text reference C4 (at 0 -1.85 90) (layer F.SilkS)
      (effects (font (size 1 1) (thickness 0.15)))
    )
    (fp_text value "2.2 uF" (at 0 1.85 90) (layer F.Fab)
      (effects (font (size 1 1) (thickness 0.15)))
    )
    (fp_line (start 2.3 1.15) (end -2.3 1.15) (layer F.CrtYd) (width 0.05))
    (fp_line (start 2.3 -1.15) (end 2.3 1.15) (layer F.CrtYd) (width 0.05))
    (fp_line (start -2.3 -1.15) (end 2.3 -1.15) (layer F.CrtYd) (width 0.05))
    (fp_line (start -2.3 1.15) (end -2.3 -1.15) (layer F.CrtYd) (width 0.05))
    (fp_line (start -0.711252 0.91) (end 0.711252 0.91) (layer F.SilkS) (width 0.12))
    (fp_line (start -0.711252 -0.91) (end 0.711252 -0.91) (layer F.SilkS) (width 0.12))
    (fp_line (start 1.6 0.8) (end -1.6 0.8) (layer F.Fab) (width 0.1))
    (fp_line (start 1.6 -0.8) (end 1.6 0.8) (layer F.Fab) (width 0.1))
    (fp_line (start -1.6 -0.8) (end 1.6 -0.8) (layer F.Fab) (width 0.1))
    (fp_line (start -1.6 0.8) (end -1.6 -0.8) (layer F.Fab) (width 0.1))
    (fp_text user %R (at 0 0 90) (layer F.Fab)
      (effects (font (size 0.8 0.8) (thickness 0.12)))
    )
    (pad 2 smd roundrect (at 1.475 0 270) (size 1.15 1.8) (layers F.Cu F.Paste F.Mask) (roundrect_rratio 0.217391)
      (net 86 0))
    (pad 1 smd roundrect (at -1.475 0 270) (size 1.15 1.8) (layers F.Cu F.Paste F.Mask) (roundrect_rratio 0.217391)
      (net 88 "Net-(C4-Pad1)"))
    (model ${KISYS3DMOD}/Capacitor_SMD.3dshapes/C_1206_3216Metric.wrl
      (at (xyz 0 0 0))
      (scale (xyz 1 1 1))
      (rotate (xyz 0 0 0))
    )
  )

  (module Capacitor_SMD:C_1206_3216Metric (layer F.Cu) (tedit 5F68FEEE) (tstamp 5FEC1635)
    (at 151.83866 87.60714 212.4)
    (descr "Capacitor SMD 1206 (3216 Metric), square (rectangular) end terminal, IPC_7351 nominal, (Body size source: IPC-SM-782 page 76, https://www.pcb-3d.com/wordpress/wp-content/uploads/ipc-sm-782a_amendment_1_and_2.pdf), generated with kicad-footprint-generator")
    (tags capacitor)
    (path /5FECEB13/5FF6053C)
    (attr smd)
    (fp_text reference C3 (at 0 -1.85 32.4) (layer F.SilkS)
      (effects (font (size 1 1) (thickness 0.15)))
    )
    (fp_text value "100 nF" (at 0 1.85 32.4) (layer F.Fab)
      (effects (font (size 1 1) (thickness 0.15)))
    )
    (fp_text user %R (at 0 0 32.4) (layer F.Fab)
      (effects (font (size 0.8 0.8) (thickness 0.12)))
    )
    (fp_line (start -1.6 0.8) (end -1.6 -0.8) (layer F.Fab) (width 0.1))
    (fp_line (start -1.6 -0.8) (end 1.6 -0.8) (layer F.Fab) (width 0.1))
    (fp_line (start 1.6 -0.8) (end 1.6 0.8) (layer F.Fab) (width 0.1))
    (fp_line (start 1.6 0.8) (end -1.6 0.8) (layer F.Fab) (width 0.1))
    (fp_line (start -0.711252 -0.91) (end 0.711252 -0.91) (layer F.SilkS) (width 0.12))
    (fp_line (start -0.711252 0.91) (end 0.711252 0.91) (layer F.SilkS) (width 0.12))
    (fp_line (start -2.3 1.15) (end -2.3 -1.15) (layer F.CrtYd) (width 0.05))
    (fp_line (start -2.3 -1.15) (end 2.3 -1.15) (layer F.CrtYd) (width 0.05))
    (fp_line (start 2.3 -1.15) (end 2.3 1.15) (layer F.CrtYd) (width 0.05))
    (fp_line (start 2.3 1.15) (end -2.3 1.15) (layer F.CrtYd) (width 0.05))
    (pad 1 smd roundrect (at -1.475 0 212.4) (size 1.15 1.8) (layers F.Cu F.Paste F.Mask) (roundrect_rratio 0.217391)
      (net 89 "Net-(C3-Pad1)"))
    (pad 2 smd roundrect (at 1.475 0 212.4) (size 1.15 1.8) (layers F.Cu F.Paste F.Mask) (roundrect_rratio 0.217391)
      (net 86 0))
    (model ${KISYS3DMOD}/Capacitor_SMD.3dshapes/C_1206_3216Metric.wrl
      (at (xyz 0 0 0))
      (scale (xyz 1 1 1))
      (rotate (xyz 0 0 0))
    )
  )

  (module Capacitor_SMD:C_1206_3216Metric (layer F.Cu) (tedit 5F68FEEE) (tstamp 5FEC1624)
    (at 176.276 74.676)
    (descr "Capacitor SMD 1206 (3216 Metric), square (rectangular) end terminal, IPC_7351 nominal, (Body size source: IPC-SM-782 page 76, https://www.pcb-3d.com/wordpress/wp-content/uploads/ipc-sm-782a_amendment_1_and_2.pdf), generated with kicad-footprint-generator")
    (tags capacitor)
    (path /5FECEB13/5FF65E65)
    (attr smd)
    (fp_text reference C2 (at 0 -1.85) (layer F.SilkS)
      (effects (font (size 1 1) (thickness 0.15)))
    )
    (fp_text value "2.2 uF" (at 0 1.85) (layer F.Fab)
      (effects (font (size 1 1) (thickness 0.15)))
    )
    (fp_line (start 2.3 1.15) (end -2.3 1.15) (layer F.CrtYd) (width 0.05))
    (fp_line (start 2.3 -1.15) (end 2.3 1.15) (layer F.CrtYd) (width 0.05))
    (fp_line (start -2.3 -1.15) (end 2.3 -1.15) (layer F.CrtYd) (width 0.05))
    (fp_line (start -2.3 1.15) (end -2.3 -1.15) (layer F.CrtYd) (width 0.05))
    (fp_line (start -0.711252 0.91) (end 0.711252 0.91) (layer F.SilkS) (width 0.12))
    (fp_line (start -0.711252 -0.91) (end 0.711252 -0.91) (layer F.SilkS) (width 0.12))
    (fp_line (start 1.6 0.8) (end -1.6 0.8) (layer F.Fab) (width 0.1))
    (fp_line (start 1.6 -0.8) (end 1.6 0.8) (layer F.Fab) (width 0.1))
    (fp_line (start -1.6 -0.8) (end 1.6 -0.8) (layer F.Fab) (width 0.1))
    (fp_line (start -1.6 0.8) (end -1.6 -0.8) (layer F.Fab) (width 0.1))
    (fp_text user %R (at 0 0) (layer F.Fab)
      (effects (font (size 0.8 0.8) (thickness 0.12)))
    )
    (pad 2 smd roundrect (at 1.475 0) (size 1.15 1.8) (layers F.Cu F.Paste F.Mask) (roundrect_rratio 0.217391)
      (net 86 0))
    (pad 1 smd roundrect (at -1.475 0) (size 1.15 1.8) (layers F.Cu F.Paste F.Mask) (roundrect_rratio 0.217391)
      (net 87 "Net-(C2-Pad1)"))
    (model ${KISYS3DMOD}/Capacitor_SMD.3dshapes/C_1206_3216Metric.wrl
      (at (xyz 0 0 0))
      (scale (xyz 1 1 1))
      (rotate (xyz 0 0 0))
    )
  )

  (module Capacitor_SMD:C_1206_3216Metric (layer F.Cu) (tedit 5F68FEEE) (tstamp 5FEC1613)
    (at 150.876 76.2 180)
    (descr "Capacitor SMD 1206 (3216 Metric), square (rectangular) end terminal, IPC_7351 nominal, (Body size source: IPC-SM-782 page 76, https://www.pcb-3d.com/wordpress/wp-content/uploads/ipc-sm-782a_amendment_1_and_2.pdf), generated with kicad-footprint-generator")
    (tags capacitor)
    (path /5FECEB13/5FF525BE)
    (attr smd)
    (fp_text reference C1 (at 0 -1.85) (layer F.SilkS)
      (effects (font (size 1 1) (thickness 0.15)))
    )
    (fp_text value "1 uF" (at 0 1.85) (layer F.Fab)
      (effects (font (size 1 1) (thickness 0.15)))
    )
    (fp_line (start 2.3 1.15) (end -2.3 1.15) (layer F.CrtYd) (width 0.05))
    (fp_line (start 2.3 -1.15) (end 2.3 1.15) (layer F.CrtYd) (width 0.05))
    (fp_line (start -2.3 -1.15) (end 2.3 -1.15) (layer F.CrtYd) (width 0.05))
    (fp_line (start -2.3 1.15) (end -2.3 -1.15) (layer F.CrtYd) (width 0.05))
    (fp_line (start -0.711252 0.91) (end 0.711252 0.91) (layer F.SilkS) (width 0.12))
    (fp_line (start -0.711252 -0.91) (end 0.711252 -0.91) (layer F.SilkS) (width 0.12))
    (fp_line (start 1.6 0.8) (end -1.6 0.8) (layer F.Fab) (width 0.1))
    (fp_line (start 1.6 -0.8) (end 1.6 0.8) (layer F.Fab) (width 0.1))
    (fp_line (start -1.6 -0.8) (end 1.6 -0.8) (layer F.Fab) (width 0.1))
    (fp_line (start -1.6 0.8) (end -1.6 -0.8) (layer F.Fab) (width 0.1))
    (fp_text user %R (at 0 0) (layer F.Fab)
      (effects (font (size 0.8 0.8) (thickness 0.12)))
    )
    (pad 2 smd roundrect (at 1.475 0 180) (size 1.15 1.8) (layers F.Cu F.Paste F.Mask) (roundrect_rratio 0.217391)
      (net 86 0))
    (pad 1 smd roundrect (at -1.475 0 180) (size 1.15 1.8) (layers F.Cu F.Paste F.Mask) (roundrect_rratio 0.217391)
      (net 90 "Net-(C1-Pad1)"))
    (model ${KISYS3DMOD}/Capacitor_SMD.3dshapes/C_1206_3216Metric.wrl
      (at (xyz 0 0 0))
      (scale (xyz 1 1 1))
      (rotate (xyz 0 0 0))
    )
  )

  (module STM32F446VET6_footprint:STM32F446VET6 (layer F.Cu) (tedit 0) (tstamp 5FEC0C3F)
    (at 164.084 79.756)
    (path /5FECEB13/5FF28FA7)
    (fp_text reference U1 (at 0 0) (layer F.SilkS)
      (effects (font (size 1 1) (thickness 0.15)))
    )
    (fp_text value STM32F446VET6 (at 0 0) (layer F.SilkS)
      (effects (font (size 1 1) (thickness 0.15)))
    )
    (fp_circle (center -6.5181 -6) (end -6.4419 -6) (layer F.Fab) (width 0.1524))
    (fp_circle (center -8.8509 -6) (end -8.7747 -6) (layer F.SilkS) (width 0.1524))
    (fp_line (start -6.508 7.3533) (end -7.3533 7.3533) (layer F.CrtYd) (width 0.1524))
    (fp_line (start -6.508 8.6009) (end -6.508 7.3533) (layer F.CrtYd) (width 0.1524))
    (fp_line (start 6.508 8.6009) (end -6.508 8.6009) (layer F.CrtYd) (width 0.1524))
    (fp_line (start 6.508 7.3533) (end 6.508 8.6009) (layer F.CrtYd) (width 0.1524))
    (fp_line (start 7.3533 7.3533) (end 6.508 7.3533) (layer F.CrtYd) (width 0.1524))
    (fp_line (start 7.3533 6.508) (end 7.3533 7.3533) (layer F.CrtYd) (width 0.1524))
    (fp_line (start 8.6009 6.508) (end 7.3533 6.508) (layer F.CrtYd) (width 0.1524))
    (fp_line (start 8.6009 -6.508) (end 8.6009 6.508) (layer F.CrtYd) (width 0.1524))
    (fp_line (start 7.3533 -6.508) (end 8.6009 -6.508) (layer F.CrtYd) (width 0.1524))
    (fp_line (start 7.3533 -7.3533) (end 7.3533 -6.508) (layer F.CrtYd) (width 0.1524))
    (fp_line (start 6.508 -7.3533) (end 7.3533 -7.3533) (layer F.CrtYd) (width 0.1524))
    (fp_line (start 6.508 -8.6009) (end 6.508 -7.3533) (layer F.CrtYd) (width 0.1524))
    (fp_line (start -6.508 -8.6009) (end 6.508 -8.6009) (layer F.CrtYd) (width 0.1524))
    (fp_line (start -6.508 -7.3533) (end -6.508 -8.6009) (layer F.CrtYd) (width 0.1524))
    (fp_line (start -7.3533 -7.3533) (end -6.508 -7.3533) (layer F.CrtYd) (width 0.1524))
    (fp_line (start -7.3533 -6.508) (end -7.3533 -7.3533) (layer F.CrtYd) (width 0.1524))
    (fp_line (start -8.6009 -6.508) (end -7.3533 -6.508) (layer F.CrtYd) (width 0.1524))
    (fp_line (start -8.6009 6.508) (end -8.6009 -6.508) (layer F.CrtYd) (width 0.1524))
    (fp_line (start -7.3533 6.508) (end -8.6009 6.508) (layer F.CrtYd) (width 0.1524))
    (fp_line (start -7.3533 7.3533) (end -7.3533 6.508) (layer F.CrtYd) (width 0.1524))
    (fp_line (start -5.809501 -8.6009) (end -6.190501 -8.6009) (layer F.SilkS) (width 0.1524))
    (fp_line (start -5.809501 -8.8549) (end -5.809501 -8.6009) (layer F.SilkS) (width 0.1524))
    (fp_line (start -6.190501 -8.8549) (end -5.809501 -8.8549) (layer F.SilkS) (width 0.1524))
    (fp_line (start -6.190501 -8.6009) (end -6.190501 -8.8549) (layer F.SilkS) (width 0.1524))
    (fp_line (start -0.809501 -8.6009) (end -1.190501 -8.6009) (layer F.SilkS) (width 0.1524))
    (fp_line (start -0.809501 -8.8549) (end -0.809501 -8.6009) (layer F.SilkS) (width 0.1524))
    (fp_line (start -1.190501 -8.8549) (end -0.809501 -8.8549) (layer F.SilkS) (width 0.1524))
    (fp_line (start -1.190501 -8.6009) (end -1.190501 -8.8549) (layer F.SilkS) (width 0.1524))
    (fp_line (start 4.1905 -8.6009) (end 3.8095 -8.6009) (layer F.SilkS) (width 0.1524))
    (fp_line (start 4.1905 -8.8549) (end 4.1905 -8.6009) (layer F.SilkS) (width 0.1524))
    (fp_line (start 3.8095 -8.8549) (end 4.1905 -8.8549) (layer F.SilkS) (width 0.1524))
    (fp_line (start 3.8095 -8.6009) (end 3.8095 -8.8549) (layer F.SilkS) (width 0.1524))
    (fp_line (start 8.6009 -3.690501) (end 8.8549 -3.690501) (layer F.SilkS) (width 0.1524))
    (fp_line (start 8.6009 -3.309501) (end 8.6009 -3.690501) (layer F.SilkS) (width 0.1524))
    (fp_line (start 8.8549 -3.309501) (end 8.6009 -3.309501) (layer F.SilkS) (width 0.1524))
    (fp_line (start 8.8549 -3.690501) (end 8.8549 -3.309501) (layer F.SilkS) (width 0.1524))
    (fp_line (start 8.6009 1.3095) (end 8.8549 1.3095) (layer F.SilkS) (width 0.1524))
    (fp_line (start 8.6009 1.6905) (end 8.6009 1.3095) (layer F.SilkS) (width 0.1524))
    (fp_line (start 8.8549 1.6905) (end 8.6009 1.6905) (layer F.SilkS) (width 0.1524))
    (fp_line (start 8.8549 1.3095) (end 8.8549 1.6905) (layer F.SilkS) (width 0.1524))
    (fp_line (start 6.190501 8.6009) (end 5.809501 8.6009) (layer F.SilkS) (width 0.1524))
    (fp_line (start 6.190501 8.8549) (end 6.190501 8.6009) (layer F.SilkS) (width 0.1524))
    (fp_line (start 5.809501 8.8549) (end 6.190501 8.8549) (layer F.SilkS) (width 0.1524))
    (fp_line (start 5.809501 8.6009) (end 5.809501 8.8549) (layer F.SilkS) (width 0.1524))
    (fp_line (start 1.190501 8.6009) (end 0.809501 8.6009) (layer F.SilkS) (width 0.1524))
    (fp_line (start 1.190501 8.8549) (end 1.190501 8.6009) (layer F.SilkS) (width 0.1524))
    (fp_line (start 0.809501 8.8549) (end 1.190501 8.8549) (layer F.SilkS) (width 0.1524))
    (fp_line (start 0.809501 8.6009) (end 0.809501 8.8549) (layer F.SilkS) (width 0.1524))
    (fp_line (start -3.8095 8.6009) (end -4.1905 8.6009) (layer F.SilkS) (width 0.1524))
    (fp_line (start -3.8095 8.8549) (end -3.8095 8.6009) (layer F.SilkS) (width 0.1524))
    (fp_line (start -4.1905 8.8549) (end -3.8095 8.8549) (layer F.SilkS) (width 0.1524))
    (fp_line (start -4.1905 8.6009) (end -4.1905 8.8549) (layer F.SilkS) (width 0.1524))
    (fp_line (start -8.6009 3.309501) (end -8.8549 3.309501) (layer F.SilkS) (width 0.1524))
    (fp_line (start -8.6009 3.690501) (end -8.6009 3.309501) (layer F.SilkS) (width 0.1524))
    (fp_line (start -8.8549 3.690501) (end -8.6009 3.690501) (layer F.SilkS) (width 0.1524))
    (fp_line (start -8.8549 3.309501) (end -8.8549 3.690501) (layer F.SilkS) (width 0.1524))
    (fp_line (start -8.6009 -1.6905) (end -8.8549 -1.6905) (layer F.SilkS) (width 0.1524))
    (fp_line (start -8.6009 -1.3095) (end -8.6009 -1.6905) (layer F.SilkS) (width 0.1524))
    (fp_line (start -8.8549 -1.3095) (end -8.6009 -1.3095) (layer F.SilkS) (width 0.1524))
    (fp_line (start -8.8549 -1.6905) (end -8.8549 -1.3095) (layer F.SilkS) (width 0.1524))
    (fp_line (start -6.485141 -7.2263) (end -7.2263 -7.2263) (layer F.SilkS) (width 0.1524))
    (fp_line (start 7.2263 -6.485141) (end 7.2263 -7.2263) (layer F.SilkS) (width 0.1524))
    (fp_line (start 6.485141 7.2263) (end 7.2263 7.2263) (layer F.SilkS) (width 0.1524))
    (fp_line (start -7.2263 6.485141) (end -7.2263 7.2263) (layer F.SilkS) (width 0.1524))
    (fp_line (start -7.0993 -7.0993) (end -7.0993 7.0993) (layer F.Fab) (width 0.1524))
    (fp_line (start 7.0993 -7.0993) (end -7.0993 -7.0993) (layer F.Fab) (width 0.1524))
    (fp_line (start 7.0993 7.0993) (end 7.0993 -7.0993) (layer F.Fab) (width 0.1524))
    (fp_line (start -7.0993 7.0993) (end 7.0993 7.0993) (layer F.Fab) (width 0.1524))
    (fp_line (start -7.2263 -7.2263) (end -7.2263 -6.485141) (layer F.SilkS) (width 0.1524))
    (fp_line (start 7.2263 -7.2263) (end 6.485141 -7.2263) (layer F.SilkS) (width 0.1524))
    (fp_line (start 7.2263 7.2263) (end 7.2263 6.485141) (layer F.SilkS) (width 0.1524))
    (fp_line (start -7.2263 7.2263) (end -6.485141 7.2263) (layer F.SilkS) (width 0.1524))
    (fp_line (start -7.0993 -5.8293) (end -5.8293 -7.0993) (layer F.Fab) (width 0.1524))
    (fp_text user 0.012in/0.305mm (at -13.9349 -6) (layer Dwgs.User)
      (effects (font (size 1 1) (thickness 0.15)))
    )
    (fp_text user 0.047in/1.194mm (at 7.75 -10.798) (layer Dwgs.User)
      (effects (font (size 1 1) (thickness 0.15)))
    )
    (fp_text user 0.61in/15.5mm (at 15.2811 0) (layer Dwgs.User)
      (effects (font (size 1 1) (thickness 0.15)))
    )
    (fp_text user 0.61in/15.5mm (at 0 13.9349) (layer Dwgs.User)
      (effects (font (size 1 1) (thickness 0.15)))
    )
    (fp_text user 0.02in/0.5mm (at -11.3949 0.25) (layer Dwgs.User)
      (effects (font (size 1 1) (thickness 0.15)))
    )
    (fp_text user * (at 0 0) (layer F.Fab)
      (effects (font (size 1 1) (thickness 0.15)))
    )
    (fp_text user * (at 0 0) (layer F.SilkS)
      (effects (font (size 1 1) (thickness 0.15)))
    )
    (fp_text user "Copyright 2016 Accelerated Designs. All rights reserved." (at 0 0) (layer Cmts.User)
      (effects (font (size 0.127 0.127) (thickness 0.002)))
    )
    (pad 100 smd rect (at -6.000001 -7.75 90) (size 1.1938 0.3048) (layers F.Cu F.Paste F.Mask)
      (net 85 +3V3))
    (pad 99 smd rect (at -5.499999 -7.75 90) (size 1.1938 0.3048) (layers F.Cu F.Paste F.Mask)
      (net 86 0))
    (pad 98 smd rect (at -5 -7.75 90) (size 1.1938 0.3048) (layers F.Cu F.Paste F.Mask)
      (net 1 "Net-(U1-Pad98)"))
    (pad 97 smd rect (at -4.500001 -7.75 90) (size 1.1938 0.3048) (layers F.Cu F.Paste F.Mask)
      (net 2 "Net-(U1-Pad97)"))
    (pad 96 smd rect (at -4 -7.75 90) (size 1.1938 0.3048) (layers F.Cu F.Paste F.Mask)
      (net 3 "Net-(U1-Pad96)"))
    (pad 95 smd rect (at -3.500001 -7.75 90) (size 1.1938 0.3048) (layers F.Cu F.Paste F.Mask)
      (net 4 "Net-(U1-Pad95)"))
    (pad 94 smd rect (at -2.999999 -7.75 90) (size 1.1938 0.3048) (layers F.Cu F.Paste F.Mask)
      (net 5 "Net-(U1-Pad94)"))
    (pad 93 smd rect (at -2.5 -7.75 90) (size 1.1938 0.3048) (layers F.Cu F.Paste F.Mask)
      (net 6 "Net-(U1-Pad93)"))
    (pad 92 smd rect (at -2.000001 -7.75 90) (size 1.1938 0.3048) (layers F.Cu F.Paste F.Mask)
      (net 7 "Net-(U1-Pad92)"))
    (pad 91 smd rect (at -1.5 -7.75 90) (size 1.1938 0.3048) (layers F.Cu F.Paste F.Mask)
      (net 8 "Net-(U1-Pad91)"))
    (pad 90 smd rect (at -1.000001 -7.75 90) (size 1.1938 0.3048) (layers F.Cu F.Paste F.Mask)
      (net 9 "Net-(U1-Pad90)"))
    (pad 89 smd rect (at -0.499999 -7.75 90) (size 1.1938 0.3048) (layers F.Cu F.Paste F.Mask)
      (net 10 "Net-(U1-Pad89)"))
    (pad 88 smd rect (at 0 -7.75 90) (size 1.1938 0.3048) (layers F.Cu F.Paste F.Mask)
      (net 11 "Net-(U1-Pad88)"))
    (pad 87 smd rect (at 0.499999 -7.75 90) (size 1.1938 0.3048) (layers F.Cu F.Paste F.Mask)
      (net 12 "Net-(U1-Pad87)"))
    (pad 86 smd rect (at 1.000001 -7.75 90) (size 1.1938 0.3048) (layers F.Cu F.Paste F.Mask)
      (net 13 "Net-(U1-Pad86)"))
    (pad 85 smd rect (at 1.5 -7.75 90) (size 1.1938 0.3048) (layers F.Cu F.Paste F.Mask)
      (net 14 "Net-(U1-Pad85)"))
    (pad 84 smd rect (at 2.000001 -7.75 90) (size 1.1938 0.3048) (layers F.Cu F.Paste F.Mask)
      (net 15 "Net-(U1-Pad84)"))
    (pad 83 smd rect (at 2.5 -7.75 90) (size 1.1938 0.3048) (layers F.Cu F.Paste F.Mask)
      (net 16 "Net-(U1-Pad83)"))
    (pad 82 smd rect (at 2.999999 -7.75 90) (size 1.1938 0.3048) (layers F.Cu F.Paste F.Mask)
      (net 17 "Net-(U1-Pad82)"))
    (pad 81 smd rect (at 3.500001 -7.75 90) (size 1.1938 0.3048) (layers F.Cu F.Paste F.Mask)
      (net 18 "Net-(U1-Pad81)"))
    (pad 80 smd rect (at 4 -7.75 90) (size 1.1938 0.3048) (layers F.Cu F.Paste F.Mask)
      (net 19 "Net-(U1-Pad80)"))
    (pad 79 smd rect (at 4.500001 -7.75 90) (size 1.1938 0.3048) (layers F.Cu F.Paste F.Mask)
      (net 20 "Net-(U1-Pad79)"))
    (pad 78 smd rect (at 5 -7.75 90) (size 1.1938 0.3048) (layers F.Cu F.Paste F.Mask)
      (net 21 "Net-(U1-Pad78)"))
    (pad 77 smd rect (at 5.499999 -7.75 90) (size 1.1938 0.3048) (layers F.Cu F.Paste F.Mask)
      (net 22 "Net-(U1-Pad77)"))
    (pad 76 smd rect (at 6.000001 -7.75 90) (size 1.1938 0.3048) (layers F.Cu F.Paste F.Mask)
      (net 23 "Net-(U1-Pad76)"))
    (pad 75 smd rect (at 7.75 -6.000001) (size 1.1938 0.3048) (layers F.Cu F.Paste F.Mask)
      (net 85 +3V3))
    (pad 74 smd rect (at 7.75 -5.499999) (size 1.1938 0.3048) (layers F.Cu F.Paste F.Mask)
      (net 86 0))
    (pad 73 smd rect (at 7.75 -5) (size 1.1938 0.3048) (layers F.Cu F.Paste F.Mask)
      (net 87 "Net-(C2-Pad1)"))
    (pad 72 smd rect (at 7.75 -4.500001) (size 1.1938 0.3048) (layers F.Cu F.Paste F.Mask)
      (net 24 "Net-(U1-Pad72)"))
    (pad 71 smd rect (at 7.75 -4) (size 1.1938 0.3048) (layers F.Cu F.Paste F.Mask)
      (net 25 "Net-(U1-Pad71)"))
    (pad 70 smd rect (at 7.75 -3.500001) (size 1.1938 0.3048) (layers F.Cu F.Paste F.Mask)
      (net 26 "Net-(U1-Pad70)"))
    (pad 69 smd rect (at 7.75 -2.999999) (size 1.1938 0.3048) (layers F.Cu F.Paste F.Mask)
      (net 27 "Net-(U1-Pad69)"))
    (pad 68 smd rect (at 7.75 -2.5) (size 1.1938 0.3048) (layers F.Cu F.Paste F.Mask)
      (net 28 "Net-(U1-Pad68)"))
    (pad 67 smd rect (at 7.75 -2.000001) (size 1.1938 0.3048) (layers F.Cu F.Paste F.Mask)
      (net 29 "Net-(U1-Pad67)"))
    (pad 66 smd rect (at 7.75 -1.5) (size 1.1938 0.3048) (layers F.Cu F.Paste F.Mask)
      (net 30 "Net-(U1-Pad66)"))
    (pad 65 smd rect (at 7.75 -1.000001) (size 1.1938 0.3048) (layers F.Cu F.Paste F.Mask)
      (net 31 "Net-(U1-Pad65)"))
    (pad 64 smd rect (at 7.75 -0.499999) (size 1.1938 0.3048) (layers F.Cu F.Paste F.Mask)
      (net 32 "Net-(U1-Pad64)"))
    (pad 63 smd rect (at 7.75 0) (size 1.1938 0.3048) (layers F.Cu F.Paste F.Mask)
      (net 33 "Net-(U1-Pad63)"))
    (pad 62 smd rect (at 7.75 0.499999) (size 1.1938 0.3048) (layers F.Cu F.Paste F.Mask)
      (net 34 "Net-(U1-Pad62)"))
    (pad 61 smd rect (at 7.75 1.000001) (size 1.1938 0.3048) (layers F.Cu F.Paste F.Mask)
      (net 35 "Net-(U1-Pad61)"))
    (pad 60 smd rect (at 7.75 1.5) (size 1.1938 0.3048) (layers F.Cu F.Paste F.Mask)
      (net 36 "Net-(U1-Pad60)"))
    (pad 59 smd rect (at 7.75 2.000001) (size 1.1938 0.3048) (layers F.Cu F.Paste F.Mask)
      (net 37 "Net-(U1-Pad59)"))
    (pad 58 smd rect (at 7.75 2.5) (size 1.1938 0.3048) (layers F.Cu F.Paste F.Mask)
      (net 38 "Net-(U1-Pad58)"))
    (pad 57 smd rect (at 7.75 2.999999) (size 1.1938 0.3048) (layers F.Cu F.Paste F.Mask)
      (net 39 "Net-(U1-Pad57)"))
    (pad 56 smd rect (at 7.75 3.500001) (size 1.1938 0.3048) (layers F.Cu F.Paste F.Mask)
      (net 40 "Net-(U1-Pad56)"))
    (pad 55 smd rect (at 7.75 4) (size 1.1938 0.3048) (layers F.Cu F.Paste F.Mask)
      (net 41 "Net-(U1-Pad55)"))
    (pad 54 smd rect (at 7.75 4.500001) (size 1.1938 0.3048) (layers F.Cu F.Paste F.Mask)
      (net 42 "Net-(U1-Pad54)"))
    (pad 53 smd rect (at 7.75 5) (size 1.1938 0.3048) (layers F.Cu F.Paste F.Mask)
      (net 43 "Net-(U1-Pad53)"))
    (pad 52 smd rect (at 7.75 5.499999) (size 1.1938 0.3048) (layers F.Cu F.Paste F.Mask)
      (net 44 "Net-(U1-Pad52)"))
    (pad 51 smd rect (at 7.75 6.000001) (size 1.1938 0.3048) (layers F.Cu F.Paste F.Mask)
      (net 45 "Net-(U1-Pad51)"))
    (pad 50 smd rect (at 6.000001 7.75 90) (size 1.1938 0.3048) (layers F.Cu F.Paste F.Mask)
      (net 85 +3V3))
    (pad 49 smd rect (at 5.499999 7.75 90) (size 1.1938 0.3048) (layers F.Cu F.Paste F.Mask)
      (net 86 0))
    (pad 48 smd rect (at 5 7.75 90) (size 1.1938 0.3048) (layers F.Cu F.Paste F.Mask)
      (net 88 "Net-(C4-Pad1)"))
    (pad 47 smd rect (at 4.500001 7.75 90) (size 1.1938 0.3048) (layers F.Cu F.Paste F.Mask)
      (net 46 "Net-(U1-Pad47)"))
    (pad 46 smd rect (at 4 7.75 90) (size 1.1938 0.3048) (layers F.Cu F.Paste F.Mask)
      (net 47 "Net-(U1-Pad46)"))
    (pad 45 smd rect (at 3.500001 7.75 90) (size 1.1938 0.3048) (layers F.Cu F.Paste F.Mask)
      (net 48 "Net-(U1-Pad45)"))
    (pad 44 smd rect (at 2.999999 7.75 90) (size 1.1938 0.3048) (layers F.Cu F.Paste F.Mask)
      (net 49 "Net-(U1-Pad44)"))
    (pad 43 smd rect (at 2.5 7.75 90) (size 1.1938 0.3048) (layers F.Cu F.Paste F.Mask)
      (net 50 "Net-(U1-Pad43)"))
    (pad 42 smd rect (at 2.000001 7.75 90) (size 1.1938 0.3048) (layers F.Cu F.Paste F.Mask)
      (net 51 "Net-(U1-Pad42)"))
    (pad 41 smd rect (at 1.5 7.75 90) (size 1.1938 0.3048) (layers F.Cu F.Paste F.Mask)
      (net 52 "Net-(U1-Pad41)"))
    (pad 40 smd rect (at 1.000001 7.75 90) (size 1.1938 0.3048) (layers F.Cu F.Paste F.Mask)
      (net 53 "Net-(U1-Pad40)"))
    (pad 39 smd rect (at 0.499999 7.75 90) (size 1.1938 0.3048) (layers F.Cu F.Paste F.Mask)
      (net 54 "Net-(U1-Pad39)"))
    (pad 38 smd rect (at 0 7.75 90) (size 1.1938 0.3048) (layers F.Cu F.Paste F.Mask)
      (net 55 "Net-(U1-Pad38)"))
    (pad 37 smd rect (at -0.499999 7.75 90) (size 1.1938 0.3048) (layers F.Cu F.Paste F.Mask)
      (net 56 "Net-(U1-Pad37)"))
    (pad 36 smd rect (at -1.000001 7.75 90) (size 1.1938 0.3048) (layers F.Cu F.Paste F.Mask)
      (net 57 "Net-(U1-Pad36)"))
    (pad 35 smd rect (at -1.5 7.75 90) (size 1.1938 0.3048) (layers F.Cu F.Paste F.Mask)
      (net 58 "Net-(U1-Pad35)"))
    (pad 34 smd rect (at -2.000001 7.75 90) (size 1.1938 0.3048) (layers F.Cu F.Paste F.Mask)
      (net 59 "Net-(U1-Pad34)"))
    (pad 33 smd rect (at -2.5 7.75 90) (size 1.1938 0.3048) (layers F.Cu F.Paste F.Mask)
      (net 60 "Net-(U1-Pad33)"))
    (pad 32 smd rect (at -2.999999 7.75 90) (size 1.1938 0.3048) (layers F.Cu F.Paste F.Mask)
      (net 61 "Net-(U1-Pad32)"))
    (pad 31 smd rect (at -3.500001 7.75 90) (size 1.1938 0.3048) (layers F.Cu F.Paste F.Mask)
      (net 62 "Net-(U1-Pad31)"))
    (pad 30 smd rect (at -4 7.75 90) (size 1.1938 0.3048) (layers F.Cu F.Paste F.Mask)
      (net 63 "Net-(U1-Pad30)"))
    (pad 29 smd rect (at -4.500001 7.75 90) (size 1.1938 0.3048) (layers F.Cu F.Paste F.Mask)
      (net 64 "Net-(U1-Pad29)"))
    (pad 28 smd rect (at -5 7.75 90) (size 1.1938 0.3048) (layers F.Cu F.Paste F.Mask)
      (net 85 +3V3))
    (pad 27 smd rect (at -5.499999 7.75 90) (size 1.1938 0.3048) (layers F.Cu F.Paste F.Mask)
      (net 86 0))
    (pad 26 smd rect (at -6.000001 7.75 90) (size 1.1938 0.3048) (layers F.Cu F.Paste F.Mask)
      (net 65 "Net-(U1-Pad26)"))
    (pad 25 smd rect (at -7.75 6.000001) (size 1.1938 0.3048) (layers F.Cu F.Paste F.Mask)
      (net 66 "Net-(U1-Pad25)"))
    (pad 24 smd rect (at -7.75 5.499999) (size 1.1938 0.3048) (layers F.Cu F.Paste F.Mask)
      (net 67 "Net-(U1-Pad24)"))
    (pad 23 smd rect (at -7.75 5) (size 1.1938 0.3048) (layers F.Cu F.Paste F.Mask)
      (net 68 "Net-(U1-Pad23)"))
    (pad 22 smd rect (at -7.75 4.499999) (size 1.1938 0.3048) (layers F.Cu F.Paste F.Mask)
      (net 89 "Net-(C3-Pad1)"))
    (pad 21 smd rect (at -7.75 4) (size 1.1938 0.3048) (layers F.Cu F.Paste F.Mask)
      (net 69 "Net-(U1-Pad21)"))
    (pad 20 smd rect (at -7.75 3.500001) (size 1.1938 0.3048) (layers F.Cu F.Paste F.Mask)
      (net 86 0))
    (pad 19 smd rect (at -7.75 2.999999) (size 1.1938 0.3048) (layers F.Cu F.Paste F.Mask)
      (net 85 +3V3))
    (pad 18 smd rect (at -7.75 2.5) (size 1.1938 0.3048) (layers F.Cu F.Paste F.Mask)
      (net 70 "Net-(U1-Pad18)"))
    (pad 17 smd rect (at -7.75 1.999999) (size 1.1938 0.3048) (layers F.Cu F.Paste F.Mask)
      (net 71 "Net-(U1-Pad17)"))
    (pad 16 smd rect (at -7.75 1.5) (size 1.1938 0.3048) (layers F.Cu F.Paste F.Mask)
      (net 72 "Net-(U1-Pad16)"))
    (pad 15 smd rect (at -7.75 1.000001) (size 1.1938 0.3048) (layers F.Cu F.Paste F.Mask)
      (net 73 "Net-(U1-Pad15)"))
    (pad 14 smd rect (at -7.75 0.499999) (size 1.1938 0.3048) (layers F.Cu F.Paste F.Mask)
      (net 74 "Net-(U1-Pad14)"))
    (pad 13 smd rect (at -7.75 0) (size 1.1938 0.3048) (layers F.Cu F.Paste F.Mask)
      (net 75 "Net-(U1-Pad13)"))
    (pad 12 smd rect (at -7.75 -0.500002) (size 1.1938 0.3048) (layers F.Cu F.Paste F.Mask)
      (net 76 "Net-(U1-Pad12)"))
    (pad 11 smd rect (at -7.75 -1.000001) (size 1.1938 0.3048) (layers F.Cu F.Paste F.Mask)
      (net 85 +3V3))
    (pad 10 smd rect (at -7.75 -1.5) (size 1.1938 0.3048) (layers F.Cu F.Paste F.Mask)
      (net 86 0))
    (pad 9 smd rect (at -7.75 -2.000001) (size 1.1938 0.3048) (layers F.Cu F.Paste F.Mask)
      (net 77 "Net-(U1-Pad9)"))
    (pad 8 smd rect (at -7.75 -2.5) (size 1.1938 0.3048) (layers F.Cu F.Paste F.Mask)
      (net 78 "Net-(U1-Pad8)"))
    (pad 7 smd rect (at -7.75 -2.999999) (size 1.1938 0.3048) (layers F.Cu F.Paste F.Mask)
      (net 79 "Net-(U1-Pad7)"))
    (pad 6 smd rect (at -7.75 -3.500001) (size 1.1938 0.3048) (layers F.Cu F.Paste F.Mask)
      (net 90 "Net-(C1-Pad1)"))
    (pad 5 smd rect (at -7.75 -4) (size 1.1938 0.3048) (layers F.Cu F.Paste F.Mask)
      (net 80 "Net-(U1-Pad5)"))
    (pad 4 smd rect (at -7.75 -4.500001) (size 1.1938 0.3048) (layers F.Cu F.Paste F.Mask)
      (net 81 "Net-(U1-Pad4)"))
    (pad 3 smd rect (at -7.75 -5) (size 1.1938 0.3048) (layers F.Cu F.Paste F.Mask)
      (net 82 "Net-(U1-Pad3)"))
    (pad 2 smd rect (at -7.75 -5.499999) (size 1.1938 0.3048) (layers F.Cu F.Paste F.Mask)
      (net 83 "Net-(U1-Pad2)"))
    (pad 1 smd rect (at -7.75 -6.000001) (size 1.1938 0.3048) (layers F.Cu F.Paste F.Mask)
      (net 84 "Net-(U1-Pad1)"))
  )

  (gr_circle (center 164.084 79.756) (end 164.084 129.756) (layer Dwgs.User) (width 0.15))
  (gr_line (start 164.084 79.756) (end 214.059328 81.326538) (layer Dwgs.User) (width 0.15))
  (gr_line (start 164.084 79.756) (end 213.862098 84.461416) (layer Dwgs.User) (width 0.15))
  (gr_line (start 164.084 79.756) (end 213.468417 87.577723) (layer Dwgs.User) (width 0.15))
  (gr_line (start 164.084 79.756) (end 212.879838 90.663162) (layer Dwgs.User) (width 0.15))
  (gr_line (start 164.084 79.756) (end 212.098684 93.705555) (layer Dwgs.User) (width 0.15))
  (gr_line (start 164.084 79.756) (end 211.128038 96.692896) (layer Dwgs.User) (width 0.15))
  (gr_line (start 164.084 79.756) (end 209.971731 99.613395) (layer Dwgs.User) (width 0.15))
  (gr_line (start 164.084 79.756) (end 208.634326 102.455525) (layer Dwgs.User) (width 0.15))
  (gr_line (start 164.084 79.756) (end 207.121101 105.208071) (layer Dwgs.User) (width 0.15))
  (gr_line (start 164.084 79.756) (end 205.438029 107.860169) (layer Dwgs.User) (width 0.15))
  (gr_line (start 164.084 79.756) (end 203.591751 110.401353) (layer Dwgs.User) (width 0.15))
  (gr_line (start 164.084 79.756) (end 201.589553 112.821593) (layer Dwgs.User) (width 0.15))
  (gr_line (start 164.084 79.756) (end 199.439339 115.111339) (layer Dwgs.User) (width 0.15))
  (gr_line (start 164.084 79.756) (end 197.149593 117.261553) (layer Dwgs.User) (width 0.15))
  (gr_line (start 164.084 79.756) (end 194.729353 119.263751) (layer Dwgs.User) (width 0.15))
  (gr_line (start 164.084 79.756) (end 192.188169 121.110029) (layer Dwgs.User) (width 0.15))
  (gr_line (start 164.084 79.756) (end 189.536071 122.793101) (layer Dwgs.User) (width 0.15))
  (gr_line (start 164.084 79.756) (end 186.783525 124.306326) (layer Dwgs.User) (width 0.15))
  (gr_line (start 164.084 79.756) (end 183.941395 125.643731) (layer Dwgs.User) (width 0.15))
  (gr_line (start 164.084 79.756) (end 181.020896 126.800038) (layer Dwgs.User) (width 0.15))
  (gr_line (start 164.084 79.756) (end 178.033555 127.770684) (layer Dwgs.User) (width 0.15))
  (gr_line (start 164.084 79.756) (end 174.991162 128.551838) (layer Dwgs.User) (width 0.15))
  (gr_line (start 164.084 79.756) (end 171.905723 129.140417) (layer Dwgs.User) (width 0.15))
  (gr_line (start 164.084 79.756) (end 168.789416 129.534098) (layer Dwgs.User) (width 0.15))
  (gr_line (start 164.084 79.756) (end 165.654538 129.731328) (layer Dwgs.User) (width 0.15))
  (gr_line (start 164.084 79.756) (end 162.513462 129.731328) (layer Dwgs.User) (width 0.15))
  (gr_line (start 164.084 79.756) (end 159.378584 129.534098) (layer Dwgs.User) (width 0.15))
  (gr_line (start 164.084 79.756) (end 156.262277 129.140417) (layer Dwgs.User) (width 0.15))
  (gr_line (start 164.084 79.756) (end 153.176838 128.551838) (layer Dwgs.User) (width 0.15))
  (gr_line (start 164.084 79.756) (end 150.134445 127.770684) (layer Dwgs.User) (width 0.15))
  (gr_line (start 164.084 79.756) (end 147.147104 126.800038) (layer Dwgs.User) (width 0.15))
  (gr_line (start 164.084 79.756) (end 144.226605 125.643731) (layer Dwgs.User) (width 0.15))
  (gr_line (start 164.084 79.756) (end 141.384475 124.306326) (layer Dwgs.User) (width 0.15))
  (gr_line (start 164.084 79.756) (end 138.631929 122.793101) (layer Dwgs.User) (width 0.15))
  (gr_line (start 164.084 79.756) (end 135.979831 121.110029) (layer Dwgs.User) (width 0.15))
  (gr_line (start 164.084 79.756) (end 133.438647 119.263751) (layer Dwgs.User) (width 0.15))
  (gr_line (start 164.084 79.756) (end 131.018407 117.261553) (layer Dwgs.User) (width 0.15))
  (gr_line (start 164.084 79.756) (end 128.728661 115.111339) (layer Dwgs.User) (width 0.15))
  (gr_line (start 164.084 79.756) (end 126.578447 112.821593) (layer Dwgs.User) (width 0.15))
  (gr_line (start 164.084 79.756) (end 124.576249 110.401353) (layer Dwgs.User) (width 0.15))
  (gr_line (start 164.084 79.756) (end 122.729971 107.860169) (layer Dwgs.User) (width 0.15))
  (gr_line (start 164.084 79.756) (end 121.046899 105.208071) (layer Dwgs.User) (width 0.15))
  (gr_line (start 164.084 79.756) (end 119.533674 102.455525) (layer Dwgs.User) (width 0.15))
  (gr_line (start 164.084 79.756) (end 118.196269 99.613395) (layer Dwgs.User) (width 0.15))
  (gr_line (start 164.084 79.756) (end 117.039962 96.692896) (layer Dwgs.User) (width 0.15))
  (gr_line (start 164.084 79.756) (end 116.069316 93.705555) (layer Dwgs.User) (width 0.15))
  (gr_line (start 164.084 79.756) (end 115.288162 90.663162) (layer Dwgs.User) (width 0.15))
  (gr_line (start 164.084 79.756) (end 114.699583 87.577723) (layer Dwgs.User) (width 0.15))
  (gr_line (start 164.084 79.756) (end 114.305902 84.461416) (layer Dwgs.User) (width 0.15))
  (gr_line (start 164.084 79.756) (end 114.108672 81.326538) (layer Dwgs.User) (width 0.15))
  (gr_line (start 164.084 79.756) (end 114.108672 78.185462) (layer Dwgs.User) (width 0.15))
  (gr_line (start 164.084 79.756) (end 114.305902 75.050584) (layer Dwgs.User) (width 0.15))
  (gr_line (start 164.084 79.756) (end 114.699583 71.934277) (layer Dwgs.User) (width 0.15))
  (gr_line (start 164.084 79.756) (end 115.288162 68.848838) (layer Dwgs.User) (width 0.15))
  (gr_line (start 164.084 79.756) (end 116.069316 65.806445) (layer Dwgs.User) (width 0.15))
  (gr_line (start 164.084 79.756) (end 117.039962 62.819104) (layer Dwgs.User) (width 0.15))
  (gr_line (start 164.084 79.756) (end 118.196269 59.898605) (layer Dwgs.User) (width 0.15))
  (gr_line (start 164.084 79.756) (end 119.533674 57.056475) (layer Dwgs.User) (width 0.15))
  (gr_line (start 164.084 79.756) (end 121.046899 54.303929) (layer Dwgs.User) (width 0.15))
  (gr_line (start 164.084 79.756) (end 122.729971 51.651831) (layer Dwgs.User) (width 0.15))
  (gr_line (start 164.084 79.756) (end 124.576249 49.110647) (layer Dwgs.User) (width 0.15))
  (gr_line (start 164.084 79.756) (end 126.578447 46.690407) (layer Dwgs.User) (width 0.15))
  (gr_line (start 164.084 79.756) (end 128.728661 44.400661) (layer Dwgs.User) (width 0.15))
  (gr_line (start 164.084 79.756) (end 131.018407 42.250447) (layer Dwgs.User) (width 0.15))
  (gr_line (start 164.084 79.756) (end 133.438647 40.248249) (layer Dwgs.User) (width 0.15))
  (gr_line (start 164.084 79.756) (end 135.979831 38.401971) (layer Dwgs.User) (width 0.15))
  (gr_line (start 164.084 79.756) (end 138.631929 36.718899) (layer Dwgs.User) (width 0.15))
  (gr_line (start 164.084 79.756) (end 141.384475 35.205674) (layer Dwgs.User) (width 0.15))
  (gr_line (start 164.084 79.756) (end 144.226605 33.868269) (layer Dwgs.User) (width 0.15))
  (gr_line (start 164.084 79.756) (end 147.147104 32.711962) (layer Dwgs.User) (width 0.15))
  (gr_line (start 164.084 79.756) (end 150.134445 31.741316) (layer Dwgs.User) (width 0.15))
  (gr_line (start 164.084 79.756) (end 153.176838 30.960162) (layer Dwgs.User) (width 0.15))
  (gr_line (start 164.084 79.756) (end 156.262277 30.371583) (layer Dwgs.User) (width 0.15))
  (gr_line (start 164.084 79.756) (end 159.378584 29.977902) (layer Dwgs.User) (width 0.15))
  (gr_line (start 164.084 79.756) (end 162.513462 29.780672) (layer Dwgs.User) (width 0.15))
  (gr_line (start 164.084 79.756) (end 165.654538 29.780672) (layer Dwgs.User) (width 0.15))
  (gr_line (start 164.084 79.756) (end 168.789416 29.977902) (layer Dwgs.User) (width 0.15))
  (gr_line (start 164.084 79.756) (end 171.905723 30.371583) (layer Dwgs.User) (width 0.15))
  (gr_line (start 164.084 79.756) (end 174.991162 30.960162) (layer Dwgs.User) (width 0.15))
  (gr_line (start 164.084 79.756) (end 178.033555 31.741316) (layer Dwgs.User) (width 0.15))
  (gr_line (start 164.084 79.756) (end 181.020896 32.711962) (layer Dwgs.User) (width 0.15))
  (gr_line (start 164.084 79.756) (end 183.941395 33.868269) (layer Dwgs.User) (width 0.15))
  (gr_line (start 164.084 79.756) (end 186.783525 35.205674) (layer Dwgs.User) (width 0.15))
  (gr_line (start 164.084 79.756) (end 189.536071 36.718899) (layer Dwgs.User) (width 0.15))
  (gr_line (start 164.084 79.756) (end 192.188169 38.401971) (layer Dwgs.User) (width 0.15))
  (gr_line (start 164.084 79.756) (end 194.729353 40.248249) (layer Dwgs.User) (width 0.15))
  (gr_line (start 164.084 79.756) (end 197.149593 42.250447) (layer Dwgs.User) (width 0.15))
  (gr_line (start 164.084 79.756) (end 199.439339 44.400661) (layer Dwgs.User) (width 0.15))
  (gr_line (start 164.084 79.756) (end 201.589553 46.690407) (layer Dwgs.User) (width 0.15))
  (gr_line (start 164.084 79.756) (end 203.591751 49.110647) (layer Dwgs.User) (width 0.15))
  (gr_line (start 164.084 79.756) (end 205.438029 51.651831) (layer Dwgs.User) (width 0.15))
  (gr_line (start 164.084 79.756) (end 207.121101 54.303929) (layer Dwgs.User) (width 0.15))
  (gr_line (start 164.084 79.756) (end 208.634326 57.056475) (layer Dwgs.User) (width 0.15))
  (gr_line (start 164.084 79.756) (end 209.971731 59.898605) (layer Dwgs.User) (width 0.15))
  (gr_line (start 164.084 79.756) (end 211.128038 62.819104) (layer Dwgs.User) (width 0.15))
  (gr_line (start 164.084 79.756) (end 212.098684 65.806445) (layer Dwgs.User) (width 0.15))
  (gr_line (start 164.084 79.756) (end 212.879838 68.848838) (layer Dwgs.User) (width 0.15))
  (gr_line (start 164.084 79.756) (end 213.468417 71.934277) (layer Dwgs.User) (width 0.15))
  (gr_line (start 164.084 79.756) (end 213.862098 75.050584) (layer Dwgs.User) (width 0.15))
  (gr_line (start 164.084 79.756) (end 214.059328 78.185462) (layer Dwgs.User) (width 0.15))
  (gr_text 1 (at 138.570098 55.796851) (layer Dwgs.User)
    (effects (font (size 1.5 1.5) (thickness 0.3)))
  )
  (gr_text 2 (at 137.116037 57.44616) (layer Dwgs.User)
    (effects (font (size 1.5 1.5) (thickness 0.3)))
  )
  (gr_text 3 (at 135.768405 59.183516) (layer Dwgs.User)
    (effects (font (size 1.5 1.5) (thickness 0.3)))
  )
  (gr_text 4 (at 134.532523 61.002062) (layer Dwgs.User)
    (effects (font (size 1.5 1.5) (thickness 0.3)))
  )
  (gr_text 5 (at 133.413266 62.894621) (layer Dwgs.User)
    (effects (font (size 1.5 1.5) (thickness 0.3)))
  )
  (gr_text 6 (at 132.415053 64.853725) (layer Dwgs.User)
    (effects (font (size 1.5 1.5) (thickness 0.3)))
  )
  (gr_text 7 (at 131.541823 66.871641) (layer Dwgs.User)
    (effects (font (size 1.5 1.5) (thickness 0.3)))
  )
  (gr_text 8 (at 130.797022 68.940405) (layer Dwgs.User)
    (effects (font (size 1.5 1.5) (thickness 0.3)))
  )
  (gr_text 9 (at 130.183589 71.051854) (layer Dwgs.User)
    (effects (font (size 1.5 1.5) (thickness 0.3)))
  )
  (gr_text 10 (at 129.703946 73.197654) (layer Dwgs.User)
    (effects (font (size 1.5 1.5) (thickness 0.3)))
  )
  (gr_text 11 (at 129.359985 75.369337) (layer Dwgs.User)
    (effects (font (size 1.5 1.5) (thickness 0.3)))
  )
  (gr_text 12 (at 129.153065 77.558332) (layer Dwgs.User)
    (effects (font (size 1.5 1.5) (thickness 0.3)))
  )
  (gr_text 13 (at 129.084 79.756) (layer Dwgs.User)
    (effects (font (size 1.5 1.5) (thickness 0.3)))
  )
  (gr_text 14 (at 129.153065 81.953668) (layer Dwgs.User)
    (effects (font (size 1.5 1.5) (thickness 0.3)))
  )
  (gr_text 15 (at 129.359985 84.142663) (layer Dwgs.User)
    (effects (font (size 1.5 1.5) (thickness 0.3)))
  )
  (gr_text 16 (at 129.703946 86.314346) (layer Dwgs.User)
    (effects (font (size 1.5 1.5) (thickness 0.3)))
  )
  (gr_text 17 (at 130.183589 88.460146) (layer Dwgs.User)
    (effects (font (size 1.5 1.5) (thickness 0.3)))
  )
  (gr_text 18 (at 130.797022 90.571595) (layer Dwgs.User)
    (effects (font (size 1.5 1.5) (thickness 0.3)))
  )
  (gr_text 19 (at 131.541823 92.640359) (layer Dwgs.User)
    (effects (font (size 1.5 1.5) (thickness 0.3)))
  )
  (gr_text 20 (at 132.415053 94.658275) (layer Dwgs.User)
    (effects (font (size 1.5 1.5) (thickness 0.3)))
  )
  (gr_text 21 (at 133.413266 96.617379) (layer Dwgs.User)
    (effects (font (size 1.5 1.5) (thickness 0.3)))
  )
  (gr_text 22 (at 134.532523 98.509938) (layer Dwgs.User)
    (effects (font (size 1.5 1.5) (thickness 0.3)))
  )
  (gr_text 23 (at 135.768405 100.328484) (layer Dwgs.User)
    (effects (font (size 1.5 1.5) (thickness 0.3)))
  )
  (gr_text 24 (at 137.116037 102.06584) (layer Dwgs.User)
    (effects (font (size 1.5 1.5) (thickness 0.3)))
  )
  (gr_text 25 (at 138.570098 103.715149) (layer Dwgs.User)
    (effects (font (size 1.5 1.5) (thickness 0.3)))
  )
  (gr_text 26 (at 140.124851 105.269902) (layer Dwgs.User)
    (effects (font (size 1.5 1.5) (thickness 0.3)))
  )
  (gr_text 27 (at 141.77416 106.723963) (layer Dwgs.User)
    (effects (font (size 1.5 1.5) (thickness 0.3)))
  )
  (gr_text 28 (at 143.511516 108.071595) (layer Dwgs.User)
    (effects (font (size 1.5 1.5) (thickness 0.3)))
  )
  (gr_text 29 (at 145.330062 109.307477) (layer Dwgs.User)
    (effects (font (size 1.5 1.5) (thickness 0.3)))
  )
  (gr_text 30 (at 147.222621 110.426734) (layer Dwgs.User)
    (effects (font (size 1.5 1.5) (thickness 0.3)))
  )
  (gr_text 31 (at 149.181725 111.424947) (layer Dwgs.User)
    (effects (font (size 1.5 1.5) (thickness 0.3)))
  )
  (gr_text 32 (at 151.199641 112.298177) (layer Dwgs.User)
    (effects (font (size 1.5 1.5) (thickness 0.3)))
  )
  (gr_text 33 (at 153.268405 113.042978) (layer Dwgs.User)
    (effects (font (size 1.5 1.5) (thickness 0.3)))
  )
  (gr_text 34 (at 155.379854 113.656411) (layer Dwgs.User)
    (effects (font (size 1.5 1.5) (thickness 0.3)))
  )
  (gr_text 35 (at 157.525654 114.136054) (layer Dwgs.User)
    (effects (font (size 1.5 1.5) (thickness 0.3)))
  )
  (gr_text 36 (at 159.697337 114.480015) (layer Dwgs.User)
    (effects (font (size 1.5 1.5) (thickness 0.3)))
  )
  (gr_text 37 (at 161.886332 114.686935) (layer Dwgs.User)
    (effects (font (size 1.5 1.5) (thickness 0.3)))
  )
  (gr_text 38 (at 164.084 114.756) (layer Dwgs.User)
    (effects (font (size 1.5 1.5) (thickness 0.3)))
  )
  (gr_text 39 (at 166.281668 114.686935) (layer Dwgs.User)
    (effects (font (size 1.5 1.5) (thickness 0.3)))
  )
  (gr_text 40 (at 168.470663 114.480015) (layer Dwgs.User)
    (effects (font (size 1.5 1.5) (thickness 0.3)))
  )
  (gr_text 41 (at 170.642346 114.136054) (layer Dwgs.User)
    (effects (font (size 1.5 1.5) (thickness 0.3)))
  )
  (gr_text 42 (at 172.788146 113.656411) (layer Dwgs.User)
    (effects (font (size 1.5 1.5) (thickness 0.3)))
  )
  (gr_text 43 (at 174.899595 113.042978) (layer Dwgs.User)
    (effects (font (size 1.5 1.5) (thickness 0.3)))
  )
  (gr_text 44 (at 176.968359 112.298177) (layer Dwgs.User)
    (effects (font (size 1.5 1.5) (thickness 0.3)))
  )
  (gr_text 45 (at 178.986275 111.424947) (layer Dwgs.User)
    (effects (font (size 1.5 1.5) (thickness 0.3)))
  )
  (gr_text 46 (at 180.945379 110.426734) (layer Dwgs.User)
    (effects (font (size 1.5 1.5) (thickness 0.3)))
  )
  (gr_text 47 (at 182.837938 109.307477) (layer Dwgs.User)
    (effects (font (size 1.5 1.5) (thickness 0.3)))
  )
  (gr_text 48 (at 184.656484 108.071595) (layer Dwgs.User)
    (effects (font (size 1.5 1.5) (thickness 0.3)))
  )
  (gr_text 49 (at 186.39384 106.723963) (layer Dwgs.User)
    (effects (font (size 1.5 1.5) (thickness 0.3)))
  )
  (gr_text 50 (at 188.043149 105.269902) (layer Dwgs.User)
    (effects (font (size 1.5 1.5) (thickness 0.3)))
  )
  (gr_text 51 (at 189.597902 103.715149) (layer Dwgs.User)
    (effects (font (size 1.5 1.5) (thickness 0.3)))
  )
  (gr_text 52 (at 191.051963 102.06584) (layer Dwgs.User)
    (effects (font (size 1.5 1.5) (thickness 0.3)))
  )
  (gr_text 53 (at 192.399595 100.328484) (layer Dwgs.User)
    (effects (font (size 1.5 1.5) (thickness 0.3)))
  )
  (gr_text 54 (at 193.635477 98.509938) (layer Dwgs.User)
    (effects (font (size 1.5 1.5) (thickness 0.3)))
  )
  (gr_text 55 (at 194.754734 96.617379) (layer Dwgs.User)
    (effects (font (size 1.5 1.5) (thickness 0.3)))
  )
  (gr_text 56 (at 195.752947 94.658275) (layer Dwgs.User)
    (effects (font (size 1.5 1.5) (thickness 0.3)))
  )
  (gr_text 57 (at 196.626177 92.640359) (layer Dwgs.User)
    (effects (font (size 1.5 1.5) (thickness 0.3)))
  )
  (gr_text 58 (at 197.370978 90.571595) (layer Dwgs.User)
    (effects (font (size 1.5 1.5) (thickness 0.3)))
  )
  (gr_text 59 (at 197.984411 88.460146) (layer Dwgs.User)
    (effects (font (size 1.5 1.5) (thickness 0.3)))
  )
  (gr_text 60 (at 198.464054 86.314346) (layer Dwgs.User)
    (effects (font (size 1.5 1.5) (thickness 0.3)))
  )
  (gr_text 61 (at 198.808015 84.142663) (layer Dwgs.User)
    (effects (font (size 1.5 1.5) (thickness 0.3)))
  )
  (gr_text 62 (at 199.014935 81.953668) (layer Dwgs.User)
    (effects (font (size 1.5 1.5) (thickness 0.3)))
  )
  (gr_text 63 (at 199.084 79.756) (layer Dwgs.User)
    (effects (font (size 1.5 1.5) (thickness 0.3)))
  )
  (gr_text 64 (at 199.014935 77.558332) (layer Dwgs.User)
    (effects (font (size 1.5 1.5) (thickness 0.3)))
  )
  (gr_text 65 (at 198.808015 75.369337) (layer Dwgs.User)
    (effects (font (size 1.5 1.5) (thickness 0.3)))
  )
  (gr_text 66 (at 198.464054 73.197654) (layer Dwgs.User)
    (effects (font (size 1.5 1.5) (thickness 0.3)))
  )
  (gr_text 67 (at 197.984411 71.051854) (layer Dwgs.User)
    (effects (font (size 1.5 1.5) (thickness 0.3)))
  )
  (gr_text 68 (at 197.370978 68.940405) (layer Dwgs.User)
    (effects (font (size 1.5 1.5) (thickness 0.3)))
  )
  (gr_text 69 (at 196.626177 66.871641) (layer Dwgs.User)
    (effects (font (size 1.5 1.5) (thickness 0.3)))
  )
  (gr_text 70 (at 195.752947 64.853725) (layer Dwgs.User)
    (effects (font (size 1.5 1.5) (thickness 0.3)))
  )
  (gr_text 71 (at 194.754734 62.894621) (layer Dwgs.User)
    (effects (font (size 1.5 1.5) (thickness 0.3)))
  )
  (gr_text 72 (at 193.635477 61.002062) (layer Dwgs.User)
    (effects (font (size 1.5 1.5) (thickness 0.3)))
  )
  (gr_text 73 (at 192.399595 59.183516) (layer Dwgs.User)
    (effects (font (size 1.5 1.5) (thickness 0.3)))
  )
  (gr_text 74 (at 191.051963 57.44616) (layer Dwgs.User)
    (effects (font (size 1.5 1.5) (thickness 0.3)))
  )
  (gr_text 75 (at 189.597902 55.796851) (layer Dwgs.User)
    (effects (font (size 1.5 1.5) (thickness 0.3)))
  )
  (gr_text 76 (at 188.043149 54.242098) (layer Dwgs.User)
    (effects (font (size 1.5 1.5) (thickness 0.3)))
  )
  (gr_text 77 (at 186.39384 52.788037) (layer Dwgs.User)
    (effects (font (size 1.5 1.5) (thickness 0.3)))
  )
  (gr_text 78 (at 184.656484 51.440405) (layer Dwgs.User)
    (effects (font (size 1.5 1.5) (thickness 0.3)))
  )
  (gr_text 79 (at 182.837938 50.204523) (layer Dwgs.User)
    (effects (font (size 1.5 1.5) (thickness 0.3)))
  )
  (gr_text 80 (at 180.945379 49.085266) (layer Dwgs.User)
    (effects (font (size 1.5 1.5) (thickness 0.3)))
  )
  (gr_text 81 (at 178.986275 48.087053) (layer Dwgs.User)
    (effects (font (size 1.5 1.5) (thickness 0.3)))
  )
  (gr_text 82 (at 176.968359 47.213823) (layer Dwgs.User)
    (effects (font (size 1.5 1.5) (thickness 0.3)))
  )
  (gr_text 83 (at 174.899595 46.469022) (layer Dwgs.User)
    (effects (font (size 1.5 1.5) (thickness 0.3)))
  )
  (gr_text 84 (at 172.788146 45.855589) (layer Dwgs.User)
    (effects (font (size 1.5 1.5) (thickness 0.3)))
  )
  (gr_text 85 (at 170.642346 45.375946) (layer Dwgs.User)
    (effects (font (size 1.5 1.5) (thickness 0.3)))
  )
  (gr_text 86 (at 168.470663 45.031985) (layer Dwgs.User)
    (effects (font (size 1.5 1.5) (thickness 0.3)))
  )
  (gr_text 87 (at 166.281668 44.825065) (layer Dwgs.User)
    (effects (font (size 1.5 1.5) (thickness 0.3)))
  )
  (gr_text 88 (at 164.084 44.756) (layer Dwgs.User)
    (effects (font (size 1.5 1.5) (thickness 0.3)))
  )
  (gr_text 89 (at 161.886332 44.825065) (layer Dwgs.User)
    (effects (font (size 1.5 1.5) (thickness 0.3)))
  )
  (gr_text 90 (at 159.697337 45.031985) (layer Dwgs.User)
    (effects (font (size 1.5 1.5) (thickness 0.3)))
  )
  (gr_text 91 (at 157.525654 45.375946) (layer Dwgs.User)
    (effects (font (size 1.5 1.5) (thickness 0.3)))
  )
  (gr_text 92 (at 155.379854 45.855589) (layer Dwgs.User)
    (effects (font (size 1.5 1.5) (thickness 0.3)))
  )
  (gr_text 93 (at 153.268405 46.469022) (layer Dwgs.User)
    (effects (font (size 1.5 1.5) (thickness 0.3)))
  )
  (gr_text 94 (at 151.199641 47.213823) (layer Dwgs.User)
    (effects (font (size 1.5 1.5) (thickness 0.3)))
  )
  (gr_text 95 (at 149.181725 48.087053) (layer Dwgs.User)
    (effects (font (size 1.5 1.5) (thickness 0.3)))
  )
  (gr_text 96 (at 147.222621 49.085266) (layer Dwgs.User)
    (effects (font (size 1.5 1.5) (thickness 0.3)))
  )
  (gr_text 97 (at 145.330062 50.204523) (layer Dwgs.User)
    (effects (font (size 1.5 1.5) (thickness 0.3)))
  )
  (gr_text 98 (at 143.511516 51.440405) (layer Dwgs.User)
    (effects (font (size 1.5 1.5) (thickness 0.3)))
  )
  (gr_text 99 (at 141.77416 52.788037) (layer Dwgs.User)
    (effects (font (size 1.5 1.5) (thickness 0.3)))
  )
  (gr_text 100 (at 140.124851 54.242098) (layer Dwgs.User)
    (effects (font (size 1.5 1.5) (thickness 0.3)))
  )
  (gr_text 180.0 (at 204.084 79.756) (layer Dwgs.User)
    (effects (font (size 0.8 0.8) (thickness 0.15)))
  )
  (gr_text 176.4 (at 204.005069 82.267621) (layer Dwgs.User)
    (effects (font (size 0.8 0.8) (thickness 0.15)))
  )
  (gr_text 172.8 (at 203.768588 84.769329) (layer Dwgs.User)
    (effects (font (size 0.8 0.8) (thickness 0.15)))
  )
  (gr_text 169.2 (at 203.37549 87.251253) (layer Dwgs.User)
    (effects (font (size 0.8 0.8) (thickness 0.15)))
  )
  (gr_text 165.6 (at 202.827326 89.703595) (layer Dwgs.User)
    (effects (font (size 0.8 0.8) (thickness 0.15)))
  )
  (gr_text 162.0 (at 202.126261 92.11668) (layer Dwgs.User)
    (effects (font (size 0.8 0.8) (thickness 0.15)))
  )
  (gr_text 158.4 (at 201.275059 94.480982) (layer Dwgs.User)
    (effects (font (size 0.8 0.8) (thickness 0.15)))
  )
  (gr_text 154.8 (at 200.277082 96.787172) (layer Dwgs.User)
    (effects (font (size 0.8 0.8) (thickness 0.15)))
  )
  (gr_text 151.2 (at 199.136267 99.026147) (layer Dwgs.User)
    (effects (font (size 0.8 0.8) (thickness 0.15)))
  )
  (gr_text 147.6 (at 197.857117 101.189072) (layer Dwgs.User)
    (effects (font (size 0.8 0.8) (thickness 0.15)))
  )
  (gr_text 144.0 (at 196.44468 103.26741) (layer Dwgs.User)
    (effects (font (size 0.8 0.8) (thickness 0.15)))
  )
  (gr_text 140.4 (at 194.90453 105.25296) (layer Dwgs.User)
    (effects (font (size 0.8 0.8) (thickness 0.15)))
  )
  (gr_text 136.8 (at 193.242745 107.137884) (layer Dwgs.User)
    (effects (font (size 0.8 0.8) (thickness 0.15)))
  )
  (gr_text 133.2 (at 191.465884 108.914745) (layer Dwgs.User)
    (effects (font (size 0.8 0.8) (thickness 0.15)))
  )
  (gr_text 129.6 (at 189.58096 110.57653) (layer Dwgs.User)
    (effects (font (size 0.8 0.8) (thickness 0.15)))
  )
  (gr_text 126.0 (at 187.59541 112.11668) (layer Dwgs.User)
    (effects (font (size 0.8 0.8) (thickness 0.15)))
  )
  (gr_text 122.4 (at 185.517072 113.529117) (layer Dwgs.User)
    (effects (font (size 0.8 0.8) (thickness 0.15)))
  )
  (gr_text 118.8 (at 183.354147 114.808267) (layer Dwgs.User)
    (effects (font (size 0.8 0.8) (thickness 0.15)))
  )
  (gr_text 115.2 (at 181.115172 115.949082) (layer Dwgs.User)
    (effects (font (size 0.8 0.8) (thickness 0.15)))
  )
  (gr_text 111.6 (at 178.808982 116.947059) (layer Dwgs.User)
    (effects (font (size 0.8 0.8) (thickness 0.15)))
  )
  (gr_text 108.0 (at 176.44468 117.798261) (layer Dwgs.User)
    (effects (font (size 0.8 0.8) (thickness 0.15)))
  )
  (gr_text 104.4 (at 174.031595 118.499326) (layer Dwgs.User)
    (effects (font (size 0.8 0.8) (thickness 0.15)))
  )
  (gr_text 100.8 (at 171.579253 119.04749) (layer Dwgs.User)
    (effects (font (size 0.8 0.8) (thickness 0.15)))
  )
  (gr_text 97.2 (at 169.097329 119.440588) (layer Dwgs.User)
    (effects (font (size 0.8 0.8) (thickness 0.15)))
  )
  (gr_text 93.6 (at 166.595621 119.677069) (layer Dwgs.User)
    (effects (font (size 0.8 0.8) (thickness 0.15)))
  )
  (gr_text 90.0 (at 164.084 119.756) (layer Dwgs.User)
    (effects (font (size 0.8 0.8) (thickness 0.15)))
  )
  (gr_text 86.4 (at 161.572379 119.677069) (layer Dwgs.User)
    (effects (font (size 0.8 0.8) (thickness 0.15)))
  )
  (gr_text 82.8 (at 159.070671 119.440588) (layer Dwgs.User)
    (effects (font (size 0.8 0.8) (thickness 0.15)))
  )
  (gr_text 79.2 (at 156.588747 119.04749) (layer Dwgs.User)
    (effects (font (size 0.8 0.8) (thickness 0.15)))
  )
  (gr_text 75.6 (at 154.136405 118.499326) (layer Dwgs.User)
    (effects (font (size 0.8 0.8) (thickness 0.15)))
  )
  (gr_text 72.0 (at 151.72332 117.798261) (layer Dwgs.User)
    (effects (font (size 0.8 0.8) (thickness 0.15)))
  )
  (gr_text 68.4 (at 149.359018 116.947059) (layer Dwgs.User)
    (effects (font (size 0.8 0.8) (thickness 0.15)))
  )
  (gr_text 64.8 (at 147.052828 115.949082) (layer Dwgs.User)
    (effects (font (size 0.8 0.8) (thickness 0.15)))
  )
  (gr_text 61.2 (at 144.813853 114.808267) (layer Dwgs.User)
    (effects (font (size 0.8 0.8) (thickness 0.15)))
  )
  (gr_text 57.6 (at 142.650928 113.529117) (layer Dwgs.User)
    (effects (font (size 0.8 0.8) (thickness 0.15)))
  )
  (gr_text 54.0 (at 140.57259 112.11668) (layer Dwgs.User)
    (effects (font (size 0.8 0.8) (thickness 0.15)))
  )
  (gr_text 50.4 (at 138.58704 110.57653) (layer Dwgs.User)
    (effects (font (size 0.8 0.8) (thickness 0.15)))
  )
  (gr_text 46.8 (at 136.702116 108.914745) (layer Dwgs.User)
    (effects (font (size 0.8 0.8) (thickness 0.15)))
  )
  (gr_text 43.2 (at 134.925255 107.137884) (layer Dwgs.User)
    (effects (font (size 0.8 0.8) (thickness 0.15)))
  )
  (gr_text 39.6 (at 133.26347 105.25296) (layer Dwgs.User)
    (effects (font (size 0.8 0.8) (thickness 0.15)))
  )
  (gr_text 36.0 (at 131.72332 103.26741) (layer Dwgs.User)
    (effects (font (size 0.8 0.8) (thickness 0.15)))
  )
  (gr_text 32.4 (at 130.310883 101.189072) (layer Dwgs.User)
    (effects (font (size 0.8 0.8) (thickness 0.15)))
  )
  (gr_text 28.8 (at 129.031733 99.026147) (layer Dwgs.User)
    (effects (font (size 0.8 0.8) (thickness 0.15)))
  )
  (gr_text 25.2 (at 127.890918 96.787172) (layer Dwgs.User)
    (effects (font (size 0.8 0.8) (thickness 0.15)))
  )
  (gr_text 21.6 (at 126.892941 94.480982) (layer Dwgs.User)
    (effects (font (size 0.8 0.8) (thickness 0.15)))
  )
  (gr_text 18.0 (at 126.041739 92.11668) (layer Dwgs.User)
    (effects (font (size 0.8 0.8) (thickness 0.15)))
  )
  (gr_text 14.4 (at 125.340674 89.703595) (layer Dwgs.User)
    (effects (font (size 0.8 0.8) (thickness 0.15)))
  )
  (gr_text 10.8 (at 124.79251 87.251253) (layer Dwgs.User)
    (effects (font (size 0.8 0.8) (thickness 0.15)))
  )
  (gr_text 7.2 (at 124.399412 84.769329) (layer Dwgs.User)
    (effects (font (size 0.8 0.8) (thickness 0.15)))
  )
  (gr_text 3.6 (at 124.162931 82.267621) (layer Dwgs.User)
    (effects (font (size 0.8 0.8) (thickness 0.15)))
  )
  (gr_text 0.0 (at 124.084 79.756) (layer Dwgs.User)
    (effects (font (size 0.8 0.8) (thickness 0.15)))
  )
  (gr_text 356.4 (at 124.162931 77.244379) (layer Dwgs.User)
    (effects (font (size 0.8 0.8) (thickness 0.15)))
  )
  (gr_text 352.8 (at 124.399412 74.742671) (layer Dwgs.User)
    (effects (font (size 0.8 0.8) (thickness 0.15)))
  )
  (gr_text 349.2 (at 124.79251 72.260747) (layer Dwgs.User)
    (effects (font (size 0.8 0.8) (thickness 0.15)))
  )
  (gr_text 345.6 (at 125.340674 69.808405) (layer Dwgs.User)
    (effects (font (size 0.8 0.8) (thickness 0.15)))
  )
  (gr_text 342.0 (at 126.041739 67.39532) (layer Dwgs.User)
    (effects (font (size 0.8 0.8) (thickness 0.15)))
  )
  (gr_text 338.4 (at 126.892941 65.031018) (layer Dwgs.User)
    (effects (font (size 0.8 0.8) (thickness 0.15)))
  )
  (gr_text 334.8 (at 127.890918 62.724828) (layer Dwgs.User)
    (effects (font (size 0.8 0.8) (thickness 0.15)))
  )
  (gr_text 331.2 (at 129.031733 60.485853) (layer Dwgs.User)
    (effects (font (size 0.8 0.8) (thickness 0.15)))
  )
  (gr_text 327.6 (at 130.310883 58.322928) (layer Dwgs.User)
    (effects (font (size 0.8 0.8) (thickness 0.15)))
  )
  (gr_text 324.0 (at 131.72332 56.24459) (layer Dwgs.User)
    (effects (font (size 0.8 0.8) (thickness 0.15)))
  )
  (gr_text 320.4 (at 133.26347 54.25904) (layer Dwgs.User)
    (effects (font (size 0.8 0.8) (thickness 0.15)))
  )
  (gr_text 316.8 (at 134.925255 52.374116) (layer Dwgs.User)
    (effects (font (size 0.8 0.8) (thickness 0.15)))
  )
  (gr_text 313.2 (at 136.702116 50.597255) (layer Dwgs.User)
    (effects (font (size 0.8 0.8) (thickness 0.15)))
  )
  (gr_text 309.6 (at 138.58704 48.93547) (layer Dwgs.User)
    (effects (font (size 0.8 0.8) (thickness 0.15)))
  )
  (gr_text 306.0 (at 140.57259 47.39532) (layer Dwgs.User)
    (effects (font (size 0.8 0.8) (thickness 0.15)))
  )
  (gr_text 302.4 (at 142.650928 45.982883) (layer Dwgs.User)
    (effects (font (size 0.8 0.8) (thickness 0.15)))
  )
  (gr_text 298.8 (at 144.813853 44.703733) (layer Dwgs.User)
    (effects (font (size 0.8 0.8) (thickness 0.15)))
  )
  (gr_text 295.2 (at 147.052828 43.562918) (layer Dwgs.User)
    (effects (font (size 0.8 0.8) (thickness 0.15)))
  )
  (gr_text 291.6 (at 149.359018 42.564941) (layer Dwgs.User)
    (effects (font (size 0.8 0.8) (thickness 0.15)))
  )
  (gr_text 288.0 (at 151.72332 41.713739) (layer Dwgs.User)
    (effects (font (size 0.8 0.8) (thickness 0.15)))
  )
  (gr_text 284.4 (at 154.136405 41.012674) (layer Dwgs.User)
    (effects (font (size 0.8 0.8) (thickness 0.15)))
  )
  (gr_text 280.8 (at 156.588747 40.46451) (layer Dwgs.User)
    (effects (font (size 0.8 0.8) (thickness 0.15)))
  )
  (gr_text 277.2 (at 159.070671 40.071412) (layer Dwgs.User)
    (effects (font (size 0.8 0.8) (thickness 0.15)))
  )
  (gr_text 273.6 (at 161.572379 39.834931) (layer Dwgs.User)
    (effects (font (size 0.8 0.8) (thickness 0.15)))
  )
  (gr_text 270.0 (at 164.084 39.756) (layer Dwgs.User)
    (effects (font (size 0.8 0.8) (thickness 0.15)))
  )
  (gr_text 266.4 (at 166.595621 39.834931) (layer Dwgs.User)
    (effects (font (size 0.8 0.8) (thickness 0.15)))
  )
  (gr_text 262.8 (at 169.097329 40.071412) (layer Dwgs.User)
    (effects (font (size 0.8 0.8) (thickness 0.15)))
  )
  (gr_text 259.2 (at 171.579253 40.46451) (layer Dwgs.User)
    (effects (font (size 0.8 0.8) (thickness 0.15)))
  )
  (gr_text 255.6 (at 174.031595 41.012674) (layer Dwgs.User)
    (effects (font (size 0.8 0.8) (thickness 0.15)))
  )
  (gr_text 252.0 (at 176.44468 41.713739) (layer Dwgs.User)
    (effects (font (size 0.8 0.8) (thickness 0.15)))
  )
  (gr_text 248.4 (at 178.808982 42.564941) (layer Dwgs.User)
    (effects (font (size 0.8 0.8) (thickness 0.15)))
  )
  (gr_text 244.8 (at 181.115172 43.562918) (layer Dwgs.User)
    (effects (font (size 0.8 0.8) (thickness 0.15)))
  )
  (gr_text 241.2 (at 183.354147 44.703733) (layer Dwgs.User)
    (effects (font (size 0.8 0.8) (thickness 0.15)))
  )
  (gr_text 237.6 (at 185.517072 45.982883) (layer Dwgs.User)
    (effects (font (size 0.8 0.8) (thickness 0.15)))
  )
  (gr_text 234.0 (at 187.59541 47.39532) (layer Dwgs.User)
    (effects (font (size 0.8 0.8) (thickness 0.15)))
  )
  (gr_text 230.4 (at 189.58096 48.93547) (layer Dwgs.User)
    (effects (font (size 0.8 0.8) (thickness 0.15)))
  )
  (gr_text 226.8 (at 191.465884 50.597255) (layer Dwgs.User)
    (effects (font (size 0.8 0.8) (thickness 0.15)))
  )
  (gr_text 223.2 (at 193.242745 52.374116) (layer Dwgs.User)
    (effects (font (size 0.8 0.8) (thickness 0.15)))
  )
  (gr_text 219.6 (at 194.90453 54.25904) (layer Dwgs.User)
    (effects (font (size 0.8 0.8) (thickness 0.15)))
  )
  (gr_text 216.0 (at 196.44468 56.24459) (layer Dwgs.User)
    (effects (font (size 0.8 0.8) (thickness 0.15)))
  )
  (gr_text 212.4 (at 197.857117 58.322928) (layer Dwgs.User)
    (effects (font (size 0.8 0.8) (thickness 0.15)))
  )
  (gr_text 208.8 (at 199.136267 60.485853) (layer Dwgs.User)
    (effects (font (size 0.8 0.8) (thickness 0.15)))
  )
  (gr_text 205.2 (at 200.277082 62.724828) (layer Dwgs.User)
    (effects (font (size 0.8 0.8) (thickness 0.15)))
  )
  (gr_text 201.6 (at 201.275059 65.031018) (layer Dwgs.User)
    (effects (font (size 0.8 0.8) (thickness 0.15)))
  )
  (gr_text 198.0 (at 202.126261 67.39532) (layer Dwgs.User)
    (effects (font (size 0.8 0.8) (thickness 0.15)))
  )
  (gr_text 194.4 (at 202.827326 69.808405) (layer Dwgs.User)
    (effects (font (size 0.8 0.8) (thickness 0.15)))
  )
  (gr_text 190.8 (at 203.37549 72.260747) (layer Dwgs.User)
    (effects (font (size 0.8 0.8) (thickness 0.15)))
  )
  (gr_text 187.2 (at 203.768588 74.742671) (layer Dwgs.User)
    (effects (font (size 0.8 0.8) (thickness 0.15)))
  )
  (gr_text 183.6 (at 204.005069 77.244379) (layer Dwgs.User)
    (effects (font (size 0.8 0.8) (thickness 0.15)))
  )

  (segment (start 163.083999 87.506) (end 163.083999 89.967826) (width 0.29) (layer F.Cu) (net 57))
  (segment (start 163.083999 89.967826) (end 162.984044 90.067781) (width 0.29) (layer F.Cu) (net 57))
  (segment (start 162.984044 90.067781) (end 162.555813 90.496012) (width 0.29) (layer F.Cu) (net 57))
  (segment (start 162.584 87.506) (end 162.584 89.788989) (width 0.29) (layer F.Cu) (net 58))
  (segment (start 162.584 89.788989) (end 162.504035 89.868954) (width 0.29) (layer F.Cu) (net 58))
  (segment (start 162.504035 89.868954) (end 162.102095 90.270894) (width 0.29) (layer F.Cu) (net 58))
  (segment (start 162.083999 87.506) (end 162.083999 89.610154) (width 0.29) (layer F.Cu) (net 59))
  (segment (start 162.083999 89.610154) (end 162.024026 89.670127) (width 0.29) (layer F.Cu) (net 59))
  (segment (start 162.024026 89.670127) (end 161.384217 90.309936) (width 0.29) (layer F.Cu) (net 59))
  (segment (start 161.584 87.506) (end 161.584 89.431317) (width 0.29) (layer F.Cu) (net 60))
  (segment (start 161.584 89.431317) (end 161.544017 89.4713) (width 0.29) (layer F.Cu) (net 60))
  (segment (start 161.544017 89.4713) (end 160.637129 90.378188) (width 0.29) (layer F.Cu) (net 60))
  (segment (start 161.064009 88.412892) (end 161.064008 89.272473) (width 0.29) (layer F.Cu) (net 61))
  (segment (start 161.084001 88.3929) (end 161.064009 88.412892) (width 0.29) (layer F.Cu) (net 61))
  (segment (start 161.084001 87.506) (end 161.084001 88.3929) (width 0.29) (layer F.Cu) (net 61))
  (segment (start 161.064008 89.272473) (end 159.977671 90.35881) (width 0.29) (layer F.Cu) (net 61))
  (segment (start 160.583999 89.073646) (end 159.299705 90.35794) (width 0.29) (layer F.Cu) (net 62))
  (segment (start 160.583999 87.506) (end 160.583999 89.073646) (width 0.29) (layer F.Cu) (net 62))
  (segment (start 159.299705 90.35794) (end 159.27326 90.35794) (width 0.29) (layer F.Cu) (net 62))
  (segment (start 159.27326 90.35794) (end 159.06369 90.56751) (width 0.29) (layer F.Cu) (net 62))
  (segment (start 159.06369 90.56751) (end 158.67634 90.95486) (width 0.29) (layer F.Cu) (net 62) (tstamp 5FF0BCA9))
  (via (at 158.66618 90.96756) (size 0.6) (drill 0.3) (layers F.Cu B.Cu) (net 62))
  (segment (start 160.064009 88.9148) (end 159.100878 89.877931) (width 0.29) (layer F.Cu) (net 63))
  (segment (start 160.064009 88.386091) (end 160.064009 88.9148) (width 0.29) (layer F.Cu) (net 63))
  (segment (start 160.084 88.3661) (end 160.064009 88.386091) (width 0.29) (layer F.Cu) (net 63))
  (segment (start 160.084 87.506) (end 160.084 88.3661) (width 0.29) (layer F.Cu) (net 63))
  (segment (start 158.4452 90.19286) (end 157.90418 90.73388) (width 0.29) (layer F.Cu) (net 63) (tstamp 5FF0BC6A))
  (via (at 158.4452 90.19286) (size 0.6) (drill 0.3) (layers F.Cu B.Cu) (net 63))
  (segment (start 158.873753 89.877931) (end 159.100878 89.877931) (width 0.29) (layer F.Cu) (net 63))
  (segment (start 158.858823 89.892861) (end 158.873753 89.877931) (width 0.29) (layer F.Cu) (net 63))
  (segment (start 158.745199 89.892861) (end 158.858823 89.892861) (width 0.29) (layer F.Cu) (net 63))
  (segment (start 158.4452 90.19286) (end 158.745199 89.892861) (width 0.29) (layer F.Cu) (net 63))
  (segment (start 159.583999 87.506) (end 159.583999 88.715974) (width 0.29) (layer F.Cu) (net 64))
  (segment (start 159.583999 88.715974) (end 158.902052 89.397921) (width 0.29) (layer F.Cu) (net 64))
  (segment (start 158.902052 89.397921) (end 157.97022 89.397921) (width 0.29) (layer F.Cu) (net 64))
  (segment (start 157.97022 89.397921) (end 157.97022 89.42578) (width 0.29) (layer F.Cu) (net 64))
  (segment (start 157.97022 89.42578) (end 157.72003 89.67597) (width 0.29) (layer F.Cu) (net 64))
  (via (at 157.72003 89.67597) (size 0.6) (drill 0.3) (layers F.Cu B.Cu) (net 64))
  (segment (start 158.083999 87.506) (end 156.842 87.506) (width 0.29) (layer F.Cu) (net 65))
  (segment (start 156.842 87.506) (end 156.29636 88.05164) (width 0.29) (layer F.Cu) (net 65))
  (segment (start 156.29636 88.05164) (end 156.29636 88.05164) (width 0.29) (layer F.Cu) (net 65) (tstamp 5FF0B996))
  (via (at 156.22016 88.11514) (size 0.6) (drill 0.3) (layers F.Cu B.Cu) (net 65))
  (segment (start 156.334 85.756001) (end 156.334 86.97768) (width 0.29) (layer F.Cu) (net 66))
  (segment (start 156.334 86.97768) (end 156.10586 87.20582) (width 0.29) (layer F.Cu) (net 66))
  (segment (start 156.10586 87.20582) (end 156.10586 87.20582) (width 0.29) (layer F.Cu) (net 66) (tstamp 5FF0B593))
  (via (at 156.10586 87.20582) (size 0.6) (drill 0.3) (layers F.Cu B.Cu) (net 66))
  (segment (start 155.4817 85.255999) (end 155.402099 85.3356) (width 0.29) (layer F.Cu) (net 67))
  (segment (start 156.334 85.255999) (end 155.4817 85.255999) (width 0.29) (layer F.Cu) (net 67))
  (segment (start 155.402099 85.3356) (end 155.402099 85.81644) (width 0.29) (layer F.Cu) (net 67))
  (segment (start 155.402099 85.81644) (end 155.402099 86.888501) (width 0.29) (layer F.Cu) (net 67))
  (segment (start 155.402099 86.888501) (end 155.402099 86.903741) (width 0.29) (layer F.Cu) (net 67))
  (segment (start 155.402099 86.888501) (end 155.389399 86.888501) (width 0.29) (layer F.Cu) (net 67))
  (segment (start 155.389399 86.888501) (end 154.80792 87.46998) (width 0.29) (layer F.Cu) (net 67))
  (segment (start 154.80792 87.46998) (end 154.80792 87.46998) (width 0.29) (layer F.Cu) (net 67) (tstamp 5FF0B933))
  (via (at 154.6479 87.55634) (size 0.6) (drill 0.3) (layers F.Cu B.Cu) (net 67))
  (segment (start 155.302863 84.756) (end 154.922089 85.136774) (width 0.29) (layer F.Cu) (net 68))
  (segment (start 156.334 84.756) (end 155.302863 84.756) (width 0.29) (layer F.Cu) (net 68))
  (segment (start 154.922089 85.136774) (end 154.922089 85.617614) (width 0.29) (layer F.Cu) (net 68))
  (segment (start 154.922089 85.617614) (end 154.922089 86.29904) (width 0.29) (layer F.Cu) (net 68))
  (segment (start 154.922089 86.29904) (end 154.91968 86.29904) (width 0.29) (layer F.Cu) (net 68))
  (segment (start 154.922089 86.29904) (end 154.922089 86.370291) (width 0.29) (layer F.Cu) (net 68))
  (segment (start 154.922089 86.370291) (end 154.56662 86.72576) (width 0.29) (layer F.Cu) (net 68))
  (segment (start 154.56662 86.72576) (end 154.56662 86.72576) (width 0.29) (layer F.Cu) (net 68) (tstamp 5FF0B90F))
  (via (at 154.56662 86.72576) (size 0.6) (drill 0.3) (layers F.Cu B.Cu) (net 68))
  (segment (start 154.945191 83.756) (end 153.962069 84.739122) (width 0.29) (layer F.Cu) (net 69))
  (segment (start 156.334 83.756) (end 154.945191 83.756) (width 0.29) (layer F.Cu) (net 69))
  (segment (start 153.962069 84.739122) (end 153.962069 85.120511) (width 0.29) (layer F.Cu) (net 69))
  (segment (start 153.962069 85.120511) (end 153.6192 85.46338) (width 0.29) (layer F.Cu) (net 69))
  (segment (start 153.6192 85.46338) (end 153.6192 85.46338) (width 0.29) (layer F.Cu) (net 69) (tstamp 5FF0B583))
  (via (at 153.5049 85.54212) (size 0.6) (drill 0.3) (layers F.Cu B.Cu) (net 69))
  (segment (start 170.084001 88.301001) (end 171.958 90.175) (width 0.29) (layer F.Cu) (net 85))
  (segment (start 170.084001 87.506) (end 170.084001 88.301001) (width 0.29) (layer F.Cu) (net 85))
  (segment (start 152.810999 82.755999) (end 156.334 82.755999) (width 0.29) (layer F.Cu) (net 85))
  (segment (start 152.351 82.296) (end 152.810999 82.755999) (width 0.29) (layer F.Cu) (net 85))
  (segment (start 158.083999 72.006) (end 158.083999 71.215999) (width 0.29) (layer F.Cu) (net 85))
  (segment (start 156.972 70.104) (end 156.972 68.023) (width 0.29) (layer F.Cu) (net 85))
  (segment (start 158.083999 71.215999) (end 156.972 70.104) (width 0.29) (layer F.Cu) (net 85))
  (segment (start 152.364401 78.753401) (end 152.351 78.74) (width 0.29) (layer F.Cu) (net 85))
  (segment (start 155.969401 78.753401) (end 152.364401 78.753401) (width 0.29) (layer F.Cu) (net 85))
  (segment (start 155.971999 78.755999) (end 155.969401 78.753401) (width 0.29) (layer F.Cu) (net 85))
  (segment (start 156.334 78.755999) (end 155.971999 78.755999) (width 0.29) (layer F.Cu) (net 85))
  (segment (start 172.673001 73.755999) (end 174.801 71.628) (width 0.29) (layer F.Cu) (net 85))
  (segment (start 171.834 73.755999) (end 172.673001 73.755999) (width 0.29) (layer F.Cu) (net 85))
  (segment (start 156.397641 89.952243) (end 156.397641 90.295557) (width 0.29) (layer F.Cu) (net 85))
  (segment (start 157.431973 88.917911) (end 156.965832 89.384052) (width 0.29) (layer F.Cu) (net 85))
  (segment (start 158.703226 88.917911) (end 157.431973 88.917911) (width 0.29) (layer F.Cu) (net 85))
  (segment (start 159.084 88.537137) (end 158.703226 88.917911) (width 0.29) (layer F.Cu) (net 85))
  (segment (start 159.084 87.506) (end 159.084 88.537137) (width 0.29) (layer F.Cu) (net 85))
  (segment (start 156.965832 89.384052) (end 156.397641 89.952243) (width 0.29) (layer F.Cu) (net 85) (tstamp 5FF0BC18))
  (via (at 156.965832 89.384052) (size 0.6) (drill 0.3) (layers F.Cu B.Cu) (net 85))
  (segment (start 170.40901 91.87499) (end 169.164 93.12) (width 0.29) (layer F.Cu) (net 86))
  (segment (start 169.583999 88.773525) (end 170.40901 89.598536) (width 0.29) (layer F.Cu) (net 86))
  (segment (start 169.583999 87.506) (end 169.583999 88.773525) (width 0.29) (layer F.Cu) (net 86))
  (segment (start 170.40901 89.598536) (end 170.40901 91.87499) (width 0.29) (layer F.Cu) (net 86))
  (segment (start 170.70799 91.87499) (end 171.958 93.125) (width 0.29) (layer F.Cu) (net 86))
  (segment (start 170.40901 91.87499) (end 170.70799 91.87499) (width 0.29) (layer F.Cu) (net 86))
  (segment (start 158.5814 87.5446) (end 158.5814 88.317126) (width 0.29) (layer F.Cu) (net 86))
  (segment (start 158.584001 87.541999) (end 158.5814 87.5446) (width 0.29) (layer F.Cu) (net 86))
  (segment (start 158.584001 87.506) (end 158.584001 87.541999) (width 0.29) (layer F.Cu) (net 86))
  (segment (start 150.64601 83.54101) (end 153.18699 83.54101) (width 0.29) (layer F.Cu) (net 86))
  (segment (start 149.401 82.296) (end 150.64601 83.54101) (width 0.29) (layer F.Cu) (net 86))
  (segment (start 153.471999 83.256001) (end 156.334 83.256001) (width 0.29) (layer F.Cu) (net 86))
  (segment (start 153.18699 83.54101) (end 153.471999 83.256001) (width 0.29) (layer F.Cu) (net 86))
  (segment (start 176.227 73.152) (end 177.751 74.676) (width 0.29) (layer F.Cu) (net 86))
  (segment (start 173.404525 74.256001) (end 174.508526 73.152) (width 0.29) (layer F.Cu) (net 86))
  (segment (start 171.834 74.256001) (end 173.404525 74.256001) (width 0.29) (layer F.Cu) (net 86))
  (segment (start 176.227 73.152) (end 177.751 71.628) (width 0.29) (layer F.Cu) (net 86))
  (segment (start 175.768 73.152) (end 176.227 73.152) (width 0.29) (layer F.Cu) (net 86))
  (segment (start 174.508526 73.152) (end 175.768 73.152) (width 0.29) (layer F.Cu) (net 86))
  (segment (start 158.5044 88.437901) (end 156.972181 88.437901) (width 0.29) (layer F.Cu) (net 86))
  (segment (start 158.584001 88.3583) (end 158.5044 88.437901) (width 0.29) (layer F.Cu) (net 86))
  (segment (start 158.584001 87.506) (end 158.584001 88.3583) (width 0.29) (layer F.Cu) (net 86))
  (segment (start 156.972181 88.437901) (end 156.972181 88.437901) (width 0.29) (layer F.Cu) (net 86) (tstamp 5FF0B9AC))
  (via (at 156.972181 88.437901) (size 0.6) (drill 0.3) (layers F.Cu B.Cu) (net 86))
  (segment (start 154.549159 92.594603) (end 154.549159 90.271281) (width 0.29) (layer F.Cu) (net 86))
  (segment (start 156.430072 88.98001) (end 155.84043 88.98001) (width 0.29) (layer F.Cu) (net 86))
  (segment (start 156.972181 88.437901) (end 156.430072 88.98001) (width 0.29) (layer F.Cu) (net 86))
  (segment (start 154.549159 90.271281) (end 155.84043 88.98001) (width 0.29) (layer F.Cu) (net 86))
  (segment (start 172.138598 74.758598) (end 174.718402 74.758598) (width 0.29) (layer F.Cu) (net 87))
  (segment (start 172.136 74.756) (end 172.138598 74.758598) (width 0.29) (layer F.Cu) (net 87))
  (segment (start 174.718402 74.758598) (end 174.801 74.676) (width 0.29) (layer F.Cu) (net 87))
  (segment (start 171.834 74.756) (end 172.136 74.756) (width 0.29) (layer F.Cu) (net 87))
  (segment (start 169.084 90.09) (end 169.164 90.17) (width 0.29) (layer F.Cu) (net 88))
  (segment (start 169.084 87.506) (end 169.084 90.09) (width 0.29) (layer F.Cu) (net 88))
  (segment (start 155.124028 84.255999) (end 154.442079 84.937948) (width 0.29) (layer F.Cu) (net 89))
  (segment (start 156.334 84.255999) (end 155.124028 84.255999) (width 0.29) (layer F.Cu) (net 89))
  (segment (start 154.442079 84.937948) (end 154.442079 85.73516) (width 0.29) (layer F.Cu) (net 89))
  (segment (start 154.442079 85.73516) (end 154.442079 85.765721) (width 0.29) (layer F.Cu) (net 89))
  (segment (start 154.442079 85.765721) (end 154.22753 85.98027) (width 0.29) (layer F.Cu) (net 89))
  (via (at 154.22753 85.98027) (size 0.6) (drill 0.3) (layers F.Cu B.Cu) (net 89))
  (segment (start 153.391005 86.816795) (end 153.084044 86.816795) (width 0.29) (layer F.Cu) (net 89))
  (segment (start 154.22753 85.98027) (end 153.391005 86.816795) (width 0.29) (layer F.Cu) (net 89))
  (segment (start 152.406999 76.255999) (end 152.351 76.2) (width 0.29) (layer F.Cu) (net 90))
  (segment (start 156.334 76.255999) (end 152.406999 76.255999) (width 0.29) (layer F.Cu) (net 90))

)
