%TF.GenerationSoftware,KiCad,Pcbnew,(5.1.8)-1*%
%TF.CreationDate,2021-03-02T00:13:56+01:00*%
%TF.ProjectId,UNIPG_Racing_Team,554e4950-475f-4526-9163-696e675f5465,rev?*%
%TF.SameCoordinates,Original*%
%TF.FileFunction,Profile,NP*%
%FSLAX46Y46*%
G04 Gerber Fmt 4.6, Leading zero omitted, Abs format (unit mm)*
G04 Created by KiCad (PCBNEW (5.1.8)-1) date 2021-03-02 00:13:56*
%MOMM*%
%LPD*%
G01*
G04 APERTURE LIST*
%TA.AperFunction,Profile*%
%ADD10C,0.050000*%
%TD*%
G04 APERTURE END LIST*
D10*
X128270000Y-106045000D02*
X128270000Y-45720000D01*
X198000000Y-106045000D02*
X128270000Y-106045000D01*
X198000000Y-45720000D02*
X198000000Y-106045000D01*
X128270000Y-45720000D02*
X198000000Y-45720000D01*
M02*
