%TF.GenerationSoftware,KiCad,Pcbnew,(5.1.8)-1*%
%TF.CreationDate,2021-03-02T00:13:56+01:00*%
%TF.ProjectId,UNIPG_Racing_Team,554e4950-475f-4526-9163-696e675f5465,rev?*%
%TF.SameCoordinates,Original*%
%TF.FileFunction,Legend,Bot*%
%TF.FilePolarity,Positive*%
%FSLAX46Y46*%
G04 Gerber Fmt 4.6, Leading zero omitted, Abs format (unit mm)*
G04 Created by KiCad (PCBNEW (5.1.8)-1) date 2021-03-02 00:13:56*
%MOMM*%
%LPD*%
G01*
G04 APERTURE LIST*
%ADD10C,0.120000*%
%ADD11C,0.150000*%
G04 APERTURE END LIST*
D10*
%TO.C,R19*%
X163072936Y-46890000D02*
X164527064Y-46890000D01*
X163072936Y-48710000D02*
X164527064Y-48710000D01*
%TO.C,R18*%
X168072936Y-46890000D02*
X169527064Y-46890000D01*
X168072936Y-48710000D02*
X169527064Y-48710000D01*
%TO.C,R17*%
X174527064Y-48710000D02*
X173072936Y-48710000D01*
X174527064Y-46890000D02*
X173072936Y-46890000D01*
%TO.C,R16*%
X168222936Y-53890000D02*
X169677064Y-53890000D01*
X168222936Y-55710000D02*
X169677064Y-55710000D01*
%TO.C,R15*%
X179527064Y-48710000D02*
X178072936Y-48710000D01*
X179527064Y-46890000D02*
X178072936Y-46890000D01*
%TO.C,R14*%
X181690000Y-48927064D02*
X181690000Y-47472936D01*
X183510000Y-48927064D02*
X183510000Y-47472936D01*
%TO.C,C28*%
X163088748Y-51490000D02*
X164511252Y-51490000D01*
X163088748Y-53310000D02*
X164511252Y-53310000D01*
%TO.C,C27*%
X169711252Y-53310000D02*
X168288748Y-53310000D01*
X169711252Y-51490000D02*
X168288748Y-51490000D01*
%TO.C,C26*%
X173488748Y-51490000D02*
X174911252Y-51490000D01*
X173488748Y-53310000D02*
X174911252Y-53310000D01*
%TO.C,C25*%
X164511252Y-55710000D02*
X163088748Y-55710000D01*
X164511252Y-53890000D02*
X163088748Y-53890000D01*
%TO.C,C24*%
X179911252Y-53310000D02*
X178488748Y-53310000D01*
X179911252Y-51490000D02*
X178488748Y-51490000D01*
%TO.C,C23*%
X183910000Y-52488748D02*
X183910000Y-53911252D01*
X182090000Y-52488748D02*
X182090000Y-53911252D01*
%TO.C,R22*%
X146510000Y-63672936D02*
X146510000Y-65127064D01*
X144690000Y-63672936D02*
X144690000Y-65127064D01*
%TO.C,R20*%
X146510000Y-68672936D02*
X146510000Y-70127064D01*
X144690000Y-68672936D02*
X144690000Y-70127064D01*
%TO.C,R7*%
X194110000Y-95972064D02*
X194110000Y-94517936D01*
X192290000Y-95972064D02*
X192290000Y-94517936D01*
%TO.C,R6*%
X194966000Y-69307064D02*
X194966000Y-67852936D01*
X193146000Y-69307064D02*
X193146000Y-67852936D01*
%TO.C,R19*%
D11*
X164442857Y-50072380D02*
X164776190Y-49596190D01*
X165014285Y-50072380D02*
X165014285Y-49072380D01*
X164633333Y-49072380D01*
X164538095Y-49120000D01*
X164490476Y-49167619D01*
X164442857Y-49262857D01*
X164442857Y-49405714D01*
X164490476Y-49500952D01*
X164538095Y-49548571D01*
X164633333Y-49596190D01*
X165014285Y-49596190D01*
X163490476Y-50072380D02*
X164061904Y-50072380D01*
X163776190Y-50072380D02*
X163776190Y-49072380D01*
X163871428Y-49215238D01*
X163966666Y-49310476D01*
X164061904Y-49358095D01*
X163014285Y-50072380D02*
X162823809Y-50072380D01*
X162728571Y-50024761D01*
X162680952Y-49977142D01*
X162585714Y-49834285D01*
X162538095Y-49643809D01*
X162538095Y-49262857D01*
X162585714Y-49167619D01*
X162633333Y-49120000D01*
X162728571Y-49072380D01*
X162919047Y-49072380D01*
X163014285Y-49120000D01*
X163061904Y-49167619D01*
X163109523Y-49262857D01*
X163109523Y-49500952D01*
X163061904Y-49596190D01*
X163014285Y-49643809D01*
X162919047Y-49691428D01*
X162728571Y-49691428D01*
X162633333Y-49643809D01*
X162585714Y-49596190D01*
X162538095Y-49500952D01*
%TO.C,R18*%
X169442857Y-50072380D02*
X169776190Y-49596190D01*
X170014285Y-50072380D02*
X170014285Y-49072380D01*
X169633333Y-49072380D01*
X169538095Y-49120000D01*
X169490476Y-49167619D01*
X169442857Y-49262857D01*
X169442857Y-49405714D01*
X169490476Y-49500952D01*
X169538095Y-49548571D01*
X169633333Y-49596190D01*
X170014285Y-49596190D01*
X168490476Y-50072380D02*
X169061904Y-50072380D01*
X168776190Y-50072380D02*
X168776190Y-49072380D01*
X168871428Y-49215238D01*
X168966666Y-49310476D01*
X169061904Y-49358095D01*
X167919047Y-49500952D02*
X168014285Y-49453333D01*
X168061904Y-49405714D01*
X168109523Y-49310476D01*
X168109523Y-49262857D01*
X168061904Y-49167619D01*
X168014285Y-49120000D01*
X167919047Y-49072380D01*
X167728571Y-49072380D01*
X167633333Y-49120000D01*
X167585714Y-49167619D01*
X167538095Y-49262857D01*
X167538095Y-49310476D01*
X167585714Y-49405714D01*
X167633333Y-49453333D01*
X167728571Y-49500952D01*
X167919047Y-49500952D01*
X168014285Y-49548571D01*
X168061904Y-49596190D01*
X168109523Y-49691428D01*
X168109523Y-49881904D01*
X168061904Y-49977142D01*
X168014285Y-50024761D01*
X167919047Y-50072380D01*
X167728571Y-50072380D01*
X167633333Y-50024761D01*
X167585714Y-49977142D01*
X167538095Y-49881904D01*
X167538095Y-49691428D01*
X167585714Y-49596190D01*
X167633333Y-49548571D01*
X167728571Y-49500952D01*
%TO.C,R17*%
X174442857Y-46852380D02*
X174776190Y-46376190D01*
X175014285Y-46852380D02*
X175014285Y-45852380D01*
X174633333Y-45852380D01*
X174538095Y-45900000D01*
X174490476Y-45947619D01*
X174442857Y-46042857D01*
X174442857Y-46185714D01*
X174490476Y-46280952D01*
X174538095Y-46328571D01*
X174633333Y-46376190D01*
X175014285Y-46376190D01*
X173490476Y-46852380D02*
X174061904Y-46852380D01*
X173776190Y-46852380D02*
X173776190Y-45852380D01*
X173871428Y-45995238D01*
X173966666Y-46090476D01*
X174061904Y-46138095D01*
X173157142Y-45852380D02*
X172490476Y-45852380D01*
X172919047Y-46852380D01*
%TO.C,R16*%
X169592857Y-57072380D02*
X169926190Y-56596190D01*
X170164285Y-57072380D02*
X170164285Y-56072380D01*
X169783333Y-56072380D01*
X169688095Y-56120000D01*
X169640476Y-56167619D01*
X169592857Y-56262857D01*
X169592857Y-56405714D01*
X169640476Y-56500952D01*
X169688095Y-56548571D01*
X169783333Y-56596190D01*
X170164285Y-56596190D01*
X168640476Y-57072380D02*
X169211904Y-57072380D01*
X168926190Y-57072380D02*
X168926190Y-56072380D01*
X169021428Y-56215238D01*
X169116666Y-56310476D01*
X169211904Y-56358095D01*
X167783333Y-56072380D02*
X167973809Y-56072380D01*
X168069047Y-56120000D01*
X168116666Y-56167619D01*
X168211904Y-56310476D01*
X168259523Y-56500952D01*
X168259523Y-56881904D01*
X168211904Y-56977142D01*
X168164285Y-57024761D01*
X168069047Y-57072380D01*
X167878571Y-57072380D01*
X167783333Y-57024761D01*
X167735714Y-56977142D01*
X167688095Y-56881904D01*
X167688095Y-56643809D01*
X167735714Y-56548571D01*
X167783333Y-56500952D01*
X167878571Y-56453333D01*
X168069047Y-56453333D01*
X168164285Y-56500952D01*
X168211904Y-56548571D01*
X168259523Y-56643809D01*
%TO.C,R15*%
X179442857Y-46852380D02*
X179776190Y-46376190D01*
X180014285Y-46852380D02*
X180014285Y-45852380D01*
X179633333Y-45852380D01*
X179538095Y-45900000D01*
X179490476Y-45947619D01*
X179442857Y-46042857D01*
X179442857Y-46185714D01*
X179490476Y-46280952D01*
X179538095Y-46328571D01*
X179633333Y-46376190D01*
X180014285Y-46376190D01*
X178490476Y-46852380D02*
X179061904Y-46852380D01*
X178776190Y-46852380D02*
X178776190Y-45852380D01*
X178871428Y-45995238D01*
X178966666Y-46090476D01*
X179061904Y-46138095D01*
X177585714Y-45852380D02*
X178061904Y-45852380D01*
X178109523Y-46328571D01*
X178061904Y-46280952D01*
X177966666Y-46233333D01*
X177728571Y-46233333D01*
X177633333Y-46280952D01*
X177585714Y-46328571D01*
X177538095Y-46423809D01*
X177538095Y-46661904D01*
X177585714Y-46757142D01*
X177633333Y-46804761D01*
X177728571Y-46852380D01*
X177966666Y-46852380D01*
X178061904Y-46804761D01*
X178109523Y-46757142D01*
%TO.C,R14*%
X184872380Y-47557142D02*
X184396190Y-47223809D01*
X184872380Y-46985714D02*
X183872380Y-46985714D01*
X183872380Y-47366666D01*
X183920000Y-47461904D01*
X183967619Y-47509523D01*
X184062857Y-47557142D01*
X184205714Y-47557142D01*
X184300952Y-47509523D01*
X184348571Y-47461904D01*
X184396190Y-47366666D01*
X184396190Y-46985714D01*
X184872380Y-48509523D02*
X184872380Y-47938095D01*
X184872380Y-48223809D02*
X183872380Y-48223809D01*
X184015238Y-48128571D01*
X184110476Y-48033333D01*
X184158095Y-47938095D01*
X184205714Y-49366666D02*
X184872380Y-49366666D01*
X183824761Y-49128571D02*
X184539047Y-48890476D01*
X184539047Y-49509523D01*
%TO.C,C28*%
X164442857Y-54607142D02*
X164490476Y-54654761D01*
X164633333Y-54702380D01*
X164728571Y-54702380D01*
X164871428Y-54654761D01*
X164966666Y-54559523D01*
X165014285Y-54464285D01*
X165061904Y-54273809D01*
X165061904Y-54130952D01*
X165014285Y-53940476D01*
X164966666Y-53845238D01*
X164871428Y-53750000D01*
X164728571Y-53702380D01*
X164633333Y-53702380D01*
X164490476Y-53750000D01*
X164442857Y-53797619D01*
X164061904Y-53797619D02*
X164014285Y-53750000D01*
X163919047Y-53702380D01*
X163680952Y-53702380D01*
X163585714Y-53750000D01*
X163538095Y-53797619D01*
X163490476Y-53892857D01*
X163490476Y-53988095D01*
X163538095Y-54130952D01*
X164109523Y-54702380D01*
X163490476Y-54702380D01*
X162919047Y-54130952D02*
X163014285Y-54083333D01*
X163061904Y-54035714D01*
X163109523Y-53940476D01*
X163109523Y-53892857D01*
X163061904Y-53797619D01*
X163014285Y-53750000D01*
X162919047Y-53702380D01*
X162728571Y-53702380D01*
X162633333Y-53750000D01*
X162585714Y-53797619D01*
X162538095Y-53892857D01*
X162538095Y-53940476D01*
X162585714Y-54035714D01*
X162633333Y-54083333D01*
X162728571Y-54130952D01*
X162919047Y-54130952D01*
X163014285Y-54178571D01*
X163061904Y-54226190D01*
X163109523Y-54321428D01*
X163109523Y-54511904D01*
X163061904Y-54607142D01*
X163014285Y-54654761D01*
X162919047Y-54702380D01*
X162728571Y-54702380D01*
X162633333Y-54654761D01*
X162585714Y-54607142D01*
X162538095Y-54511904D01*
X162538095Y-54321428D01*
X162585714Y-54226190D01*
X162633333Y-54178571D01*
X162728571Y-54130952D01*
%TO.C,C27*%
X169642857Y-50907142D02*
X169690476Y-50954761D01*
X169833333Y-51002380D01*
X169928571Y-51002380D01*
X170071428Y-50954761D01*
X170166666Y-50859523D01*
X170214285Y-50764285D01*
X170261904Y-50573809D01*
X170261904Y-50430952D01*
X170214285Y-50240476D01*
X170166666Y-50145238D01*
X170071428Y-50050000D01*
X169928571Y-50002380D01*
X169833333Y-50002380D01*
X169690476Y-50050000D01*
X169642857Y-50097619D01*
X169261904Y-50097619D02*
X169214285Y-50050000D01*
X169119047Y-50002380D01*
X168880952Y-50002380D01*
X168785714Y-50050000D01*
X168738095Y-50097619D01*
X168690476Y-50192857D01*
X168690476Y-50288095D01*
X168738095Y-50430952D01*
X169309523Y-51002380D01*
X168690476Y-51002380D01*
X168357142Y-50002380D02*
X167690476Y-50002380D01*
X168119047Y-51002380D01*
%TO.C,C26*%
X174842857Y-54607142D02*
X174890476Y-54654761D01*
X175033333Y-54702380D01*
X175128571Y-54702380D01*
X175271428Y-54654761D01*
X175366666Y-54559523D01*
X175414285Y-54464285D01*
X175461904Y-54273809D01*
X175461904Y-54130952D01*
X175414285Y-53940476D01*
X175366666Y-53845238D01*
X175271428Y-53750000D01*
X175128571Y-53702380D01*
X175033333Y-53702380D01*
X174890476Y-53750000D01*
X174842857Y-53797619D01*
X174461904Y-53797619D02*
X174414285Y-53750000D01*
X174319047Y-53702380D01*
X174080952Y-53702380D01*
X173985714Y-53750000D01*
X173938095Y-53797619D01*
X173890476Y-53892857D01*
X173890476Y-53988095D01*
X173938095Y-54130952D01*
X174509523Y-54702380D01*
X173890476Y-54702380D01*
X173033333Y-53702380D02*
X173223809Y-53702380D01*
X173319047Y-53750000D01*
X173366666Y-53797619D01*
X173461904Y-53940476D01*
X173509523Y-54130952D01*
X173509523Y-54511904D01*
X173461904Y-54607142D01*
X173414285Y-54654761D01*
X173319047Y-54702380D01*
X173128571Y-54702380D01*
X173033333Y-54654761D01*
X172985714Y-54607142D01*
X172938095Y-54511904D01*
X172938095Y-54273809D01*
X172985714Y-54178571D01*
X173033333Y-54130952D01*
X173128571Y-54083333D01*
X173319047Y-54083333D01*
X173414285Y-54130952D01*
X173461904Y-54178571D01*
X173509523Y-54273809D01*
%TO.C,C25*%
X164442857Y-53307142D02*
X164490476Y-53354761D01*
X164633333Y-53402380D01*
X164728571Y-53402380D01*
X164871428Y-53354761D01*
X164966666Y-53259523D01*
X165014285Y-53164285D01*
X165061904Y-52973809D01*
X165061904Y-52830952D01*
X165014285Y-52640476D01*
X164966666Y-52545238D01*
X164871428Y-52450000D01*
X164728571Y-52402380D01*
X164633333Y-52402380D01*
X164490476Y-52450000D01*
X164442857Y-52497619D01*
X164061904Y-52497619D02*
X164014285Y-52450000D01*
X163919047Y-52402380D01*
X163680952Y-52402380D01*
X163585714Y-52450000D01*
X163538095Y-52497619D01*
X163490476Y-52592857D01*
X163490476Y-52688095D01*
X163538095Y-52830952D01*
X164109523Y-53402380D01*
X163490476Y-53402380D01*
X162585714Y-52402380D02*
X163061904Y-52402380D01*
X163109523Y-52878571D01*
X163061904Y-52830952D01*
X162966666Y-52783333D01*
X162728571Y-52783333D01*
X162633333Y-52830952D01*
X162585714Y-52878571D01*
X162538095Y-52973809D01*
X162538095Y-53211904D01*
X162585714Y-53307142D01*
X162633333Y-53354761D01*
X162728571Y-53402380D01*
X162966666Y-53402380D01*
X163061904Y-53354761D01*
X163109523Y-53307142D01*
%TO.C,C24*%
X179842857Y-50907142D02*
X179890476Y-50954761D01*
X180033333Y-51002380D01*
X180128571Y-51002380D01*
X180271428Y-50954761D01*
X180366666Y-50859523D01*
X180414285Y-50764285D01*
X180461904Y-50573809D01*
X180461904Y-50430952D01*
X180414285Y-50240476D01*
X180366666Y-50145238D01*
X180271428Y-50050000D01*
X180128571Y-50002380D01*
X180033333Y-50002380D01*
X179890476Y-50050000D01*
X179842857Y-50097619D01*
X179461904Y-50097619D02*
X179414285Y-50050000D01*
X179319047Y-50002380D01*
X179080952Y-50002380D01*
X178985714Y-50050000D01*
X178938095Y-50097619D01*
X178890476Y-50192857D01*
X178890476Y-50288095D01*
X178938095Y-50430952D01*
X179509523Y-51002380D01*
X178890476Y-51002380D01*
X178033333Y-50335714D02*
X178033333Y-51002380D01*
X178271428Y-49954761D02*
X178509523Y-50669047D01*
X177890476Y-50669047D01*
%TO.C,C23*%
X181507142Y-52557142D02*
X181554761Y-52509523D01*
X181602380Y-52366666D01*
X181602380Y-52271428D01*
X181554761Y-52128571D01*
X181459523Y-52033333D01*
X181364285Y-51985714D01*
X181173809Y-51938095D01*
X181030952Y-51938095D01*
X180840476Y-51985714D01*
X180745238Y-52033333D01*
X180650000Y-52128571D01*
X180602380Y-52271428D01*
X180602380Y-52366666D01*
X180650000Y-52509523D01*
X180697619Y-52557142D01*
X180697619Y-52938095D02*
X180650000Y-52985714D01*
X180602380Y-53080952D01*
X180602380Y-53319047D01*
X180650000Y-53414285D01*
X180697619Y-53461904D01*
X180792857Y-53509523D01*
X180888095Y-53509523D01*
X181030952Y-53461904D01*
X181602380Y-52890476D01*
X181602380Y-53509523D01*
X180602380Y-53842857D02*
X180602380Y-54461904D01*
X180983333Y-54128571D01*
X180983333Y-54271428D01*
X181030952Y-54366666D01*
X181078571Y-54414285D01*
X181173809Y-54461904D01*
X181411904Y-54461904D01*
X181507142Y-54414285D01*
X181554761Y-54366666D01*
X181602380Y-54271428D01*
X181602380Y-53985714D01*
X181554761Y-53890476D01*
X181507142Y-53842857D01*
%TO.C,R22*%
X144232380Y-63757142D02*
X143756190Y-63423809D01*
X144232380Y-63185714D02*
X143232380Y-63185714D01*
X143232380Y-63566666D01*
X143280000Y-63661904D01*
X143327619Y-63709523D01*
X143422857Y-63757142D01*
X143565714Y-63757142D01*
X143660952Y-63709523D01*
X143708571Y-63661904D01*
X143756190Y-63566666D01*
X143756190Y-63185714D01*
X143327619Y-64138095D02*
X143280000Y-64185714D01*
X143232380Y-64280952D01*
X143232380Y-64519047D01*
X143280000Y-64614285D01*
X143327619Y-64661904D01*
X143422857Y-64709523D01*
X143518095Y-64709523D01*
X143660952Y-64661904D01*
X144232380Y-64090476D01*
X144232380Y-64709523D01*
X143327619Y-65090476D02*
X143280000Y-65138095D01*
X143232380Y-65233333D01*
X143232380Y-65471428D01*
X143280000Y-65566666D01*
X143327619Y-65614285D01*
X143422857Y-65661904D01*
X143518095Y-65661904D01*
X143660952Y-65614285D01*
X144232380Y-65042857D01*
X144232380Y-65661904D01*
%TO.C,R20*%
X144232380Y-68757142D02*
X143756190Y-68423809D01*
X144232380Y-68185714D02*
X143232380Y-68185714D01*
X143232380Y-68566666D01*
X143280000Y-68661904D01*
X143327619Y-68709523D01*
X143422857Y-68757142D01*
X143565714Y-68757142D01*
X143660952Y-68709523D01*
X143708571Y-68661904D01*
X143756190Y-68566666D01*
X143756190Y-68185714D01*
X143327619Y-69138095D02*
X143280000Y-69185714D01*
X143232380Y-69280952D01*
X143232380Y-69519047D01*
X143280000Y-69614285D01*
X143327619Y-69661904D01*
X143422857Y-69709523D01*
X143518095Y-69709523D01*
X143660952Y-69661904D01*
X144232380Y-69090476D01*
X144232380Y-69709523D01*
X143232380Y-70328571D02*
X143232380Y-70423809D01*
X143280000Y-70519047D01*
X143327619Y-70566666D01*
X143422857Y-70614285D01*
X143613333Y-70661904D01*
X143851428Y-70661904D01*
X144041904Y-70614285D01*
X144137142Y-70566666D01*
X144184761Y-70519047D01*
X144232380Y-70423809D01*
X144232380Y-70328571D01*
X144184761Y-70233333D01*
X144137142Y-70185714D01*
X144041904Y-70138095D01*
X143851428Y-70090476D01*
X143613333Y-70090476D01*
X143422857Y-70138095D01*
X143327619Y-70185714D01*
X143280000Y-70233333D01*
X143232380Y-70328571D01*
%TO.C,R7*%
X193398380Y-91268333D02*
X192922190Y-90935000D01*
X193398380Y-90696904D02*
X192398380Y-90696904D01*
X192398380Y-91077857D01*
X192446000Y-91173095D01*
X192493619Y-91220714D01*
X192588857Y-91268333D01*
X192731714Y-91268333D01*
X192826952Y-91220714D01*
X192874571Y-91173095D01*
X192922190Y-91077857D01*
X192922190Y-90696904D01*
X192398380Y-91601666D02*
X192398380Y-92268333D01*
X193398380Y-91839761D01*
%TO.C,R6*%
X194889380Y-64603333D02*
X194413190Y-64270000D01*
X194889380Y-64031904D02*
X193889380Y-64031904D01*
X193889380Y-64412857D01*
X193937000Y-64508095D01*
X193984619Y-64555714D01*
X194079857Y-64603333D01*
X194222714Y-64603333D01*
X194317952Y-64555714D01*
X194365571Y-64508095D01*
X194413190Y-64412857D01*
X194413190Y-64031904D01*
X193889380Y-65460476D02*
X193889380Y-65270000D01*
X193937000Y-65174761D01*
X193984619Y-65127142D01*
X194127476Y-65031904D01*
X194317952Y-64984285D01*
X194698904Y-64984285D01*
X194794142Y-65031904D01*
X194841761Y-65079523D01*
X194889380Y-65174761D01*
X194889380Y-65365238D01*
X194841761Y-65460476D01*
X194794142Y-65508095D01*
X194698904Y-65555714D01*
X194460809Y-65555714D01*
X194365571Y-65508095D01*
X194317952Y-65460476D01*
X194270333Y-65365238D01*
X194270333Y-65174761D01*
X194317952Y-65079523D01*
X194365571Y-65031904D01*
X194460809Y-64984285D01*
%TD*%
M02*
